Water_Year,Month,ARBRC_Temperature_Predicted,TMC_Temperature_F,KFC_Temperature_F,ARBRC_Radiation_Wm2,TMC_Radiation_Wm2,KFC_Radiation_Wm2,ARBRC_Precipitation_in_corrected,TMC_Precipitation_in_corrected,KFC_Precipitation_in_corrected,ARBRC_Lapse_Rate
2015,12,21.50679,20.12746,18.196,8.72346875,-23.520625,-6.533085387,0.19291,0.33071,0.32641,-1.41832
2015,12,21.29154,18.16537,16.234,-32.6354375,-14.76178125,-3.433491831,0.00394,0.00394,0.00000,-1.41832
2015,12,35.44886,32.33433,30.403,-47.80297917,-6.338458333,-18.51845231,0,0,0.10880,-1.41832
2015,12,41.11598,38.14475,36.213,-56.12270833,-29.49790625,-38.38937343,0,0,0.00000,-1.41832
2015,12,32.25189,30.57009,28.639,-11.79009375,-7.24128125,-18.26301987,0.32283,0.48031,0.65283,-1.41832
2015,12,33.62152,31.97639,30.045,2.2323125,-6.486791667,-2.571678781,0,0.01181,0.43522,-1.41832
2015,12,30.7067,29.7965,27.865,-8.923270833,-16.17038542,-27.86109184,0.81102,1.47638,1.30565,-1.41832
2015,12,25.22966,23.60613,21.675,-10.10227083,-25.90551042,-9.113167224,0.08661,0.24016,0.32641,-1.41832
2015,12,23.7323,21.29504,19.363,-37.24208333,-10.5671875,-8.626936674,0.1378,0,0.10880,-1.41832
2015,12,19.99951,17.96833,16.037,-19.57239583,-10.48960417,-2.352805016,0.06299,0.08661,0.00000,-1.41832
2015,12,11.65346,6.5075,4.576,-82.52854167,36.87977083,13.95972833,0,0,0.00000,-1.41832
2015,12,11.27999,5.66602,3.734,-69.00947917,41.23604167,16.76992124,0,0,0.00000,-1.41832
2015,12,14.25746,12.48266,10.551,-9.3926875,-9.764135417,2.067864564,0.01575,0.01181,0.10880,-1.41832
2015,12,14.96096,13.22713,11.296,13.6088125,-15.70257292,1.076622563,0.07087,0.06693,0.00000,-1.41832
2015,12,16.1066,13.40921,11.478,3.136645833,-8.56025,0.701909796,0.03543,0.03937,0.00000,-1.41832
2015,12,11.15859,6.79083,4.859,-52.271875,23.122625,14.33299505,0,0,0.00000,-1.41832
2016,1,18.23579,17.00763,15.076,-91.04302083,62.20546875,0.498013657,0,0,0.10880,-1.54239
2016,1,19.66631,18.42466,16.493,-47.83589583,-6.158052083,-14.07003531,0,0,0.10880,-1.54239
2016,1,35.14715,33.24091,31.14,-2.027541667,-1.111895833,-9.93678032,0.22047,0.24409,0.71991,-1.54239
2016,1,30.87796,29.76213,27.662,16.30625,33.40735417,-1.224003239,0.12992,0.20866,0.00000,-1.54239
2016,1,28.20093,27.28783,25.187,-10.01219792,-2.725885417,-11.87247075,0.09449,0.11024,0.08999,-1.54239
2016,1,26.90465,25.47725,23.377,-19.88364583,-10.57366667,-12.35057055,0.00394,0.00394,0.00000,-1.54239
2016,1,22.08592,19.44907,17.349,-4.978979167,-3.029197917,-15.37221359,0.01969,0.03543,0.00000,-1.54239
2016,1,17.13037,12.79914,10.699,-72.03614583,-8.30403125,-4.640608833,0.00394,0,0.00000,-1.54239
2016,1,20.13665,15.95203,13.851,-61.80210417,-1.826291667,-5.244276,0,0,0.00000,-1.54239
2016,1,23.7107,22.44965,20.349,-39.31064583,-0.960979167,-9.321056174,0,0,0.08999,-1.54239
2016,1,27.13528,24.5928,22.492,-22.22079167,-15.26777083,-12.23510036,0.06299,0.11417,0.17998,-1.54239
2016,1,27.83212,26.64978,24.549,-0.776427083,-5.277677083,-13.72080091,0.25591,0.35827,0.53993,-1.54239
2016,1,29.64013,27.94715,25.847,-4.1435,-7.930802083,-12.79690345,0.15748,0.22835,0.35996,-1.54239
2016,1,33.85942,30.79233,28.692,-30.73373958,-18.69333333,-10.73460686,0.02756,0.04724,0.00000,-1.54239
2016,1,34.08562,32.26175,30.161,2.279166667,2.073427083,-16.31023403,0.61417,0.7126,0.89989,-1.54239
2016,1,29.58296,27.79865,25.698,2.460739583,0.809302083,-10.9020472,0.01575,0.06299,0.17998,-1.54239
2016,1,30.14083,28.09114,25.991,-20.92883333,-6.215276042,-9.72466349,0.14567,0.32283,0.35996,-1.54239
2016,1,26.12263,21.17744,19.077,-64.23578125,-27.81813542,-6.295734455,0,0,0.00000,-1.54239
2016,1,31.96308,28.13083,26.03,-44.32588542,-25.04691667,-9.868609392,0,0,0.08999,-1.54239
2016,2,26.12999,24.38529,22.283,-31.93619792,-6.852916667,-13.79819719,0.09449,0.10236,0.53993,-1.54351
2016,7,72.57088,66.32056,63.591,162.7613021,158.0193958,160.715625,0,0,0,-2.00414
2016,7,74.606,67.796,65.067,137.2306354,160.5400521,158.4323229,0,0,0,-2.00414
2016,7,72.96763,66.07794,63.349,162.3091667,162.391875,178.2400313,0,0,0,-2.00414
2016,7,69.85606,63.25419,60.525,165.4760313,163.7440938,177.0258333,0,0,0,-2.00414
2016,7,69.34194,62.58238,59.853,162.6336458,162.9041667,178.5873958,0,0,0,-2.00414
2016,7,75.66594,67.97056,65.241,141.2858125,157.6742708,165.8091667,0,0,0,-2.00414
2016,7,78.25138,72.61194,69.883,137.2067708,136.4458333,157.986875,0,0,0,-2.00414
2016,7,70.4765,67.30625,64.5769,125.6765729,137.1121979,133.5600521,0,0,0,-2.00414
2016,7,56.10568,51.35484,48.6254,161.1406563,149.9515625,171.8898854,0,0,0,-2.00414
2016,7,65.70688,58.34165,55.6123,151.4965313,150.8538542,175.9015625,0,0,0,-2.00414
2016,7,67.77556,60.71437,57.985,152.6490521,150.7484375,179.0673958,0,0,0,-2.00414
2016,8,79.52881,71.38813,69.7198,121.0290625,139.5074271,172.5010919,0,0,0,-1.22505
2016,8,76.3715,69.191,67.5226,125.5644792,127.4061458,162.3422319,0,0,0,-1.22505
,,,,,,,,,,,
,,,,,,,,,,,
,,,,,,,,,,,
,,,,,,,,,,,
,,,,,,,,,,,
,,,,,,,,,,,
,,,,,,,,,,,
,,,,,,,,,,,
,,,,,,,,,,,
,,,,,,,,,,,
,,,,,,,,,,,
,,,,,,,,,,,
,,,,,,,,,,,
,,,,,,,,,,,
,,,,,,,,,,,
,,,,,,,,,,,
,,,,,,,,,,,
,,,,,,,,,,,
,,,,,,,,,,,
,,,,,,,,,,,
,,,,,,,,,,,
,,,,,,,,,,,
,,,,,,,,,,,
,,,,,,,,,,,
,,,,,,,,,,,
,,,,,,,,,,,
,,,,,,,,,,,
,,,,,,,,,,,
,,,,,,,,,,,
,,,,,,,,,,,
,,,,,,,,,,,
,,,,,,,,,,,
,,,,,,,,,,,
,,,,,,,,,,,
,,,,,,,,,,,
,,,,,,,,,,,
,,,,,,,,,,,
,,,,,,,,,,,
,,,,,,,,,,,
,,,,,,,,,,,
,,,,,,,,,,,
,,,,,,,,,,,
,,,,,,,,,,,
,,,,,,,,,,,
,,,,,,,,,,,
,,,,,,,,,,,
,,,,,,,,,,,
,,,,,,,,,,,
,,,,,,,,,,,
,,,,,,,,,,,
,,,,,,,,,,,
,,,,,,,,,,,
,,,,,,,,,,,
,,,,,,,,,,,
,,,,,,,,,,,
,,,,,,,,,,,
,,,,,,,,,,,
,,,,,,,,,,,
,,,,,,,,,,,
,,,,,,,,,,,
,,,,,,,,,,,
,,,,,,,,,,,
,,,,,,,,,,,
,,,,,,,,,,,
,,,,,,,,,,,
,,,,,,,,,,,
,,,,,,,,,,,
,,,,,,,,,,,
,,,,,,,,,,,
,,,,,,,,,,,
,,,,,,,,,,,
,,,,,,,,,,,
,,,,,,,,,,,
,,,,,,,,,,,
,,,,,,,,,,,
,,,,,,,,,,,
,,,,,,,,,,,
,,,,,,,,,,,
,,,,,,,,,,,
,,,,,,,,,,,
,,,,,,,,,,,
,,,,,,,,,,,
,,,,,,,,,,,
,,,,,,,,,,,
,,,,,,,,,,,
,,,,,,,,,,,
,,,,,,,,,,,
,,,,,,,,,,,
,,,,,,,,,,,
,,,,,,,,,,,
,,,,,,,,,,,
,,,,,,,,,,,
,,,,,,,,,,,
,,,,,,,,,,,
,,,,,,,,,,,
,,,,,,,,,,,
,,,,,,,,,,,
,,,,,,,,,,,
,,,,,,,,,,,
,,,,,,,,,,,
,,,,,,,,,,,
,,,,,,,,,,,
,,,,,,,,,,,
,,,,,,,,,,,
,,,,,,,,,,,
,,,,,,,,,,,
,,,,,,,,,,,
,,,,,,,,,,,
,,,,,,,,,,,
,,,,,,,,,,,
,,,,,,,,,,,
,,,,,,,,,,,
,,,,,,,,,,,
,,,,,,,,,,,
,,,,,,,,,,,
,,,,,,,,,,,
,,,,,,,,,,,
,,,,,,,,,,,
,,,,,,,,,,,
,,,,,,,,,,,
,,,,,,,,,,,
,,,,,,,,,,,
,,,,,,,,,,,
,,,,,,,,,,,
,,,,,,,,,,,
,,,,,,,,,,,
,,,,,,,,,,,
,,,,,,,,,,,
,,,,,,,,,,,
,,,,,,,,,,,
,,,,,,,,,,,
,,,,,,,,,,,
,,,,,,,,,,,
,,,,,,,,,,,
,,,,,,,,,,,
,,,,,,,,,,,
,,,,,,,,,,,
,,,,,,,,,,,
,,,,,,,,,,,
,,,,,,,,,,,
,,,,,,,,,,,
,,,,,,,,,,,
,,,,,,,,,,,
,,,,,,,,,,,
,,,,,,,,,,,
,,,,,,,,,,,
,,,,,,,,,,,
,,,,,,,,,,,
,,,,,,,,,,,
,,,,,,,,,,,
,,,,,,,,,,,
,,,,,,,,,,,
,,,,,,,,,,,
,,,,,,,,,,,
,,,,,,,,,,,
,,,,,,,,,,,
,,,,,,,,,,,
,,,,,,,,,,,
,,,,,,,,,,,
,,,,,,,,,,,
,,,,,,,,,,,
,,,,,,,,,,,
,,,,,,,,,,,
,,,,,,,,,,,
,,,,,,,,,,,
,,,,,,,,,,,
,,,,,,,,,,,
,,,,,,,,,,,
,,,,,,,,,,,
,,,,,,,,,,,
,,,,,,,,,,,
,,,,,,,,,,,
,,,,,,,,,,,
,,,,,,,,,,,
,,,,,,,,,,,
,,,,,,,,,,,
,,,,,,,,,,,
,,,,,,,,,,,
,,,,,,,,,,,
,,,,,,,,,,,
,,,,,,,,,,,
,,,,,,,,,,,
,,,,,,,,,,,
,,,,,,,,,,,
,,,,,,,,,,,
,,,,,,,,,,,
,,,,,,,,,,,
,,,,,,,,,,,
,,,,,,,,,,,
,,,,,,,,,,,
,,,,,,,,,,,
,,,,,,,,,,,
,,,,,,,,,,,
,,,,,,,,,,,
,,,,,,,,,,,
,,,,,,,,,,,
,,,,,,,,,,,
,,,,,,,,,,,
,,,,,,,,,,,
,,,,,,,,,,,
,,,,,,,,,,,
,,,,,,,,,,,
,,,,,,,,,,,
,,,,,,,,,,,
,,,,,,,,,,,
,,,,,,,,,,,
,,,,,,,,,,,
,,,,,,,,,,,
,,,,,,,,,,,
,,,,,,,,,,,
,,,,,,,,,,,
,,,,,,,,,,,
,,,,,,,,,,,
,,,,,,,,,,,
,,,,,,,,,,,
,,,,,,,,,,,
,,,,,,,,,,,
,,,,,,,,,,,
,,,,,,,,,,,
,,,,,,,,,,,
,,,,,,,,,,,
,,,,,,,,,,,
,,,,,,,,,,,
,,,,,,,,,,,
,,,,,,,,,,,
,,,,,,,,,,,
,,,,,,,,,,,
,,,,,,,,,,,
,,,,,,,,,,,
,,,,,,,,,,,
,,,,,,,,,,,
,,,,,,,,,,,
,,,,,,,,,,,
,,,,,,,,,,,
,,,,,,,,,,,
,,,,,,,,,,,
,,,,,,,,,,,
,,,,,,,,,,,
