"","V1"
"169",52.1777142143617
"462",53.4759861135312
"239",62.4914015592387
"515",65.9342069964807
"548",60.9527131558106
"27",37.3545481807408
"307",45.46595440945
"517",66.2485681866473
"319",29.788184078033
"264",47.9605534853816
"552",64.748355082275
"261",54.4941263175136
"389",30.9649497915266
"329",21.385508939792
"59",15.6203693746724
"514",66.255263230215
"141",29.7812445529697
"24",43.8177147062251
"187",61.5946532433561
"542",61.0437502918036
"504",66.0585762501892
"392",36.5558842868466
"362",13.9097819204891
"560",65.0529512373246
"369",26.7768217797476
"398",43.1874114491465
"305",44.8381929373212
"333",12.7418661850325
"162",47.7337235370554
"82",25.6431165766867
"536",64.3631569154406
"501",68.6491609415188
"383",19.5089928314221
"440",35.4809010563462
"14",54.9308922280934
"577",39.7444295622243
"418",26.1517954454002
"119",30.8118362580551
"175",45.2853949423942
"127",30.9176350581232
"78",28.86768452324
"226",69.2759108995255
"545",63.535835189305
"201",62.0266951419708
"83",21.6841210773364
"76",18.1404916796316
"126",26.7472074076846
"252",56.2567503803971
"144",39.7365680529075
"461",52.2140561391447
"25",46.4859005998274
"237",60.531843728991
"427",38.8055151637358
"65",30.9724366240992
"299",37.4933862907659
"110",34.1860309543323
"68",35.1259450312529
"399",30.3187826396418
"473",59.4504394899907
"198",66.0204195234965
"350",32.2868087150352
"50",34.2052105194307
"202",62.3913446803511
"538",64.2191669633483
"426",42.1370714436702
"234",64.4184836526693
"422",22.8865323475602
"520",61.65191293521
"412",18.7198602876936
"228",59.0291399474427
"390",30.4018215711334
"325",19.8497492489459
"366",36.8938172769467
"1",62.1338757574114
"244",58.1544104149904
"113",38.4312081061977
"194",53.7701389078181
"312",40.1985130179692
"179",60.7162479833748
"57",17.8807555419617
"124",40.6933725136916
"338",23.6008956835065
"211",63.3017433842299
"397",45.8086637966324
"52",21.1236360420283
"218",66.8372979043164
"493",57.5785173169924
"446",39.7571660081396
"442",35.1175599780886
"88",22.8339215212931
"533",59.4589001539955
"324",21.54707180633
"170",54.5001354544866
"495",61.7472970177989
"158",39.0944882657505
"93",22.3508612094683
"384",13.3884245608117
"46",37.8713184857454
"579",34.3672071004394
"250",64.3627804307122
"292",55.8261984518129
"558",63.5313972148492
"535",61.3227679173699
"585",48.2622822870788
"233",64.624428828126
"429",40.9428153539273
"439",30.1321138034179
"486",58.996674493074
"197",68.2594118129229
"71",36.0973141678881
"499",68.943906554708
"523",63.0564037268155
"29",37.3342513942805
"449",34.949695975484
"341",41.9598764728238
"530",63.5987447665698
"259",61.9255522313513
"448",41.8408397244632
"275",52.6064914563733
"189",65.1000847732269
"302",44.2636212378457
"149",46.530032450306
"143",35.6036825745065
"102",32.6705333654993
"171",45.3515336337518
"454",26.9626251629542
"477",41.5950484141444
"42",26.0781233940611
"496",65.5926986378798
"316",48.2366398072772
"283",34.8414485487488
"406",38.5156902363996
"306",43.1955068684931
"334",18.4702977411755
"236",62.0399512402619
"298",35.0388190284864
"370",26.2154007326439
"354",22.5384481366348
"480",59.9235412920244
"478",51.1250756818655
"140",30.4127243552361
"183",55.9292881329702
"5",52.7843445067895
"557",60.8005864894361
"373",18.4447598871427
"463",58.2121716247941
"106",28.5347311934139
"34",43.1579882247088
"108",36.2749979664991
"320",24.2423982198692
"450",33.0455228959717
"217",67.5051682645631
"586",46.4951434690216
"107",32.4268828288217
"48",22.1643580663985
"434",54.7399791353113
"246",63.214226810273
"94",22.1421170622205
"191",63.751451675307
"481",56.7772927085577
"214",67.3542777906816
"151",50.0844025042414
"276",56.3998904265317
"159",47.050862976011
"150",55.6235480843886
"225",65.3799197125389
"311",50.6624119266665
"491",62.6348826283999
"173",44.072757448041
"111",34.0093461006406
"263",45.9454016807401
"77",21.8146305988034
"358",17.7090274611247
"309",41.7194843245118
"424",37.5973389346968
"255",54.7943937550179
"153",45.8854876632434
"435",50.1261822137149
"357",13.5412474298409
"484",66.463105255832
"472",65.1092498613321
"547",62.4226645675356
"287",49.9309561159374
"433",47.5363530715
"584",49.0623647845655
"193",61.265760409544
"403",31.3836683693358
"544",63.4281617509118
"364",16.1923132076909
"359",19.9327034300199
"109",38.7662310278982
"405",35.9091700811347
"574",56.7960154149715
"512",66.9685096971067
"368",30.3991697813223
"445",36.336666688405
"423",29.4965909613674
"257",52.2342200320307
"60",14.0023450611009
"222",62.7684114088045
"419",33.3144456860224
"371",23.3762925797642
"231",63.8990954918573
"527",65.4332068665571
"154",54.9991685298659
"336",31.9110930261083
"139",31.0272960639781
"531",61.9531302370295
"458",51.6598929526693
"378",24.8577447588243
"182",49.3580672010772
"95",24.7921369125365
"81",30.5062971717681
"539",59.2860632743901
"18",50.9466011152868
"575",42.8167604159256
"131",44.4179527544211
"425",39.3757338517796
"303",43.3586821474194
"505",64.3297386579349
"104",28.6848963467899
"351",15.1449466283698
"266",57.0367545478737
"487",56.8940542667177
"20",42.8808336382462
"464",60.0752850744947
"550",63.2414553784569
"524",64.7450794136945
"363",8.36950828423936
"327",22.6594028323508
"221",61.9677444609284
"410",27.1147736996598
"192",64.83516844949
"21",45.6869678320879
"92",22.2456729441856
"476",49.9372647561411
"70",41.4281709400785
"291",50.0599661192179
"54",29.5037164065216
"279",57.1022486214826
"190",64.2234079819243
"229",60.0352217084236
"388",20.5589574755712
"555",65.2306444917571
"400",27.3366371869532
"248",65.6881981357847
"136",32.3682884337395
"573",49.1890475832159
"408",38.5867799436926
"245",60.3432393174182
"87",18.7671666867377
"75",18.6693212757071
"199",63.4913653859486
"90",24.7125077676653
"177",61.6993797565722
"260",61.5174537365377
"56",36.200781453861
"134",29.0105246930737
"155",59.3487882768173
"284",34.9289244780432
"466",53.3142198018167
"404",37.2765482222174
"219",66.2766404617514
"580",34.0733856595041
"167",47.262121354887
"186",58.9083552268568
"438",44.6514577706455
"417",24.2838635959191
"7",49.4579760009632
"160",37.4866961222277
"518",66.0737750326595
"2",48.4358850714813
"23",39.845186340293
"502",69.1531885396103
"241",56.15374373416
"345",13.3120128478601
"326",20.142731415861
"145",45.3638035878686
"314",24.9746293588674
"200",61.4751396563742
"482",57.0818769140504
"459",55.6049273309905
"121",40.9123735149344
"69",36.0665516977812
"372",20.223550031816
"120",33.4868116881385
"564",60.6481560788812
"471",65.6276185873653
"17",52.0228668333869
"323",29.0999436611494
"89",24.3651587595469
"30",33.6339090864912
"22",42.3571262761062
"258",53.0699197377771
"356",20.6295621943807
"238",63.0502547969217
"285",40.9198178486171
"295",58.2579289276503
"474",53.1521716669079
"230",61.4926156744334
"421",37.4856551742445
"3",47.721815527235
"387",15.7551266636421
"207",67.7095141903915
"178",63.1993841978485
"340",29.6552370738812
"44",28.3908893208586
"290",43.419106431526
"540",56.1308273864366
"137",30.3942276302078
"437",56.0835816216747
"128",34.3556278427072
"196",65.5287072470475
"16",57.701478743508
"97",35.5630628592473
"343",13.1745453223232
"529",64.702283998452
"64",27.19425936194
"375",20.2669438906526
"420",42.9010196130069
"488",58.4808920554664
"79",31.2241296870943
"39",33.2216986040386
"321",28.7445834639977
"28",39.0258132728073
"9",52.3056423228561
"331",22.2368152582955
"10",58.530594369138
"497",65.2776153693233
"452",53.9949232360993
"516",66.1818453112788
"74",26.1514942005536
"188",58.6671932359941
"212",63.721641258674
"80",23.0354387688024
"506",64.0155388954504
"582",42.311252427074
"317",36.5559745252708
"249",64.7520772869787
"242",56.1793314213217
"103",30.9000934756868
"289",50.3082986897754
"129",29.79812263604
"55",36.5508478981567
"118",29.7178384148399
"559",64.8104220819178
"407",35.5935233778579
"386",14.1073467854154
"243",56.8368165493759
"148",39.3461027917234
"33",51.6700306408152
"561",65.7812069353131
"304",44.6818026040434
"38",26.4271960516036
"413",17.5493223374899
"235",62.4531556926934
"382",19.9936894704867
"96",28.7280353345981
"411",20.1606043858456
"346",23.2540336327522
"394",39.7517529248956
"280",57.4084378156472
"543",61.4072849268327
"565",56.8757162367027
"374",16.5363772091771
"174",46.327480551261
"43",26.7822991797849
"4",52.4181125402578
"296",39.5890689575532
"105",26.4294040231258
"352",12.9167090934582
"490",65.8005922194497
"416",21.1693660428469
"272",40.3988549600036
"114",41.3380322090764
"204",64.1753874703465
"163",55.0208479729998
"286",45.1552287722682
"377",26.63537708394
"503",67.618772986949
"521",61.4847608518702
"156",51.071946723634
"415",24.2188460054738
"157",41.3105958301339
"396",40.2364565256931
"184",63.5255341422
"537",65.2455322608557
"507",65.2588248834756
"19",47.5154872328922
"563",62.8558089267377
"528",66.1709483540613
"58",15.1609713597001
"570",54.5139843629811
"152",47.3365103481267
"353",16.937002859171
"489",62.623572257364
"313",25.5162852225774
"300",41.9411159749674
"308",44.6205573949484
"522",61.6123139859287
"224",65.6109868629275
"26",45.4511160925383
"322",37.3683367197073
"553",64.9964931882626
"72",24.1029316291264
"443",34.0798103711954
"468",64.2805765985767
"15",55.1321817812303
"61",14.8540992786666
"206",67.187290302158
"330",26.7013599944401
"146",45.9352036195587
"297",36.8193190799634
"381",21.8684057616339
"432",49.0778668996016
"270",51.2526737186069
"485",65.6196893175574
"349",26.4106140350801
"367",33.5591256607876
"444",34.588237916786
"91",24.7844227460825
"342",31.365814705172
"98",35.6410285012317
"53",23.6440176321046
"232",63.4182095066222
"101",32.0030130431165
"49",29.6600763816346
"62",15.8980118045616
"185",54.4816514091459
"281",41.2974470171164
"465",56.7017545858659
"293",55.8898148056709
"51",30.4911842471328
"355",18.9378699211019
"36",27.0727591712916
"402",27.7455583891697
"451",49.4905020674724
"73",21.906657695583
"508",66.3897812615673
"569",59.1729498077136
"447",38.8569120863092
"85",13.1187036729723
"391",34.9758005097204
"147",36.0957493501624
"251",61.024355904428
"100",34.4303189742392
"165",48.9206173703767
"274",48.8890670829778
"525",66.0276798947874
"562",62.4524500805594
"376",27.8826632874097
"172",39.531733449086
"483",61.9258227205902
"8",52.6656289640176
"32",50.5215714906913
"117",38.992297700621
"475",60.3849328592197
"213",67.2391556571572
"467",58.9355673509345
"273",44.6770688211188
"123",40.9994975477709
"431",50.3491926465928
"195",58.9851982730305
"380",28.3786934903002
"203",64.8794997295456
"339",23.7337483564753
"262",48.2931341366221
"567",61.9289497593642
