Year_Julian,Month_Julian,KFC_Precipitation_in,TMC_Precipitation_in,ARBRC_Precipitation_in,KFC_Temperature_F,TMC_Temperature_F,ARBRC_Temperature_F,KFC_Net_Radiation_Wm2,TMC_Net_Radiation_Wm2,ARBRC_Net_Radiation_Wm2,KFC_Adiabatic_Lapse_Prediction
2014,3,0.41,0.15,0.11,35,39,41,7,15,17,36
2014,3,0.09,0.02,0.02,35,38,41,24,58,84,35
2014,3,0.02,0,0,38,41,45,22,55,73,38
2014,3,0.03,0.01,0,34,37,41,41,79,95,34
2014,3,0.15,0.1,0.05,33,36,38,31,72,80,33
2014,3,0,0,0,33,35,39,-11,38,53,32
2014,3,0,0,0,38,40,45,9,60,56,38
2014,3,0.19,0.04,0.01,40,45,48,15,24,10,42
2014,3,0.56,0.3,0.14,28,32,34,12,50,41,29
2014,3,0,0,0,30,33,37,11,67,65,30
2014,3,0,0,0,33,35,40,-14,68,57,32
2014,3,0.1,0.02,0.02,36,39,43,15,87,78,36
2014,3,0,0,0,32,36,39,27,90,79,33
2014,3,0,0,0,36,39,44,14,70,62,37
2014,3,0.14,0.07,0.04,34,38,40,-3,13,9,35
2014,3,0.02,0.03,0.02,22,26,29,9,39,38,24
2014,3,0.02,0,0,26,30,34,-10,69,62,27
2014,3,0,0,0,37,39,44,24,82,69,36
2014,3,0,0,0,32,34,37,24,76,64,31
2014,3,0.01,0,0,31,35,37,41,103,85,32
2014,3,0,0,0,32,34,39,26,75,63,32
2014,3,0,0,0,35,37,42,36,79,70,35
2014,4,0.01,0.01,0,28,31,34,-6,15,54,29
2014,4,0,0.18,0,33,36,40,9,55,78,34
2014,4,0,0,0,38,40,44,34,136,124,37
2014,4,0.01,0,0,43,47,52,55,112,118,44
2014,4,0,0,0,48,52,57,73,111,114,49
2014,4,0,0,0,44,48,53,90,113,124,45
2014,4,0,0,0,48,51,57,106,116,123,49
2014,4,0,0,0,46,51,54,110,102,92,48
2014,4,0.19,0.15,0.11,35,38,40,71,88,65,35
2014,4,0.02,0,0,32,35,39,108,110,112,33
2014,4,0,0,0,44,46,50,122,121,109,44
2014,4,0,0,0,37,40,44,109,109,112,38
2014,4,0,0,0,43,46,51,120,122,123,43
2014,4,0,0,0,51,56,58,49,45,44,54
2014,4,0,0,0,47,50,54,89,102,97,47
2014,4,0,0,0,47,50,55,118,122,119,48
2014,4,0,0,0,50,52,57,104,120,105,49
2014,4,0.25,0.21,0.17,52,57,58,28,30,24,54
2014,4,0.24,0.16,0.09,31,36,38,53,125,116,33
2014,4,0.04,0,0,41,44,47,115,119,112,41
2014,4,0.08,0.06,0.03,45,47,50,54,69,56,44
2014,4,0.98,0.95,0.87,35,38,40,24,27,22,35
2014,4,0.08,0.12,0.07,33,37,39,80,105,89,34
2014,4,0.31,0.23,0.17,31,34,37,1,82,120,32
2014,4,0,0,0,33,35,39,97,108,114,32
2014,4,0,0,0,40,41,46,149,137,139,39
2014,5,0,0,0,51,52,58,147,143,151,50
2014,5,0,0,0,58,59,64,125,127,118,58
2014,5,0,0,0,58,60,64,86,91,103,58
2014,5,0,0,0,54,55,59,98,114,112,53
2014,5,0.16,0.18,0.13,45,46,49,84,96,87,44
2014,5,0.35,0.46,0.49,34,37,39,56,64,56,35
2014,5,0.08,0.12,0.15,38,42,44,110,131,158,40
2014,5,0.79,0.64,0.5,39,43,46,106,82,91,42
2014,5,0.12,0.06,0.03,38,41,43,127,94,93,39
2014,5,0.2,0.05,0.02,34,38,39,50,59,52,36
2014,5,0,0,0,36,40,42,138,109,102,38
2014,5,0,0,0,38,40,45,169,149,157,39
2014,5,0,0,0,45,46,51,165,152,163,44
2014,5,0,0,0,51,52,58,149,155,163,51
2014,5,0,0,0,57,57,63,102,111,106,56
2014,5,0,0,0,57,57,63,147,158,155,55
2014,5,0,0,0,55,56,60,110,129,120,54
2014,5,0,0,0,51,51,55,104,121,142,49
2014,5,0,0,0,55,55,61,133,145,161,54
2014,5,0,0,0,53,54,59,129,148,154,53
2014,5,0,0,0,58,57,63,147,155,165,55
2014,5,0,0,0,53,54,60,50,58,49,53
2014,5,0.39,0.33,0.33,49,52,56,80,80,85,50
2014,5,0,0,0,53,55,59,171,174,182,53
2014,5,0,0,0,57,58,64,175,171,183,56
2014,5,0,0,0,62,61,70,174,175,181,60
2014,5,0,0,0,68,70,75,97,113,100,68
2014,5,0,0,0,55,57,59,157,160,165,55
2014,5,0,0,0.03,58,59,63,142,157,149,57
2014,5,0.04,0.01,0,60,61,67,112,133,125,59
2014,6,0,0,0,52,53,58,171,170,177,51
2014,6,0,0,0,60,59,66,177,179,175,58
2014,6,0,0,0,60,62,68,183,180,179,60
2014,6,0,0,0,58,58,65,175,171,166,57
2014,6,0,0,0,56,56,63,176,170,169,55
2014,6,0,0,0,58,57,65,166,161,157,56
2014,6,0,0,0,56,56,63,183,175,167,55
2014,6,0,0,0,56,56,62,180,172,167,55
2014,6,0,0,0,55,56,64,181,171,163,55
2014,6,0,0,0,62,62,69,159,170,135,61
2014,6,0,0,0,56,57,63,186,172,166,56
2014,6,0,0,0,62,63,70,150,157,130,62
2014,6,0,0,0,62,66,69,183,179,168,65
2014,6,0,0,0,46,49,53,125,109,126,48
2014,6,0,0,0,53,55,59,131,121,99,54
2014,6,0.16,0.14,0.12,51,54,59,22,31,6,52
2014,6,1.06,0.85,0.75,38,41,43,23,21,16,40
2014,6,0.04,0.01,0,40,44,46,154,179,166,42
2014,6,0,0,0,49,51,57,201,180,184,50
2014,6,0,0,0,59,60,67,162,139,131,58
2014,6,0,0,0,59,60,68,144,130,126,59
2014,6,0,0,0,61,61,69,177,164,155,60
2014,6,0,0,0,61,61,70,153,145,139,60
2014,6,0,0,0,63,63,73,164,155,138,62
2014,6,0,0,0,64,65,73,188,179,159,64
2014,6,0.24,0.24,0.16,60,63,66,128,142,123,61
2014,6,0.04,0,0,51,55,58,131,148,135,54
2014,6,0,0,0,55,58,64,194,182,183,57
2014,6,0,0,0,59,61,68,198,183,173,60
2014,6,0,0,0,58,58,65,192,177,168,57
2014,7,0,0,0,63,64,72,192,177,159,62
2014,7,0,0,0,65,66,75,201,184,163,64
2014,7,0,0,0,66,68,76,144,147,116,66
2014,7,0,0,0,67,69,78,184,179,147,67
2014,7,0,0,0,68,69,77,190,173,152,67
2014,7,0,0,0,69,69,79,190,174,148,67
2014,7,0,0,0,68,68,78,191,170,148,66
2014,7,0,0,0,68,69,79,181,163,145,67
2014,7,0,0,0,66,69,75,121,118,94,67
2014,7,0.08,0.02,0.01,65,68,72,132,152,134,66
2014,7,0,0.01,0,61,66,70,122,103,99,64
2014,7,0,0,0,66,68,75,140,157,153,66
2014,7,0,0,0,69,72,80,184,175,157,70
2014,7,0,0,0,72,74,84,185,179,133,72
2014,7,0,0,0,69,72,80,186,165,146,70
2014,7,0,0,0,63,66,72,173,153,142,64
2014,7,0,0,0,63,65,73,175,152,138,63
2014,7,0,0,0,66,69,77,176,144,130,67
2014,7,0,0,0,66,68,76,179,144,128,66
2014,7,0.04,0.04,0.01,64,66,74,140,124,84,64
2014,7,0,0,0,66,70,77,188,155,142,68
2014,7,0.04,0,0,67,69,77,191,145,130,67
2014,7,0,0,0,70,74,82,146,127,107,72
2014,7,0,0,0,70,74,80,186,146,129,72
2014,7,0,0,0,66,67,74,180,141,129,65
2014,7,0,0,0,66,68,76,166,136,119,66
2014,7,0,0,0,67,69,80,133,133,118,67
2014,7,0.2,0.24,0.25,64,67,72,116,107,87,65
2014,7,0.47,0.36,0.3,58,61,64,81,74,76,59
2014,7,0.31,0.17,0.07,58,62,65,79,65,81,60
2014,7,0,0,0,60,64,68,117,134,129,62
2014,8,0,0,0,62,65,71,156,166,159,64
2014,8,0,0,0,65,68,76,167,154,128,66
2014,8,0,0,0,64,67,74,113,112,83,66
2014,8,0.43,0.39,0.41,61,64,67,179,169,160,63
2014,8,0.04,0.02,0.02,58,61,65,106,129,97,60
2014,8,0.24,0.09,0.09,59,62,67,121,126,100,61
2014,8,0.12,0.11,0.11,57,60,64,193,179,140,58
2014,8,0,0,0,59,62,68,151,152,139,61
2014,8,0,0,0,61,64,71,167,153,128,63
2014,8,0,0,0,64,65,73,154,146,107,64
2014,8,0,0,0,65,68,76,175,143,125,66
2014,8,0.31,0.5,0.38,62,65,71,116,114,82,64
2014,8,0,0,0,59,62,67,110,112,76,61
2014,8,0.16,0.18,0.15,62,65,71,153,149,143,64
2014,8,0.04,0.01,0,62,65,72,152,156,133,64
2014,8,0,0,0,61,63,72,166,139,123,62
2014,8,0,0,0,64,65,75,164,139,115,64
2014,8,0,0,0,66,68,77,165,135,112,66
2014,8,0.2,0.13,0.11,56,60,64,58,44,33,59
2014,8,0.39,0.42,0.35,58,61,64,171,170,140,59
2014,8,0,0.01,0,57,60,65,129,124,99,59
2014,8,0.28,0.24,0.24,55,58,62,74,59,51,56
2014,8,0.03,0,0,56,58,64,142,135,113,57
2014,9,0,0,0,60,61,69,142,118,92,60
2014,9,0,0,0,62,65,71,144,116,93,63
2014,9,0,0,0,53,54,60,133,104,79,53
2014,9,0,0,0,59,60,67,127,119,91,59
2014,9,0.02,0.01,0,60,62,69,135,109,84,61
2014,9,0.02,0,0,62,66,73,143,116,93,65
2014,9,0.73,0.62,0.57,59,62,67,120,104,67,61
2014,9,0.66,1.18,1,51,54,57,86,84,52,53
2014,9,0.03,0.01,0,50,53,58,154,130,97,52
2014,9,0,0,0,50,51,57,120,102,90,50
2014,9,0,0,0,46,50,54,115,97,79,48
2014,9,0,0,0,56,56,63,118,107,75,55
2014,9,0,0,0,60,60,69,96,99,70,59
2014,9,0,0,0,62,63,71,102,98,76,61
2014,9,0,0,0,62,63,72,98,87,61,62
2014,9,0,0,0,65,65,74,104,100,70,63
2014,9,0,0,0,64,66,73,108,106,80,64
2014,9,0.02,0.04,0.01,59,62,67,114,111,82,61
2014,9,0,0,0,60,60,67,93,94,66,59
2014,9,0.33,0.34,0.31,53,55,60,34,35,14,54
2014,9,0.02,0,0,55,57,61,101,101,59,56
2014,9,0,0.02,0.01,64,66,71,86,88,58,64
2014,9,1.48,1.58,1.41,50,53,55,24,21,11,51
2014,9,0.13,0.16,0.14,49,53,56,79,89,78,52
2014,9,0.79,0.44,0.31,43,47,49,117,119,110,46
2014,9,0.19,0.09,0.07,44,47,49,78,62,63,46
2014,10,0.13,0.14,0.09,37,41,43,88,66,46,40
2014,10,0.05,0,0,38,41,45,114,85,61,40
2014,10,0,0,0,42,45,50,74,74,58,44
2014,10,0,0,0,45,47,52,70,74,57,45
2014,10,0,0,0,47,49,55,70,74,56,48
2014,10,0,0,0,49,51,57,66,73,54,50
2014,10,0,0,0,51,53,59,64,72,49,51
2014,10,0,0,0,49,51,56,55,67,38,49
2014,10,0,0,0,47,49,54,46,49,25,47
2014,10,0.03,0.04,0.01,40,44,47,46,47,27,42
2014,10,0.01,0,0,38,41,46,42,58,34,39
2014,10,0,0,0,48,48,55,52,66,30,47
2014,10,0,0,0,55,57,61,-8,20,2,55
2014,10,0,0,0,46,47,50,52,56,30,45
2014,10,0,0,0,49,49,55,28,49,17,47
2014,10,0,0,0,50,51,57,39,66,26,49
2014,10,0,0,0,49,50,56,38,61,21,48
2014,10,0,0,0,53,54,61,40,62,20,52
2014,10,0.01,0.05,0.02,48,50,54,32,33,5,49
2014,10,0.04,0,0,39,41,46,27,50,14,39
2014,10,0,0,0,52,52,57,38,54,16,50
2014,10,0.02,0,0,54,54,60,24,51,7,52
2014,10,0,0,0,59,59,64,13,29,-4,57
2014,10,0,0,0,45,50,51,7,13,-3,48
2014,10,0.02,0.02,0.01,33,36,39,15,30,8,34
2014,10,0.02,0,0,34,36,41,16,38,-3,34
2014,10,0,0,0,42,42,48,19,43,-1,40
2014,10,0,0,0,48,47,55,16,42,-5,45
2014,10,0,0,0,53,55,60,-1,24,3,53
2014,11,0,0,0,50,54,55,13,12,-9,52
2014,11,0.07,0.06,0.06,33,37,38,22,21,13,35
2014,11,0.04,0.02,0,29,32,34,36,18,6,30
2014,11,0.04,0,0,29,31,35,51,35,-9,29
2014,11,0,0,0,37,40,44,20,44,14,38
2014,11,0,0,0,40,40,46,7,26,-14,39
2014,11,0,0,0,44,43,48,4,32,-9,41
2014,11,0,0,0,38,39,45,-2,23,-25,38
2014,11,0,0,0,45,45,51,6,31,-17,44
2014,11,0,0.03,0.02,34,36,39,-2,1,-19,35
2014,11,0,0,0,24,27,30,-7,20,-25,25
2014,11,0,0,0,15,20,21,1,13,2,18
2014,11,0.17,0.11,0.08,25,26,27,10,12,4,24
2014,11,0.07,0.03,0.01,33,35,38,21,30,28,33
2014,11,0.31,0.17,0.11,20,24,26,22,25,-1,22
2014,11,0.01,0,0,8,12,15,50,85,-28,10
2014,11,0,0,0,13,16,19,47,74,-27,15
2014,11,0,0,0,21,23,28,17,17,-28,21
2014,11,0,0,0,32,31,35,-2,19,-8,29
2014,11,0,0,0,32,33,37,-13,3,-16,31
2014,11,0,0,0,31,32,38,-21,12,-29,31
2014,11,0.87,0.51,0.41,34,37,39,-5,-4,-10,35
2014,11,0.91,0.5,0.2,25,28,30,-20,-22,7,27
2014,11,0.1,0.02,0.01,24,27,30,-20,-22,-13,26
2014,11,0.14,0.01,0,28,30,34,-10,2,4,29
2014,11,0.01,0,0,34,37,43,-33,5,-21,35
2014,11,0,0,0,38,39,49,-15,-4,-22,37
2014,11,0,0,0,42,45,52,-16,16,-12,44
2014,11,0,0,0,42,49,51,-7,-11,-22,47
2014,11,0,0,0,34,36,37,-3,5,-3,34
2014,12,0,0,0.01,33,35,38,-11,22,1,34
2014,12,0,0,0,36,36,40,-20,-7,-27,35
2014,12,0.22,0.17,0.1,35,37,41,11,20,4,36
2014,12,0,0,0,38,39,43,18,46,-16,38
2014,12,0,0,0,37,38,43,-21,18,-27,37
2014,12,0,0,0,37,39,44,-19,14,-22,38
2014,12,0,0,0,35,36,42,-28,6,-36,35
2014,12,0,0,0,36,36,42,-27,6,-33,35
2014,12,0,0,0,35,35,40,-25,4,-33,34
2014,12,0,0,0,35,35,41,-30,2,-39,33
2014,12,0,0,0,42,42,47,-9,-9,-27,40
2014,12,0,0,0,43,46,50,-5,1,-21,44
2014,12,0.49,0.34,0.22,31,34,36,-6,0,1,33
2014,12,0.15,0.14,0.09,23,26,28,-11,1,12,24
2014,12,0.02,0,0,20,23,27,6,8,36,22
2014,12,0,0,0,31,33,36,1,14,-7,32
2014,12,0,0,0,30,31,34,-14,-4,-14,30
2014,12,0.03,0.09,0,26,30,32,9,34,-3,28
2014,12,0.02,0,0,28,31,34,10,41,-20,29
2014,12,0.22,0.14,0.08,31,33,35,3,3,5,32
2014,12,1.71,1.17,0.94,34,36,38,-1,5,4,35
2014,12,0.96,0.88,0.61,30,33,35,-7,-15,0,32
2014,12,0.02,0,0,18,22,25,7,-31,-65,21
2014,12,0,0,0,27,29,32,-7,-15,-18,28
2014,12,1.31,1.31,0.66,21,24,26,1,-7,1,23
2014,12,0.04,0,0.03,15,17,20,1,-16,-25,15
2014,12,0.01,0,0,10,11,16,27,0,-46,10
2014,12,0.33,0.22,0.14,19,21,23,-2,-8,-1,20
2014,12,0.38,0.32,0.35,15,18,19,-30,-18,-16,17
2014,12,0.02,0,0,2,6,6,-52,-18,-78,4
2014,12,0.01,0,0,7,7,10,-45,-38,-80,6
2015,1,0.02,0,0,11,9,13,-34,-26,-61,7
2015,1,0,0,0,12,10,14,-20,-6,-45,9
2015,1,0,0,0,20,20,22,-4,-7,-4,19
2015,1,0,0,0,26,26,29,-6,-9,-2,25
2015,1,0,0,0,35,35,40,6,9,21,34
2015,1,0,0,0,36,36,41,-24,-9,-4,35
2015,1,0,0,0,36,34,39,-32,-20,-24,33
2015,1,0,0,0,34,33,37,-34,-22,-28,31
2015,1,0,0,0,32,32,35,-32,-26,-25,30
2015,1,0.09,0.03,0.06,34,33,36,-6,-7,-4,31
2015,1,0.16,0.09,0.07,34,35,38,21,28,41,34
2015,1,0.99,1.07,1,31,32,34,1,2,11,31
2015,1,0.07,0.12,0.22,26,29,30,-6,-14,-26,27
2015,1,0.02,0,0,20,23,25,-9,-14,-37,22
2015,1,0.01,0,0,20,22,24,17,7,-92,20
2015,1,0.18,0,0.01,30,29,30,12,4,-9,27
2015,1,0.02,0.02,0,25,29,32,18,16,-25,27
2015,1,0,0,0,35,37,42,-20,-1,4,35
2015,1,0.01,0,0.01,34,35,38,1,-1,15,33
2015,1,0.03,0,0,24,27,29,-9,-4,-10,25
2015,1,0.01,0,0,19,21,24,-45,-28,-27,19
2015,1,0,0,0,18,21,24,-39,-27,-25,19
2015,1,0,0,0,21,23,26,-25,-26,-14,22
2015,1,0,0,0,26,27,30,-8,5,3,25
2015,1,0,0,0,33,35,37,-25,-3,12,33
2015,1,0,0,0,36,35,39,-32,-12,-7,33
2015,1,0,0,0,39,40,45,-4,-1,2,39
2015,1,0.01,0,0.01,35,37,40,20,28,8,35
2015,1,0.02,0,0,34,36,38,23,15,-3,35
2015,1,0,0,0,36,38,40,-4,3,5,36
2015,1,0,0,0,32,34,36,-19,3,2,33
2015,2,0.02,0,0,29,31,34,-17,6,0,29
2015,2,0.21,0.04,0.04,34,38,41,9,46,44,36
2015,2,0.07,0.02,0.01,38,42,45,37,58,37,40
2015,2,0.21,0.07,0.03,37,40,44,28,61,41,39
2015,2,0,0,0,40,43,50,-12,17,-3,42
2015,2,0,0,0,48,52,55,-9,11,-15,50
2015,2,0,0,0,45,52,55,26,42,27,51
2015,2,0.05,0,0.01,39,42,47,16,55,15,40
2015,2,0.37,0.29,0.16,39,42,47,4,1,-11,41
2015,2,0.15,0.08,0.04,32,35,37,22,40,8,33
2015,2,0.01,0,0,33,35,39,-10,46,5,33
2015,2,0,0,0,35,37,42,-13,39,19,36
2015,2,0,0,0,36,38,43,-14,34,10,36
2015,2,0,0,0,41,42,47,8,37,21,40
2015,2,0,0,0,35,36,40,-9,41,19,35
2015,2,0,0,0,30,32,35,-18,-6,-14,31
2015,2,0.01,0,0,25,28,32,-22,36,12,26
2015,2,0,0,0,32,34,39,-10,42,19,32
2015,2,0,0,0,37,38,44,-1,47,25,37
2015,2,0,0,0,33,36,39,0,40,31,34
2015,2,0.06,0,0.04,27,31,33,11,53,38,29
2015,2,0.02,0,0,18,23,24,-19,42,30,21
2015,2,0.01,0,0,20,22,24,-30,45,35,21
2015,2,0,0,0,26,27,32,-15,46,26,26
2015,2,0,0,0,33,34,39,10,56,40,33
2015,2,0,0.01,0.03,28,30,33,-10,-3,0,29
2015,3,0.02,0,0,29,32,35,9,39,46,29
2015,3,0.53,0.48,0.27,30,33,34,9,22,25,30
2015,3,0.45,0.36,0.27,24,27,28,-28,-50,-22,24
2015,3,0.04,0,0,18,22,25,-23,-70,-28,19
2015,3,0,0,0,23,26,30,11,21,15,23
2015,3,0,0,0,30,32,37,-16,25,60,30
2015,3,0,0,0,36,37,42,-9,62,58,34
2015,3,0,0,0,35,37,43,-8,64,54,34
2015,3,0,0,0,35,37,42,0,64,55,34
2015,3,0,0,0,37,39,45,12,62,54,36
2015,3,0,0,0,43,46,51,26,25,16,43
2015,3,0,0,0,38,42,45,43,41,44,40
2015,3,0.02,0,0,42,42,47,61,71,70,39
2015,3,0,0,0,44,45,51,37,62,55,43
2015,3,0,0,0,48,50,57,40,52,42,48
2015,3,0,0,0,49,52,58,57,68,62,49
2015,3,0,0,0,50,52,58,60,67,61,50
2015,3,0,0,0,41,44,47,53,74,70,41
2015,3,0,0,0,38,39,44,61,72,69,36
2015,3,0,0,0,41,43,48,68,71,67,40
2015,3,0,0,0,46,47,53,66,71,59,44
2015,3,0,0,0,44,46,51,55,64,52,44
2015,3,0.26,0.15,0.13,37,41,43,73,65,53,39
2015,3,0.22,0.18,0.15,33,37,39,80,91,85,34
2015,3,0.03,0,0,31,35,37,113,110,95,32
2015,3,0,0,0,37,39,43,103,98,93,36
2015,3,0,0,0,44,46,52,104,99,94,43
2015,3,0,0,0,49,51,56,82,89,81,48
2015,3,0,0,0,41,43,48,103,91,85,40
2015,3,0,0,0,47,48,54,108,96,87,45
2015,3,0,0,0,54,55,61,76,83,65,52
2015,4,0,0,0,35,38,40,95,85,74,36
2015,4,0.02,0.05,0.04,30,33,35,86,62,58,30
2015,4,0.03,0,0,30,32,36,106,92,84,29
2015,4,0,0,0,41,41,47,88,81,75,38
2015,4,0,0,0,50,52,55,111,112,101,49
2015,4,0,0,0,42,45,47,76,77,64,42
2015,4,0,0,0,43,46,49,67,67,59,44
2015,4,0.66,0.63,0.46,33,36,37,-13,6,14,34
2015,4,0.04,0.01,0,35,38,41,59,97,137,35
2015,4,0,0,0,40,43,48,133,117,120,40
2015,4,0,0,0,47,49,54,104,113,112,46
2015,4,0.02,0.02,0.01,38,41,44,150,135,125,39
2015,4,0.01,0,0,44,46,52,116,112,113,43
2015,4,0.57,0.41,0.21,45,48,50,68,78,72,45
2015,4,0.66,1.07,0.58,23,26,27,-48,-51,-39,24
2015,4,0.39,0,0,33,35,38,32,26,62,33
2015,4,0,0,0,40,43,46,31,25,84,41
2015,4,0,0,0,42,44,50,124,119,129,42
2015,4,0,0,0,44,46,51,161,136,126,44
2015,4,0,0,0,44,46,51,149,122,118,43
2015,4,0,0,0,48,49,55,145,121,115,47
2015,4,0,0,0,49,50,56,109,111,95,48
2015,4,0,0,0,48,51,54,126,113,111,48
2015,4,0.83,0.82,0.57,43,45,49,73,75,65,43
2015,4,0.36,0.46,0.5,37,41,43,100,100,99,38
2015,4,0.34,0.39,0.43,33,37,39,-3,62,54,35
2015,4,0.01,0,0,39,42,46,78,66,92,40
2015,4,0,0,0,47,49,55,152,142,158,46
2015,4,0,0,0,55,55,61,142,150,157,53
2015,4,0,0,0,51,53,57,153,146,159,50
2015,5,0,0,0,52,54,58,138,142,144,52
2015,5,0,0,0,57,58,63,121,123,128,57
2015,5,0,0,0,57,58,63,102,114,122,56
2015,5,0.09,0.06,0.04,51,55,58,94,122,115,53
2015,5,0.53,0.3,0.12,48,51,54,68,99,105,50
2015,5,0.78,0.96,0.97,44,47,49,63,77,79,45
2015,5,0.24,0.07,0.04,45,48,50,160,157,177,46
2015,5,0.35,0.24,0.32,43,47,49,98,101,85,45
2015,5,0.51,0.58,0.54,36,39,41,33,32,30,38
2015,5,0.02,0,0,38,42,45,147,122,162,40
2015,5,0.01,0,0,47,49,54,150,149,160,47
2015,5,0,0,0,55,56,60,116,126,124,55
2015,5,0,0,0,54,57,61,137,131,152,56
2015,5,0.35,0.39,0.32,49,51,55,88,96,90,49
2015,5,0.11,0.09,0.04,38,42,44,96,67,84,40
2015,5,2.17,1.63,1.35,36,39,42,25,28,23,38
2015,5,1.66,0.85,0.61,44,47,50,97,128,127,46
2015,5,0.56,0.98,0.74,46,47,51,79,74,72,45
2015,5,0.16,0.1,0.1,43,45,48,143,135,150,44
2015,5,0.16,0.01,0.01,47,50,53,115,134,137,49
2015,5,0.18,0.06,0.02,46,50,54,105,116,97,48
2015,5,0.02,0.02,0.01,45,47,50,60,51,58,46
2015,5,0.17,0.06,0.05,43,46,48,90,107,109,44
2015,5,0.23,0.15,0.07,44,47,49,101,115,121,45
2015,5,0.08,0.01,0.01,47,50,53,103,117,143,49
2015,5,0.14,0.11,0.09,47,49,52,72,91,71,48
2015,5,0.48,0.26,0.15,48,50,53,141,165,141,49
2015,5,0.15,0.14,0.08,48,51,54,200,188,212,49
2015,5,0,0,0,50,53,57,199,172,202,51
2015,5,0,0,0,59,59,65,190,181,205,57
2015,5,0,0,0,63,63,70,182,178,197,61
2015,6,0,0,0,62,62,69,150,149,160,61
2015,6,0,0,0,57,57,63,183,173,198,56
2015,6,0,0,0,57,57,63,143,154,151,56
2015,6,0,0,0,56,58,64,120,120,136,57
2015,6,0,0,0,54,56,61,132,128,138,55
2015,6,0.72,0.73,0.47,52,55,58,126,141,155,53
2015,6,0.02,0.01,0,52,55,59,177,187,211,53
2015,6,0,0,0,58,60,66,182,187,205,59
2015,6,0,0,0,60,61,68,179,180,178,60
2015,6,0,0,0,59,62,67,114,114,142,60
2015,6,0.32,0.28,0.23,55,58,61,63,91,100,57
2015,6,0.01,0,0,58,60,65,189,191,209,59
2015,6,0,0,0,59,60,67,193,185,202,59
2015,6,0,0,0,61,62,68,198,188,199,61
2015,6,0.09,0.12,0.07,61,62,69,119,141,136,61
2015,6,0.02,0,0,61,63,70,204,196,202,62
2015,6,0,0,0,63,64,72,193,190,193,62
2015,6,0,0,0,64,65,74,193,188,189,63
2015,6,0,0,0,63,63,73,193,185,184,62
2015,6,0,0,0,62,63,71,190,189,186,61
2015,6,0,0,0,65,65,74,190,185,177,63
2015,6,0,0,0,61,62,71,191,183,181,61
2015,6,0,0,0,64,64,73,193,190,182,63
2015,6,0,0,0,65,65,75,191,183,175,64
2015,6,0,0,0,65,65,75,191,183,175,64
2015,6,0,0,0,67,66,78,196,189,179,65
2015,6,0,0,0,69,68,79,195,183,168,67
2015,6,0,0,0,69,69,81,186,189,173,68
2015,6,0,0,0,71,71,83,198,192,172,70
2015,6,0,0,0,70,71,81,203,194,175,70
2015,7,0,0,0,67,69,78,200,187,174,67
2015,7,0,0,0,67,68,77,198,182,170,66
2015,7,0,0,0,67,68,78,190,182,165,66
2015,7,0,0,0,68,70,78,189,165,144,68
2015,7,0.01,0.05,0,63,66,71,170,135,139,64
2015,7,0.17,0.46,0.67,60,62,68,115,114,102,60
2015,7,0.45,0.03,0.01,58,61,66,90,97,102,59
2015,7,0.89,0.48,0.48,56,60,64,88,77,92,58
2015,7,0.04,0.02,0.02,58,61,65,161,166,148,59
2015,7,0,0.01,0,56,59,64,145,132,129,57
2015,7,0.01,0,0,59,63,69,157,151,149,61
2015,7,0,0,0,61,64,72,189,172,166,62
2015,7,0,0,0,61,63,72,169,171,156,61
2015,7,0,0,0,64,66,73,180,179,161,64
2015,7,0,0,0,63,65,72,175,159,151,63
2015,7,0,0,0,62,64,72,185,172,155,62
2015,7,0,0,0,62,64,71,156,145,122,62
2015,7,0,0,0,58,61,67,190,182,167,59
2015,7,0,0,0,58,61,66,197,174,159,59
2015,7,0.01,0.03,0,55,58,64,115,115,98,56
2015,7,0.01,0,0,58,61,68,159,133,132,59
2015,7,0.01,0.04,0.03,59,61,67,114,137,113,59
2015,7,0.01,0,0,61,63,70,142,142,136,61
2015,7,0,0,0,61,63,72,190,159,147,61
2015,7,0,0,0,61,63,71,185,158,147,61
2015,7,0,0,0,64,66,76,191,153,140,64
2015,7,0,0,0,59,64,69,152,106,104,62
2015,7,0,0,0,50,53,59,179,148,142,51
2015,7,0,0,0,56,57,66,180,149,135,55
2015,7,0,0,0,61,62,72,182,148,130,60
2015,7,0,0,0,64,63,75,165,130,113,61
2015,8,0,0,0,65,65,75,165,141,116,64
2015,8,0.07,0.11,0.05,62,63,72,122,116,79,62
2015,8,1.16,0.89,0.64,54,56,59,42,47,39,55
2015,8,0.01,0,0,60,62,69,207,188,156,61
2015,8,0,0,0,61,65,72,67,58,39,64
2015,8,0.01,0,0,58,61,68,122,117,96,59
2015,8,0.68,0.52,0.48,58,62,66,82,57,66,60
2015,8,0.09,0.12,0.09,53,56,60,136,130,141,55
2015,8,0.02,0,0,57,59,67,169,146,149,58
2015,8,0,0,0,63,66,75,165,141,140,65
2015,8,0.02,0.05,0.07,64,66,72,153,179,150,65
2015,8,0.02,0,0,64,67,71,161,158,130,65
2015,8,0,0,0,66,68,75,173,157,148,66
2015,8,0,0,0,68,72,79,173,162,144,70
2015,8,0,0,0,66,69,76,162,150,132,67
2015,8,0,0,0,62,64,72,144,132,106,63
2015,8,0,0,0,61,62,71,152,133,109,61
2015,8,0,0,0,56,58,65,144,128,103,56
2015,8,0,0,0,57,59,67,141,123,98,58
2015,8,0,0,0,59,61,70,134,117,89,60
2015,8,0,0,0,63,64,73,138,120,91,63
2015,8,0,0,0,58,60,67,142,123,100,59
2015,8,0,0,0,62,62,71,134,114,86,61
2015,8,0,0,0,66,68,77,149,128,100,66
2015,8,0,0,0,68,68,78,137,135,87,67
2015,8,0.08,0.07,0.04,59,62,68,60,49,38,61
2015,8,0.01,0,0,60,63,69,168,131,114,62
2015,8,0,0,0,62,65,73,144,126,100,63
2015,8,0,0,0,68,70,78,113,112,81,68
2015,8,0,0,0,67,72,76,98,82,69,71
2015,8,0.02,0.01,0,60,63,70,152,129,108,62
2015,9,0,0,0,65,72,74,124,97,86,71
2015,9,0,0.01,0,57,61,65,67,33,28,60
2015,9,0.01,0,0,48,50,55,99,99,64,49
2015,9,0,0,0,51,53,59,124,100,79,52
2015,9,0,0,0,52,54,61,127,98,73,53
2015,9,0,0,0,56,57,66,125,96,67,56
2015,9,0,0,0,59,60,68,123,94,67,58
2015,9,0,0,0,60,61,70,118,92,63,60
2015,9,0,0,0,61,61,70,112,92,58,60
2015,9,0,0,0,61,62,71,68,66,34,61
2015,9,0.26,0.21,0.2,57,59,64,41,40,11,57
2015,9,0.64,0.55,0.51,53,57,59,50,54,34,56
2015,9,1.06,1.06,0.89,46,50,52,20,5,-8,49
2015,9,0.02,0.02,0.01,47,50,52,85,98,80,48
2015,9,0.02,0,0,43,46,50,88,88,83,45
2015,9,0,0,0,46,48,54,90,87,75,47
2015,9,0,0,0,51,53,60,89,90,72,52
2015,9,0,0,0,57,57,66,87,89,67,56
2015,9,0,0,0,59,59,68,84,86,62,58
2015,9,0,0,0,58,59,67,79,83,62,58
2015,9,0,0,0,61,61,70,75,86,55,60
2015,9,0,0,0,63,63,73,78,82,55,62
2015,9,0,0,0,64,64,72,85,89,59,63
2015,9,0,0,0,63,64,71,78,85,56,63
2015,9,0,0,0,62,63,69,79,87,56,62
2015,9,0,0,0,61,62,68,68,75,43,61
2015,9,0,0,0,63,64,71,31,40,18,63
2015,10,0,0,0,63,64,71,37,48,35,63
2015,10,0.17,0.24,0.18,49,51,54,53,58,36,50
2015,10,0.27,0.22,0.23,47,51,52,58,68,49,49
2015,10,0.01,0,0,51,54,59,75,77,55,52
2015,10,0.01,0,0,53,55,59,67,57,41,53
2015,10,0.03,0,0,50,53,56,40,42,35,51
2015,10,0,0,0,49,51,55,69,73,51,50
2015,10,0,0,0,53,54,59,61,72,50,53
2015,10,0,0,0,52,53,60,25,30,6,52
2015,10,0,0,0,59,60,66,55,70,37,59
2015,10,0,0,0,55,56,61,50,68,35,55
2015,10,0,0,0,51,52,58,47,65,24,50
2015,10,0,0,0,55,55,62,48,65,22,53
2015,10,0,0,0,55,56,63,45,63,20,54
2015,10,0,0,0,57,56,64,39,59,13,54
2015,10,0,0,0,59,59,67,35,57,7,57
2015,10,0.14,0.16,0.13,54,54,59,29,38,10,52
2015,10,0.3,0.27,0.22,52,54,56,101,109,72,52
2015,10,0.02,0,0,47,50,53,55,63,37,48
2015,10,0.06,0.07,0.07,43,45,49,48,67,54,43
2015,10,0,0,0,46,47,52,16,22,1,46
2015,10,0,0.12,0.07,42,44,49,27,60,33,43
2015,10,0,0.01,0,40,42,46,45,97,34,40
2015,10,0,0,0,43,45,50,34,63,24,44
2015,10,0,0,0,48,48,53,6,11,-11,46
2015,10,0,0,0,46,47,52,30,53,10,45
2015,10,0,0,0,38,39,44,9,23,-13,38
2015,10,0,0,0,40,41,45,21,26,4,39
2015,10,0.12,0.14,0.1,38,40,43,20,23,11,39
2015,10,0.02,0.02,0,34,36,39,95,92,54,35
2015,10,0.02,0,0,43,46,50,47,81,30,44
2015,11,0,0,0,51,53,56,36,38,9,51
2015,11,0,0,0,51,54,57,13,15,-1,53
2015,11,0.08,0.02,0,42,46,48,23,28,16,45
2015,11,0.02,0.02,0.02,30,34,35,10,8,-2,32
2015,11,0.05,0.04,0.02,27,30,32,-4,12,-2,29
2015,11,0.16,0.07,0.07,26,30,32,3,14,13,28
2015,11,0.01,0,0,26,29,34,16,63,-9,27
2015,11,0,0,0,34,35,41,-5,26,-19,33
2015,11,0.08,0.08,0.06,38,39,44,30,45,17,37
2015,11,0.31,0.32,0.26,28,30,32,-4,5,8,29
2015,11,0.02,0.02,0.02,25,28,31,-9,2,20,27
2015,11,0.01,0,0,26,29,33,-4,18,-15,27
2015,11,0,0,0,28,30,36,-21,22,-26,29
2015,11,0,0,0,33,34,40,-17,21,-29,32
2015,11,0,0,0,37,39,44,-3,29,-15,38
2015,11,0.12,0.07,0.03,29,32,34,2,24,17,31
2015,11,0.02,0,0.01,22,25,27,-1,35,19,24
2015,11,0,0.01,0,31,33,35,-4,14,-10,31
2015,11,0.03,0.01,0,34,37,40,25,24,9,35
2015,11,0.14,0.03,0.01,30,34,36,3,42,-6,32
2015,11,0.01,0,0,22,23,28,-36,1,-44,22
2015,11,0,0,0,27,26,31,-28,4,-41,24
2015,11,0,0,0,36,32,37,-7,11,-22,31
2015,11,0,0,0,38,38,43,-18,-24,-41,37
2015,11,0.18,0.11,0.09,35,39,41,-3,-4,-21,38
2015,11,0.04,0.02,0.03,18,22,23,-15,41,-7,20
2015,11,0.01,0,0,16,18,19,6,-3,-25,16
2015,11,0.1,0.07,0.06,14,18,20,-2,22,14,16
2015,11,0.02,0.02,0.02,14,17,19,-2,20,-10,15
2015,11,0.04,0.01,0.02,15,18,20,13,39,-1,16
2015,12,0,0,0,16,18,22,-3,5,-45,17
2015,12,0,0,0,23,22,27,-24,-5,-37,21
2015,12,0,0,0,32,30,34,-17,8,-23,28
2015,12,0,0,0,36,34,37,-12,-2,-14,33
2015,12,0,0,0,25,27,31,-25,4,-42,26
2015,12,0,0,0,34,32,38,-14,2,-28,31
2015,12,0.09,0.06,0.03,38,37,42,1,15,-12,36
2015,12,0.02,0.01,0,37,38,43,29,43,-13,36
2015,12,0,0,0,41,43,48,-5,-8,-26,41
2015,12,0.39,0.24,0.16,38,39,42,-2,13,-3,37
2015,12,0.1,0.18,0.19,25,28,29,10,26,10,26
2015,12,0.04,0,0.01,21,24,27,17,13,20,23
2015,12,0.06,0.05,0.03,27,29,32,5,-15,-17,27
2015,12,1.27,1.62,1.1,23,25,26,-11,-7,2,24
2015,12,0.19,0.17,0.09,18,21,23,-20,-15,-9,20
2016,1,0,0,0,32,26,25,-13,-9,-21,25
2016,1,0,0,0,33,32,34,-12,-15,-22,30
2016,1,0.03,0.03,0.02,34,34,36,3,14,15,33
2016,1,0.02,0,0,27,25,28,-10,-11,-46,24
2016,1,0.11,0.06,0.04,33,33,36,4,4,-4,31
2016,1,0.57,0.61,0.49,26,29,30,-7,-4,7,27
2016,1,0.07,0.04,0.04,20,22,24,-12,-32,19,21
2016,2,0.22,0.07,0.06,16,20,21,16,-24,-13,18
2016,2,0.04,0,0,10,12,15,10,-27,-50,10
2016,2,0.08,0.02,0,12,16,19,-12,-37,-33,15
2016,2,0.07,0.05,0.04,18,19,22,-7,-8,-2,18
2016,2,0,0,0,24,24,28,26,-18,-51,23
2016,2,0,0,0,27,26,29,-33,-19,-52,25
2016,2,0,0,0,27,27,30,-29,-17,-47,25
2016,2,0,0,0,30,27,30,-32,-16,-46,26
2016,2,0,0,0,31,26,26,-31,-15,-26,24
2016,2,0,0,0,34,27,26,-24,-8,-17,25
2016,2,0,0,0,36,27,26,-26,-6,-13,25
2016,2,0,0,0,34,29,29,-23,-12,-22,27
2016,2,0.57,0.39,0.31,31,32,34,-11,-4,-2,30
2016,2,0.09,0.05,0.04,37,38,41,26,35,33,36
2016,2,0.01,0,0,37,38,42,-13,5,-5,36
2016,2,0,0,0,42,41,48,3,6,9,40
2016,2,0.63,0.56,0.28,35,39,40,6,-4,13,37
2016,2,0.03,0,0,32,34,38,-3,-12,-21,32
2016,2,0,0,0,34,35,38,-1,10,59,34
2016,2,0,0,0,31,33,36,-16,-3,35,31
2016,2,0.06,0.09,0.08,28,31,33,13,4,40,29
2016,2,0.02,0,0,25,28,31,-12,-14,41,26
2016,2,0,0,0,28,30,34,-23,-4,39,28
2016,2,0,0,0,32,34,39,-17,6,43,32
2016,2,0,0,0,36,37,44,-8,12,42,36
2016,2,0,0,0,39,40,46,-4,17,42,39
2016,2,0,0,0,34,36,41,1,17,49,34
2016,2,0,0,0,35,36,40,-3,1,21,34
2016,3,0,0,0,37,39,45,17,26,43,36
2016,3,0,0,0,38,40,46,2,20,58,37
2016,3,0,0,0,40,42,49,15,28,42,39
2016,3,0,0,0,42,44,51,20,43,59,42
2016,3,0,0,0,43,47,53,8,13,6,44
2016,3,0.85,0.85,0.52,39,43,45,13,23,27,41
2016,3,0.28,0.24,0.28,29,32,34,-18,-21,36,29
2016,3,0.02,0,0,29,32,37,-14,4,70,29
2016,3,0.19,0.13,0.07,32,36,39,2,51,91,33
2016,3,0.01,0,0,38,42,48,4,36,69,39
2016,3,0,0,0,43,48,53,-1,18,10,45
2016,3,0,0,0,40,42,48,17,42,60,40
2016,3,0,0,0,39,43,47,37,58,47,40
2016,3,0.68,0.5,0.28,32,36,37,-2,9,22,33
2016,3,0.22,0.11,0.06,26,29,31,-37,-12,55,26
2016,3,0.02,0,0,30,33,35,-6,44,116,31
2016,3,0,0,0,34,37,40,13,66,73,34
2016,3,0.02,0,0,28,32,35,-3,81,88,29
2016,3,0,0,0,33,35,40,9,72,80,33
2016,3,0,0,0,42,46,51,36,83,85,43
2016,3,0,0,0,47,54,56,28,36,33,51
2016,3,0.74,0.7,0.55,31,34,36,-30,-24,0,32
2016,3,0.11,0.1,0.06,28,32,34,-21,9,10,29
2016,3,0.04,0,0,33,37,40,7,57,87,34
2016,3,0,0,0,31,35,37,0,67,69,32
2016,3,0.02,0.01,0.01,30,33,35,0,68,76,30
2016,3,0,0,0,37,41,45,31,84,82,38
2016,3,0.41,0.43,0.39,34,35,35,6,17,5,33
2016,3,0.5,0.45,0.43,30,33,35,-19,15,83,31
2016,3,0.05,0.04,0.04,29,32,34,23,52,36,30
2016,3,0.04,0.03,0.03,33,35,38,26,65,50,33
2016,4,0.02,0,0,34,37,41,28,108,114,35
2016,4,0,0,0,38,41,46,55,107,114,39
2016,4,0,0,0,43,47,52,57,111,118,44
2016,4,0.01,0.06,0.04,44,48,53,36,58,51,45
2016,4,0.02,0,0.01,36,39,41,51,81,104,36
2016,4,0.02,0,0,38,41,46,70,111,121,38
2016,4,0,0,0,47,48,53,86,113,122,45
2016,4,0,0,0,52,59,62,74,79,93,56
2016,4,0,0,0,48,53,55,117,135,136,50
2016,4,0,0,0,46,50,53,100,101,111,47
2016,4,0,0,0,45,48,52,109,117,142,45
2016,5,0.01,0,0,57,57,63,144,150,168,55
2016,5,0,0,0,60,62,67,65,83,86,60
2016,5,0.06,0.22,0.25,51,54,56,76,71,56,52
2016,5,0.09,0.19,0.16,41,44,47,46,50,40,42
2016,5,1.16,0.94,0.72,40,43,45,33,36,38,42
2016,5,0.44,0.26,0.27,46,50,52,121,142,138,48
2016,5,0.02,0,0,36,40,43,126,126,172,38
2016,5,0.02,0,0,38,41,44,148,146,183,39
2016,5,0.07,0,0,48,49,55,165,152,180,48
2016,5,0.06,0,0,57,56,63,160,151,177,55
2016,5,0.06,0,0,61,59,66,142,159,163,58
2016,5,0.08,0.29,0.21,49,52,55,60,66,82,50
2016,5,0.04,0.01,0,45,48,50,100,108,112,47
2016,5,0,0,0,47,50,53,119,128,154,48
2016,5,0.07,0,0,49,51,57,115,135,167,49
2016,5,0.06,0.23,0.21,54,55,58,152,159,184,53
2016,5,0.2,0.02,0.02,54,57,61,76,95,85,55
2016,5,0.39,0.45,0.36,45,48,51,110,99,120,47
2016,5,0,0.02,0,39,42,45,66,59,70,40
2016,5,0.01,0,0,45,46,50,145,142,169,44
2016,5,0.07,0.03,0,47,48,52,130,121,122,47
2016,5,0.01,0,0,45,48,50,138,114,124,46
2016,5,0.12,0,0,44,48,51,91,109,153,46
2016,6,0.01,0,0,63,64,71,180,177,193,63
2016,6,0,0,0,65,65,73,163,153,165,64
2016,6,0,0,0,61,62,70,93,96,85,61
2016,6,0.25,0.24,0.2,54,56,60,48,56,46,54
2016,6,0.02,0.02,0.02,54,56,59,193,212,202,55
2016,6,0.15,0.13,0.1,49,52,55,59,62,44,51
2016,6,0.03,0,0,55,57,63,170,187,161,56
2016,6,0,0,0,63,68,71,185,174,190,66
2016,6,0,0,0,54,57,61,183,173,193,56
2016,6,0,0,0,59,60,67,188,178,188,59
2016,6,0,0,0,62,63,70,166,171,161,62
2016,6,0,0,0,59,61,67,189,179,189,59
2016,6,0,0,0,66,67,76,193,185,184,65
2016,6,0,0,0,66,66,75,189,182,178,65
2016,6,0,0,0,65,66,74,190,182,178,65
2016,6,0,0,0,66,67,75,190,171,167,66
2016,6,0,0,0,61,63,70,185,174,174,62
2016,6,0,0,0,53,55,61,179,169,176,54
2016,6,0,0,0,58,60,68,183,173,171,59
2016,6,0,0,0,65,66,78,184,173,161,65
2016,6,0,0,0,69,71,80,184,185,162,70
2016,6,0,0,0,66,69,76,127,135,116,68
2016,6,0,0,0,63,67,72,116,116,122,65
2016,7,0,0,0,61,64,69,152,164,149,62
2016,7,0,0,0,61,64,70,170,173,162,62
2016,7,0,0,0,61,64,72,180,150,148,62
2016,7,0,0,0,64,66,75,150,146,116,64
2016,7,0,0,0,63,66,74,192,155,150,64
2016,7,0,0,0,63,67,76,157,140,119,65
2016,7,0,0,0,67,71,78,143,131,130,69
2016,7,0,0,0,68,71,78,188,152,149,69
2016,7,0,0,0,67,71,79,178,146,147,69
2016,7,0,0,0,69,72,81,186,150,143,70
2016,7,0,0,0,68,71,80,140,101,99,69
2016,7,0,0,0,63,65,73,176,139,136,63
2016,7,0,0,0,63,65,74,177,138,134,63
2016,7,0,0,0,68,70,79,176,137,125,68
2016,7,0,0,0,68,70,79,151,106,102,68
2016,7,0,0,0,68,69,78,175,133,126,67
2016,7,0,0,0,69,70,79,167,128,120,68
2016,7,0,0,0,69,70,79,171,131,125,68
2016,7,0,0,0,68,70,78,118,86,76,68
2016,7,0,0,0,67,69,76,164,136,133,67
2016,8,0,0,0,68,70,77,167,132,125,68
2016,8,0,0,0,63,64,71,155,117,110,63
2016,8,0,0,0,63,65,72,88,90,73,64
2016,8,0,0,0,64,66,73,120,94,87,65
2016,8,0,0,0,66,69,75,103,94,73,67
2016,8,0,0,0,66,68,75,159,123,114,67
2016,8,0,0,0,70,75,79,154,106,107,74
2016,8,0.13,0.19,0.17,59,61,67,91,80,66,60
2016,8,0.01,0,0,58,61,67,174,134,132,60
2016,8,0,0,0,60,61,69,151,114,119,60
2016,8,0,0,0,61,63,71,144,108,104,62
2016,8,0,0,0,65,65,74,149,111,104,64
2016,8,0,0,0,64,64,75,36,26,1,63
2016,8,0,0,0,66,67,75,144,118,99,65
2016,8,0,0,0,66,66,75,112,85,74,65
2016,8,0,0,0,63,64,73,89,63,61,63
2016,8,0,0,0,63,64,71,132,98,98,63
2016,8,0,0,0,60,61,70,128,90,87,60
2016,8,0,0,0,64,65,73,137,104,95,64
2016,8,0,0,0,64,64,72,123,91,80,63
2016,8,0,0,0,61,62,69,115,85,80,61
2016,8,0,0,0,56,57,64,123,102,95,56
2016,8,0,0,0,56,57,65,61,46,37,56
2016,8,0,0,0,57,58,65,95,76,75,57
2016,8,0,0,0,58,59,66,124,95,90,58
2016,8,0,0,0,61,62,69,122,92,87,61
2016,8,0,0,0,65,65,73,122,93,86,64
2016,8,0,0,0,68,67,77,123,92,79,66
2016,8,0,0,0,68,68,77,120,99,79,67
2016,9,0,0,0,66,68,74,94,88,69,66
2016,9,0.02,0,0,66,68,73,126,102,93,66
2016,9,0,0,0,64,64,69,100,80,76,63
2016,9,0.01,0.01,0,57,58,63,75,63,42,57
2016,9,0.01,0,0,50,52,56,124,101,92,51
2016,9,0,0,0,53,54,60,115,92,82,53
2016,9,0,0,0,55,56,62,114,88,78,55
2016,9,0,0,0,56,56,63,114,85,77,55
2016,9,0,0,0,52,53,60,108,78,70,52
2016,9,0,0,0,54,53,61,102,77,62,52
2016,9,0,0,0,64,64,71,106,85,66,63
2016,9,0,0.01,0,62,64,69,98,82,75,63
2016,9,0.26,0.21,0.21,53,57,60,135,113,89,56
2016,9,0.15,0.17,0.15,47,51,54,76,96,75,49
2016,9,0,0,0,45,48,51,54,69,63,47
2016,9,0.01,0,0,48,49,54,99,82,75,48
2016,9,0,0,0,51,53,58,88,82,70,51
2016,9,0,0,0,58,58,66,83,78,60,56
2016,9,0,0,0,62,61,70,78,74,52,60
2016,9,0,0,0,62,61,69,68,67,42,60
2016,9,0,0,0,60,61,66,84,86,60,60
2016,9,1.06,1.13,0.93,53,55,57,88,93,78,54
2016,9,0.78,0.68,0.64,38,41,43,19,19,16,40
2016,9,1.08,0.75,0.62,40,43,46,51,32,29,42
2016,9,0.02,0,0,45,46,51,80,74,67,45
2016,9,0,0,0,50,50,55,73,75,63,49
2016,9,0,0,0,53,54,59,69,75,59,53
2016,9,0,0.06,0.03,57,58,64,75,97,72,57
2016,9,0.02,0,0,56,57,63,64,80,73,56
2016,9,0,0,0,56,57,63,68,78,64,56
2016,10,0,0.01,0,57,59,64,75,94,69,57
2016,10,0.08,0.1,0.09,57,60,64,67,83,69,58
2016,10,0.41,0.11,0.04,38,44,46,21,11,-16,42
2016,10,0.02,0,0,35,39,43,68,91,52,38
2016,10,0.27,0.17,0.12,34,37,40,26,42,7,35
2016,10,0.04,0.01,0,33,36,41,63,52,35,34
2016,10,0,0,0,39,42,48,61,68,38,40
2016,10,0,0,0,45,46,52,40,48,17,44
2016,10,0,0,0,50,50,57,57,69,33,49
2016,10,0,0,0,54,54,60,51,66,36,52
2016,10,0,0,0,50,52,57,8,16,-2,50
2016,10,0,0,0,44,45,50,41,44,11,43
2016,10,0,0,0,52,51,57,50,64,30,50
2016,10,0,0,0,56,58,63,17,36,3,56
2016,10,0.2,0.19,0.13,56,59,61,46,38,18,58
2016,10,0.01,0,0,51,55,58,44,52,24,53
2016,10,0.01,0.01,0,57,62,64,-3,-11,-19,61
2016,10,0.72,0.57,0.49,38,42,45,52,77,33,40
2016,11,0.05,0.05,0.04,38,39,43,27,11,-6,37
2016,11,0.02,0,0,35,37,41,39,31,-11,35
2016,11,0,0,0,41,39,44,6,31,-13,37
2016,11,0,0,0,45,43,48,10,30,-10,42
2016,11,0,0,0,43,43,49,6,35,-12,41
2016,11,0,0,0,45,45,51,6,35,-8,44
2016,11,0,0,0,44,44,50,2,32,-15,43
2016,11,0,0,0,45,45,52,3,32,-17,43
2016,11,0,0,0,45,45,52,2,31,-19,44
2016,11,0,0,0,46,44,50,1,29,-19,42
2016,11,0,0,0,45,45,53,-2,28,-23,44
2016,11,0,0,0,46,46,51,4,25,-18,44
2016,11,0,0,0,42,43,48,-4,28,-20,41
2016,11,0,0,0,44,44,51,-7,24,-27,43
2016,11,0,0,0,50,51,58,-14,16,-40,50
2016,11,0.06,0.08,0.06,42,43,46,-9,7,-11,41
2016,11,0.13,0.14,0.12,24,27,29,19,-26,1,26
2016,11,0.02,0,0,23,26,31,10,2,-26,24
2016,11,0,0,0,42,43,46,-11,21,-17,42
2016,11,0.05,0.02,0.01,48,51,54,3,-1,-15,49
2016,11,1,1.13,1.03,37,40,42,17,23,15,38
2016,11,0.08,0.03,0.02,29,32,35,-33,48,23,31
2016,11,0.89,0.82,0.44,30,34,37,0,29,10,32
2016,11,0.02,0.02,0.06,24,26,29,-16,-3,-38,24
2016,11,0,0,0,29,29,36,-44,-19,-56,28
2016,11,0,0,0,36,39,43,-28,-15,-21,37
2016,11,0.79,0.35,0.14,29,32,34,-9,-7,8,31
2016,11,1.62,1.35,0.78,24,27,28,0,-2,0,25
2016,11,0.01,0,0,18,21,24,5,-7,-35,19
2016,11,0,0,0,20,21,24,7,-14,-30,19
2016,12,0.03,0.03,0.02,21,24,26,-3,-11,-5,22
2016,12,0.02,0,0,17,18,22,41,12,-72,16
2016,12,0,0,0,20,22,25,3,3,-10,21
2016,12,0,0,0,28,28,32,2,14,-22,27
2016,12,0.06,0.04,0.03,19,24,26,-21,-12,-48,23
2016,12,0.05,0.03,0.02,14,15,19,-2,-5,-32,14
2016,12,0.05,0.04,0.02,10,12,16,7,4,-33,11
2016,12,0.05,0,0,19,19,22,2,3,-7,18
2016,12,0.11,0.03,0.02,34,35,38,-3,9,4,34
2016,12,1.47,1.09,0.78,34,36,39,1,9,9,34
2016,12,0.12,0.13,0.15,26,30,31,-7,-23,-42,28
2016,12,0.02,0.01,0,22,25,28,16,-21,-67,24
2016,12,0,0,0,22,25,28,-11,-13,-22,24
2016,12,0.2,0.07,0.06,31,32,34,-2,9,9,31
2016,12,0.01,0,0.01,41,44,48,5,11,0,42
2016,12,1.42,0.72,0.35,32,36,37,8,12,-5,34
2016,12,0.07,0.06,0.02,10,13,14,-3,-18,-24,11
2016,12,0.02,0,0.01,6,7,10,13,-22,-71,5
2016,12,0,0,0.03,15,13,16,16,-21,-47,12
2016,12,0,0,0,31,27,27,4,3,-19,26
2016,12,0,0.02,0.03,28,28,29,6,5,4,26
2016,12,0,0,0,26,25,26,21,25,13,23
2016,12,0.06,0.04,0.02,29,29,31,2,23,-15,28
2016,12,0.22,0.25,0.26,33,35,37,12,19,19,34
2016,12,0.96,1.07,0.58,16,18,20,-11,-11,4,17
2016,12,0.02,0.02,0.02,11,11,14,1,3,18,10
2016,12,0,0,0,20,17,20,-11,-10,16,16
2016,12,0,0,0.02,25,25,27,-9,-15,-44,23
2016,12,0,0,0,23,20,25,24,-13,-69,19
2016,12,0,0,0,30,24,25,-9,-24,-60,23
2016,12,0,0,0,21,16,16,-38,-12,-12,14
2017,1,0.01,0,0,25,20,19,-30,8,-17,18
2017,1,0.65,0.66,0.53,19,21,22,-8,-14,1,19
2017,1,0.06,0.05,0.05,23,25,26,-16,-21,-22,23
2017,1,0.76,0.46,0.28,30,33,34,-1,1,0,32
2017,1,0.17,0.18,0.16,10,11,12,-16,-26,-19,9
2017,1,0.02,0,0,1,0,5,14,-25,-45,-1
2017,1,0.02,0.03,0.02,21,15,16,-10,-20,14,13
2017,1,0.41,0.18,0.11,35,36,37,7,10,13,35
2017,1,0.33,0.18,0.14,36,40,42,8,7,6,39
2017,1,0.05,0,0,32,36,38,3,0,-7,35
2017,1,0.8,0.55,0.34,31,34,35,-5,-8,2,32
2017,1,0.11,0.07,0.06,27,29,30,-13,-6,6,27
2017,1,0,0,0,28,29,29,-2,16,5,27
2017,1,0.02,0,0,25,25,26,-31,3,-11,23
2017,1,0.01,0.01,0,19,20,22,-23,-12,-13,18
2017,1,0.01,0,0,12,17,19,-17,-13,-29,16
2017,1,0,0,0,16,16,19,-19,-7,-58,14
2017,1,0,0,0,25,21,23,-30,-15,-50,20
2017,1,0.48,0.46,0.34,29,31,32,-9,-12,-10,30
2017,1,0.04,0.01,0.01,26,28,30,-2,-8,-1,27
2017,1,0.87,0.94,0.66,25,28,29,-4,-12,-7,26
2017,1,0.24,0.09,0.06,24,26,29,11,-6,-22,24
2017,1,0.76,0.43,0.2,28,32,33,-1,0,-6,30
2017,1,0.13,0.09,0.05,19,22,24,-5,-12,-6,20
2017,1,0.3,0.27,0.17,16,19,21,-19,-29,0,18
2017,1,0.28,0.11,0.11,15,18,20,-17,-33,-15,16
2017,1,0.02,0,0,8,9,14,9,-27,-71,8
2017,1,0,0,0,10,11,15,7,-9,-54,9
2017,1,0,0,0,19,14,17,-13,18,-50,13
2017,1,0,0,0,26,18,18,-33,15,-25,16
2017,1,0,0,0,32,23,22,-12,2,0,22
2017,2,0,0,0,35,34,35,-19,-11,-28,32
2017,2,0.17,0.05,0.03,32,32,35,-4,3,-2,31
2017,2,0.01,0,0,35,37,40,10,29,-5,36
2017,2,0.03,0.02,0.01,37,39,42,-10,7,-8,38
2017,2,0,0,0,38,38,42,-14,1,-14,37
2017,2,0.01,0,0,39,43,45,-3,0,0,42
2017,2,0.22,0.02,0,38,43,45,8,4,2,42
2017,2,0.02,0,0,40,43,46,8,21,34,42
2017,2,0.01,0,0,44,47,53,31,32,18,46
2017,2,0.74,0.52,0.44,41,47,49,16,21,-5,45
2017,2,0.42,0.4,0.39,31,33,35,-24,-20,20,31
2017,2,0.01,0.01,0,25,29,31,-47,-26,9,27
2017,2,0,0,0,25,25,28,-38,-20,7,24
2017,2,0,0,0,28,29,33,-29,-7,15,27
2017,2,0,0,0,33,33,37,-25,1,17,31
2017,2,0,0,0,38,39,44,-7,5,3,37
2017,2,0.04,0.05,0.02,36,38,42,-5,11,4,37
2017,2,0,0,0,38,41,45,19,18,17,39
2017,2,0.49,0.23,0.15,35,38,41,19,35,21,37
2017,2,0.02,0,0,38,41,44,32,17,8,40
2017,2,0.48,0.4,0.31,41,45,47,12,47,34,43
2017,2,0.58,0.44,0.32,27,30,31,-30,-15,-2,28
2017,2,1.2,0.98,0.56,20,22,24,-14,-8,1,21
2017,2,0.46,0.31,0.17,15,18,20,-41,-37,-14,16
2017,2,0.02,0.03,0.01,14,15,19,-50,-27,-31,14
2017,2,0.02,0,0,19,21,25,17,41,-43,20
2017,2,0.61,0.38,0.29,22,26,27,-12,-18,-21,24
2017,2,0.11,0.08,0.03,18,20,23,-40,-45,3,18
2017,3,0.01,0,0,21,25,27,-34,-31,-26,22
2017,3,0,0,0,24,26,32,-24,-14,-45,23
2017,3,0,0,0,32,34,40,-14,-1,-15,31
2017,3,0,0,0,43,46,49,6,14,26,43
2017,3,0.98,0.74,0.3,38,43,44,13,26,71,40
2017,3,0.02,0,0,20,24,26,0,22,-13,21
2017,3,0,0,0,28,32,34,-7,15,-6,29
2017,3,0,0,0,38,40,44,14,22,58,37
2017,3,0,0,0,40,41,47,9,36,68,38
2017,3,0,0,0,41,44,49,25,50,52,41
2017,3,0,0,0,38,41,45,14,59,61,38
2017,3,0,0,0,39,41,45,8,58,63,38
2017,3,0,0,0,39,42,48,18,79,68,40
2017,3,0,0,0,44,48,55,26,77,66,45
2017,3,0,0,0,45,52,58,35,76,68,49
2017,3,0,0,0,45,52,56,39,71,66,49
2017,3,0,0,0,44,49,55,38,76,71,47
2017,3,0,0,0,50,57,62,59,90,77,55
2017,3,0,0,0,47,54,56,42,59,55,51
2017,3,0,0,0,47,54,58,42,44,38,51
2017,3,0,0,0,52,61,62,57,63,65,58
2017,3,0.25,0.19,0.13,42,48,51,50,42,38,45
2017,3,1.1,1.43,1.3,32,34,35,-29,-2,18,31
2017,3,0.03,0.02,0,32,37,41,43,88,114,35
2017,3,0.41,0.59,0.51,34,37,39,4,27,27,34
2017,3,0.03,0.01,0,32,37,40,43,117,117,35
2017,3,0.41,0.46,0.41,34,37,39,13,30,25,34
2017,3,0.02,0.01,0,34,37,39,34,103,102,34
2017,3,0,0,0,35,39,42,38,99,109,36
2017,3,0.2,0.18,0.18,39,43,45,37,50,37,40
2017,3,0.03,0.03,0.02,39,42,44,55,57,49,39
2017,4,0.01,0,0,40,45,47,70,98,113,42
2017,4,0.54,0.37,0.24,35,38,41,27,25,30,35
2017,4,0.02,0.01,0,32,35,38,92,128,97,32
2017,4,0,0,0,49,52,56,107,98,94,50
2017,4,0,0,0,53,58,60,12,-4,-9,56
2017,4,1.28,1,0.76,35,39,40,25,80,83,36
2017,4,0.39,0.43,0.28,25,29,31,-20,-66,-30,26
2017,4,0.01,0,0,31,34,39,16,42,75,32
2017,4,0,0,0,39,43,48,20,64,62,41
2017,4,0,0,0,45,49,55,97,120,128,46
2017,4,0,0,0,52,55,58,122,137,147,52
2017,5,0,0,0,56,59,62,109,169,179,57
2017,5,0,0.05,0.04,51,53,56,80,117,118,51
2017,5,0,0,0,54,55,59,138,123,110,53
2017,5,0,0,0,55,55,62,152,154,169,54
2017,5,0,0,0,61,62,66,146,146,164,60
2017,5,0,0,0,63,62,70,154,171,179,60
2017,6,0.13,0.11,0.05,58,59,64,99,110,88,58
2017,6,0.02,0,0,53,55,61,201,193,189,54
2017,6,0,0,0,62,60,69,176,180,180,59
2017,6,0,0,0,67,66,75,160,180,157,65
2017,6,0,0,0,61,62,67,178,176,184,60
2017,6,0,0,0,65,64,73,180,177,178,63
2017,6,0,0,0,68,68,77,181,176,177,67
2017,6,0,0,0,68,69,75,158,148,154,68
2017,6,0,0,0,62,63,66,182,176,184,62
2017,6,0,0,0,54,56,60,183,170,177,55
2017,6,0,0,0,61,63,69,179,169,174,62
2017,6,0,0,0,49,53,56,62,71,78,52
2017,6,1.08,0.81,0.59,42,45,48,71,66,96,44
2017,6,0.01,0,0,51,53,58,202,181,191,52
2017,6,0,0,0,58,59,65,180,176,166,58
2017,6,0,0,0,61,62,69,200,186,187,60
2017,6,0,0,0,57,59,65,172,161,158,57
2017,6,0,0,0,57,59,66,197,183,188,58
2017,6,0,0,0,63,64,72,198,183,180,62
2017,6,0,0,0,67,69,78,193,194,168,68
2017,6,0,0,0,67,68,78,187,175,170,66
2017,6,0,0,0,59,61,68,190,175,176,60
2017,6,0,0,0,57,58,66,187,175,172,57
2017,6,0,0,0,59,59,68,187,175,171,58
2017,6,0,0,0,63,63,74,188,179,170,62
2017,6,0,0,0,65,67,79,179,166,156,66
2017,6,0,0,0,62,65,73,184,166,161,64
2017,6,0,0,0,60,62,70,181,170,165,61
2017,6,0,0,0,57,59,67,179,169,163,58
2017,6,0,0,0,58,59,68,175,164,159,58
2017,7,0,0,0,61,63,72,182,175,155,61
2017,7,0,0,0,65,67,78,186,162,147,65
2017,7,0,0,0,65,67,77,186,165,150,65
2017,7,0,0,0,66,68,80,184,166,152,66
2017,7,0,0,0,68,71,83,175,153,142,69
2017,7,0,0,0,68,69,82,177,157,140,67
2017,7,0,0,0,69,71,82,190,158,143,69
2017,7,0,0,0,68,73,82,164,170,157,71
2017,7,0,0,0,67,71,79,171,145,131,69
2017,7,0,0,0,65,69,77,127,124,108,67
2017,7,0,0,0,64,67,74,116,116,109,65
2017,7,0,0,0,64,67,74,166,144,135,65
2017,7,0,0,0,65,68,75,180,162,142,66
2017,7,0,0,0,66,70,77,156,141,126,68
2017,7,0,0,0,66,70,79,186,150,143,68
2017,7,0,0,0,68,71,79,194,154,145,69
2017,7,0,0,0,66,69,76,167,142,119,67
2017,7,0.01,0,0,67,70,79,187,157,150,68
2017,7,0.03,0,0,67,71,77,102,84,62,69
2017,7,0.01,0,0,67,70,77,143,109,108,68
2017,7,0.07,0.01,0,66,70,76,200,159,153,68
2017,7,0,0,0,66,69,77,166,150,115,67
2017,7,0,0,0,66,69,77,168,153,120,67
2017,7,0.08,0.03,0,66,70,76,168,134,112,68
2017,7,0.26,0.21,0.19,60,63,67,104,120,110,61
2017,7,0.78,1.32,1.33,62,65,69,192,185,192,63
2017,7,0.01,0,0,61,64,70,212,186,160,62
2017,7,0,0,0,61,64,71,122,99,101,62
2017,7,0,0,0,63,66,72,178,158,143,64
2017,7,0,0,0,64,67,75,164,163,144,65
2017,7,0,0,0,67,68,78,154,164,139,66
2017,8,0,0,0,66,68,79,163,139,122,67
2017,8,0,0,0,65,67,77,155,135,110,66
2017,8,0,0,0,66,68,78,168,152,120,67
2017,8,0,0,0,65,67,75,151,134,111,66
2017,8,0,0,0,64,66,73,164,142,121,65
2017,8,0,0,0,62,64,71,123,115,88,63
2017,8,0,0.04,0.06,62,64,70,124,104,89,63
2017,8,0,0.01,0,61,62,67,111,107,88,61
2017,8,0,0.01,0,61,64,69,148,141,119,63
2017,8,0.02,0,0,60,64,70,169,145,122,62
2017,8,0,0.01,0,64,67,75,160,135,113,65
2017,8,0,0,0,65,68,75,169,142,121,67
2017,8,0.03,0.01,0.01,64,67,74,149,120,102,66
2017,8,0,0.02,0.02,60,62,67,106,107,71,61
2017,8,0.02,0.01,0,55,59,63,158,131,117,57
2017,8,0,0,0,57,60,67,145,119,98,58
2017,8,0,0,0,60,63,70,153,129,107,62
2017,8,0,0,0,61,63,71,151,126,101,62
2017,8,0,0,0,64,65,74,157,134,99,64
2017,8,0,0,0,64,66,74,146,119,98,64
2017,8,0,0,0,63,64,72,120,97,74,63
2017,8,0,0,0,63,65,71,116,118,80,64
2017,8,0,0,0,62,63,70,98,93,61,62
2017,8,0,0,0,61,63,71,146,127,101,62
2017,8,0,0,0,64,65,73,124,115,83,64
2017,8,0,0,0,67,67,76,139,119,96,66
2017,8,0,0,0,67,67,76,136,112,85,66
2017,8,0,0,0,67,67,76,140,116,82,66
2017,8,0,0,0,68,68,78,117,94,64,67
2017,8,0,0,0,67,68,75,133,120,94,67
2017,8,0,0,0,61,64,69,68,79,63,62
2017,9,0,0,0,61,63,70,125,103,80,62
2017,9,0,0,0,65,65,74,126,105,76,64
2017,9,0,0,0,67,67,76,121,100,70,66
2017,9,0,0,0,67,67,76,120,100,66,66
2017,9,0,0,0,69,69,76,103,85,53,67
2017,9,0,0,0,64,64,73,89,73,37,62
2017,9,0,0,0,65,65,72,97,86,51,64
2017,9,0,0.02,0,63,63,69,90,93,61,61
2017,9,0,0.02,0,59,59,65,63,49,31,58
2017,9,0.02,0,0,59,61,67,115,100,76,60
2017,9,0,0,0,64,63,72,110,100,70,62
2017,9,0,0,0,62,63,70,104,95,65,62
2017,9,0,0.01,0,61,61,68,79,69,43,60
2017,9,0.02,0.06,0.05,55,57,61,28,28,16,56
2017,9,1.48,1.44,1.24,45,48,51,43,35,46,47
2017,9,0.04,0.01,0.01,43,45,49,118,111,61,44
2017,9,0,0,0,49,50,56,84,90,59,49
2017,9,0,0,0,57,59,64,91,88,70,58
2017,9,0.2,0.17,0.14,43,45,49,30,32,34,44
2017,9,0,0,0,49,51,55,100,92,66,50
2017,9,0.33,0.43,0.44,42,43,44,93,75,39,41
2017,9,0.28,0.2,0.13,35,37,40,70,81,63,36
2017,9,0.27,0.27,0.29,35,36,39,47,41,-1,35
2017,9,0.58,0.69,0.71,33,36,40,24,27,24,35
2017,9,0.02,0,0,36,39,43,62,80,71,38
2017,9,0,0,0,42,43,50,57,78,58,42
2017,9,0,0,0,47,47,54,70,82,53,46
2017,9,0,0,0,50,51,55,36,45,23,50
2017,9,0,0,0,47,50,55,61,73,51,49
2017,9,0.1,0.07,0.03,46,48,53,36,37,17,47
