Year 			0.00603601175600943
Month 			-0.00739745668998739
KFC Prec 		-0.0290184035640945
TMC Prec 		-0.00699879435412306
ARBRC Prec		0.0215229950817953
TMC Temp		0.217042564116508
ARBRC Temp		0.202207478254028
KFC Net Rad		0.000256042345978023
TMC Net Rad 	-0.0127068393137453
ARBRC Net Rad 	0.00967452473707069
KFC Adiabatic 	0.00102111398066857
