Year,Water_Year_Day,ARBRC_Temperature,TMC_Temperature,KFC_Temperature,ARBRC_Radiation,TMC_Radiation,KFC_Radiation,ARBRC_Precipitation,TMc_Precipitation,KFC_Precipitation,,V1,,Predicted Deviation,Predicted Deviation Squared,Y' (What Predicted would be if it exactly matched regression line of predicted and recorded),Predicted - Y',Y'^2
2015,6,56.11644,52.86161,50.08336,35.31488542,41.98957292,39.63377083,0,0.01,0.08,,54.97044541,15.33667458,79.23046,6277.4652950566200,61.60155437,-6.631108962,43.97160607
2015,11,61.2065,56.38739,55.00378,35.03936458,68.09854167,49.981875,0,0,0,,67.54944327,17.56756827,66.65146,4442.4169868477400,71.0934277,-3.543984426,12.55982562
2015,12,58.11969,51.58248,50.72356,24.28989583,65.20302083,47.47725,0,0.01,0,,59.15347089,11.67622089,75.04743,5632.1169572713600,68.79604232,-9.642571429,92.97918377
2015,13,62.2295,54.9224,54.66609,22.0378125,65.42833333,48.29791667,0,0,0,,62.12457023,13.82665356,72.07633,5194.9976411420200,69.54880475,-7.424234525,55.11925828
2015,31,49.61433,45.71456,42.65915,30.2444375,80.62597917,46.63551042,0,0,0.04,,59.35432368,12.71881326,74.84658,5602.0103273314800,68.0239506,-8.669626928,75.16243107
2015,35,35.02398,33.53551,30.38358,-1.955333333,8.055458333,9.501958333,0.04,0.05,0.04,,25.18115825,15.67919992,109.01974,11885.3045865599000,33.96293161,-8.781773362,77.11954338
2015,37,32.24422,29.7893,25.83967,13.07644792,14.24776042,3.220177083,0.17,0.19,0.41,,16.62386461,13.40368752,117.57704,13824.3597858725000,28.20092237,-11.57705776,134.0282663
2015,40,44.08344,39.04173,38.30819,17.03521875,44.58569792,30.36973958,0.15,0.2,0.2,,34.51086812,4.141128544,99.69003,9938.1029082708800,53.10405476,-18.59318663,345.7065892
2015,41,31.93387,30.37492,28.07632,8.442875,4.948572917,-4.000010417,0.67,0.82,0.8,,2.748410019,6.748420436,131.45249,17279.7577195022000,21.57815321,-18.82974319,354.5592285
2015,45,39.61858,33.56013,33.22055,-29.3305625,21.02895833,-17.2186875,0,0,0,,26.54087129,43.75955879,107.66003,11590.6822704583000,9.453226128,17.08764516,291.9876173
2015,47,34.0265,32.35141,29.18491,16.90509375,24.24211458,2.082864583,0.08,0.18,0.31,,16.52100048,14.43813589,117.67990,13848.5592866701000,27.15771426,-10.63671378,113.1396801
2015,63,26.56978,22.45306,22.71129,-36.73570833,-5.37578125,-23.62327083,0,0,0,,17.31957418,40.94284501,116.88133,13661.2448572107000,3.578575787,13.74099839,188.8150368
2015,66,31.16124,26.94256,25.03946,-42.134375,3.91253125,-24.50239583,0,0,0,,19.41924502,43.92164085,114.78166,13174.8288413184000,2.772192027,16.64705299,277.1243733
2015,67,38.08252,32.19054,33.68068,-28.36779167,1.752875,-14.36448958,0,0,0,,20.9175047,35.28199428,113.28340,12833.1281648461000,12.0712598,8.846244907,78.25604895
2015,124,21.26233,19.9172,16.13321,-12.90830208,-23.50840625,15.8700625,0.14,0.18,0.55,,-2.671307809,18.54137031,136.87221,18734.0018923948000,39.80412118,-42.47542899,1804.162068
2015,126,18.53589,16.1768,12.46646,-33.46066667,-37.40494792,-11.67307292,0,0.04,0.2,,14.29848346,25.97155638,119.90242,14376.5900363686000,14.53998118,-0.241497714,0.058321146
2015,140,47.74916,41.28013,41.58695,8.927291667,5.7993125,2.893979167,0,0,0,,24.82828807,21.9343089,109.37261,11962.3687375812000,27.90171497,-3.073426902,9.445952919
2015,153,44.60979,38.72103,36.91869,43.2459375,25.71621875,16.50801042,0,0,0,,22.39626318,5.88825276,111.80464,12500.2773222708000,40.38928352,-17.99302034,323.7487808
2015,156,51.34567,44.37234,42.04203,59.41036458,42.66277083,20.49511458,0,0,0,,44.42557591,23.93046133,89.77533,8059.6092228291400,44.04648362,0.379092293,0.143710966
2015,157,53.01388,47.13316,42.88024,6.321041667,13.06416667,8.080770833,0,0,0,,36.2684217,28.18765087,97.93248,9590.7707506145600,32.65933711,3.609084594,13.02549161
2015,163,52.85066,47.73675,43.43968,9.77653125,18.35585417,-1.28778125,0,0,0,,39.58235134,40.87013259,94.61855,8952.6701794387500,24.06596501,15.51638634,240.7582449
2015,166,37.11933,35.65694,31.74149,22.01171875,9.2784375,-1.788166667,0.7,1.27,1.73,,-7.995435779,6.207269112,142.19634,20219.7985549312000,23.60698287,-31.60241865,998.7128644
2015,171,39.93271,35.42761,32.76026,80.2209375,71.6690625,8.59725,0,0,0,,46.02321638,37.42596638,88.17769,7775.3042896055100,33.13308136,12.89013502,166.1555809
2015,173,56.438,53.66294,46.5608,32.5814375,36.09364583,27.60313542,0,0,0,,52.84807649,25.24494107,81.35283,6618.2822623083600,50.5663671,2.281709391,5.206197746
2015,174,35.8235,34.49651,31.34536,0.184760417,-24.17273958,-29.92434375,1.39,1.79,1.88,,-63.12302722,33.19868347,197.32393,38936.7331489072000,-2.201128883,-60.92189833,3711.477697
2015,176,40.34829,36.96279,32.82241,87.43426042,56.50627083,6.820979167,0,0,0.09,,41.43534619,34.61436702,92.76556,8605.4483951959500,31.5037841,9.931562091,98.63592558
2015,179,44.5343,41.20788,37.29442,81.78520833,84.2914375,30.73089583,0,0,0,,71.14768976,40.41679393,63.05321,3975.7076076912900,53.43532794,17.71236182,313.7277614
2015,183,37.72728,35.48439,32.61238,49.87564583,64.88504167,25.62385417,0.07,0.07,0.1,,36.31066756,10.68681339,97.89023,9582.4980524287300,48.75085707,-12.44018951,154.7583151
2015,224,44.14475,40.643,37.94135,182.9272917,145.9235417,147.7227083,0,0,0.06,,157.1527342,9.430025914,22.95183,526.7865895150190,160.7469134,-3.594179141,12.91812369
2015,227,65.90075,59.21285,60.61756,163.0914375,159.3218958,142.1392396,0,0,0.15,,182.6339042,40.49466457,48.43300,2345.7556728163200,155.6254363,27.00846783,729.4573344
2015,229,50.22826,48.43949,45.31196,112.2171875,107.5338854,99.82914583,0.01,0.03,0.09,,142.3340282,42.50488237,8.13313,66.1477373283198,116.8161971,25.51783112,651.1597048
2015,231,56.56203,50.89411,49.244,167.3794792,135.1652083,114.5711563,0,0.01,0.18,,179.3089537,64.73779736,45.10805,2034.7362999743600,130.3384127,48.97054094,2398.11388
2015,239,50.99488,47.77121,43.70131,152.7783333,108.6264792,91.34316667,0,0.01,0.3,,163.6357955,72.29262884,29.43489,866.4129401516900,109.0323714,54.60342414,2981.533928
2015,255,60.00669,55.65926,53.77149,45.88144792,55.71697917,47.80033333,0.502,0.618,0.64,,81.03497961,33.23464628,53.16592,2826.6153327795500,69.09239284,11.94258677,142.6253788
2015,256,59.05831,56.28875,53.83535,201.8912188,212.0496979,192.8732813,0.04,0.05,0.04,,163.4021985,29.47108275,29.20130,852.7157042547990,202.1616027,-38.75940417,1502.291411
2015,291,75.76606,67.16619,63.47844,118.5193646,139.5280208,156.9937604,0,0,0,,152.9556122,4.038148216,18.75471,351.7391439057390,169.2508529,-16.29524071,265.5348696
2015,294,79.03981,71.07875,67.36794,147.3756667,145.8214583,178.0609583,0,0,0,,147.9879834,30.07297487,13.78708,190.0836068441530,188.5748924,-40.58690897,1647.29718
2015,295,81.02038,72.10044,69.02966,142.9674271,150.465,185.8735417,0,0,0,,141.7114967,44.162045,7.51059,56.4090287040244,195.741041,-54.02954428,2919.191655
2015,296,79.93475,71.14044,67.76938,98.68554167,101.1577083,139.6909271,0,0,0,,155.03296,15.34203285,20.83206,433.9746272371770,153.379704,1.653255945,2.733255219
2015,301,78.40869,69.11394,67.92884,125.9726771,133.4866667,174.9034375,0,0,0,,143.3063899,31.59704762,9.10549,82.9099045457333,185.6786336,-42.37224375,1795.407041
2015,302,79.13525,69.91531,68.86644,119.9956979,128.2637813,166.6913854,0,0,0,,149.1679617,17.52342368,14.96706,224.0128684953310,178.1460695,-28.97810778,839.7307305
2015,306,77.25575,69.61831,67.71275,124.9095625,131.8240625,166.7620833,0,0,0,,151.0411372,15.72094611,16.84023,283.5935122109720,178.2109177,-27.16978047,738.1969706
2015,311,72.62863,66.02403,64.09203,86.72141667,94.27158333,120.1933854,0,0,0,,161.7133161,41.51993072,27.51241,756.9329155685890,135.495443,26.21787313,687.3768714
2015,315,66.68206,61.21494,59.20175,66.2653125,79.59101042,90.6814375,0.44,0.49,0.33,,145.6406627,54.9592252,11.43976,130.8681187637230,108.4253955,37.21526719,1384.976112
2015,328,68.70144,61.89519,61.17969,79.88757292,84.72208333,115.3877083,0,0,0,,158.3206416,42.93293328,24.11974,581.7618244113990,131.0874009,27.23324064,741.6493959
2015,335,77.03544,67.39588,67.84138,79.06323958,92.376875,122.5654792,0,0,0,,166.7274054,44.1619262,32.52650,1057.9734060672400,137.6712632,29.05614224,844.2594017
2015,341,56.03675,51.78613,49.51561,91.63738542,100.8955313,123.8552396,0.01,0,0.03,,147.6319508,23.77671122,13.43105,180.3930650826160,138.8543052,8.777645605,77.04706236
2015,342,59.79106,53.94071,53.21684,81.888625,92.081875,115.023125,0,0,0,,152.3138505,37.29072551,18.11295,328.0788939399570,130.7529843,21.56086624,464.8709529
2015,344,62.7725,56.37905,55.69336,77.36260417,85.01177083,113.7334375,0,0,0,,153.3525772,39.61913972,19.15167,366.7866534847220,129.5700091,23.78256813,565.6105469
2015,353,58.22951,52.59954,50.888,69.52815625,82.08460417,88.05990625,0,0,0,,155.1905451,67.13063887,20.98964,440.5651067285040,106.020777,49.16976809,2417.666094
2015,355,70.12531,61.44275,61.52319,51.68769792,74.00010417,78.0209375,0,0,0,,166.2439219,88.22298439,32.04302,1026.7551062729200,96.8124604,69.43146149,4820.727845
2015,356,69.15744,60.89,61.97656,42.306,67.18732292,67.92458333,0,0.01,0,,161.2257291,93.30114578,27.02483,730.3412654163890,87.55150657,73.67422253,5427.891066
2015,357,65.53063,61.29671,59.70391,60.43740625,86.30013542,84.15667708,0,0.01,0,,170.7903101,86.63363304,36.58941,1338.7847670295900,102.4405119,68.34979826,4671.694922
2015,359,42.80604,41.41154,38.04328,16.25695833,18.76898958,19.23866667,1.63,1.72,1.99,,-8.199596446,27.43826312,142.40050,20277.9020349328000,42.8939977,-51.09359414,2610.555362
2015,365,62.75863,56.85819,55.88338,73.48610417,79.51828125,63.55741667,0.01,0,0.05,,173.7729158,110.2154991,39.57201,1565.9442511174900,83.5456914,90.22722436,8140.952015
2016,1,62.55631,57.39256,56.09825,63.87664583,78.43122917,67.711875,0,0,0.01,,77.77711034,10.06523534,56.42379,3183.6442959463200,87.35639832,-9.579287982,91.76275824
2016,5,42.50036,39.16449,35.38319,52.45420833,90.50603125,68.01502083,0.01,0.01,0.05,,78.09509615,10.08007532,56.10581,3147.8614807775100,87.63446102,-9.539364877,90.99948225
2016,11,60.03584,53.77589,54.15444,35.60189583,66.35939583,51.30195833,0,0,0,,62.71383099,11.41187266,71.48707,5110.4013610699500,72.30428367,-9.590452686,91.97678273
2016,30,57.56956,54.70194,51.33103,23.60384375,52.19297917,43.65373958,0.01,0,0.02,,50.01606119,6.362321607,84.18484,7087.0874684236000,65.28889975,-15.27283857,233.2595979
2016,37,48.63283,43.06499,43.36792,-11.63994792,35.15917708,5.684895833,0,0,0,,35.769168,30.08427216,98.43173,9688.8063124375400,30.46170345,5.307464546,28.16917991
2016,46,51.30973,44.41244,44.00705,-27.143125,23.70875,-6.9598125,0,0,0,,29.89824287,36.85805537,104.30266,10879.0447578073000,18.86325336,11.03498952,121.7709936
2016,51,46.17464,43.11749,41.97152,-16.86844792,21.31219792,-10.51454167,0,0,0,,28.69603346,39.21057513,105.50487,11131.2773425469000,15.60265234,13.09338112,171.4366293
2016,54,34.53192,32.31915,29.31206,22.71558854,47.64088542,-32.78247917,0.05,0.07,0.21,,29.0361413,61.81862047,105.16476,11059.6269495155000,-4.822774251,33.85891555,1146.426163
2016,64,22.30918,17.52065,16.73799,-72.43125,11.926625,41.47296875,0,0.01,0.05,,22.30423998,19.16872877,111.89666,12520.8630316234000,63.28857195,-40.98433197,1679.715467
2016,68,19.43379,15.01715,14.13446,-31.73201042,-5.44021875,-2.429239583,0.04,0.07,0.13,,8.263671151,10.69291073,125.93723,15860.1861821708000,23.0189541,-14.75528295,217.718375
2016,71,38.30159,34.94246,33.66296,3.666197917,9.246864583,-2.621458333,0.05,0.08,0.27,,7.50309171,10.12455004,126.69781,16052.3352009562000,22.84264007,-15.33954836,235.3017438
2016,73,31.18644,29.55611,26.45041,-41.9061875,-22.89505208,-7.099927083,0.38,0.34,0.3,,5.963055096,13.06298218,128.23785,16444.9454481846000,18.73473224,-12.77167715,163.1157371
2016,80,10.04696,6.58724,5.62606,-70.7790625,-21.59203125,13.10863542,0.02,0.01,0.04,,37.03766203,23.92902661,97.16324,9440.6952537420200,37.27118223,-0.233520201,0.054531684
2016,83,28.98271,27.77418,27.53913,4.486135417,5.477854167,6.02078125,0.08,0.06,0,,2.125136299,3.895644951,132.07577,17444.0079571726000,30.76979678,-28.64466048,820.5165738
2016,84,25.56734,24.64619,26.03894,13.13201042,24.85658333,21.09890625,0,0.01,0.01,,10.04683611,11.05207014,124.15407,15414.2321444739000,44.60031589,-34.55347978,1193.942965
2016,96,25.89603,24.80801,22.53166,-21.64811458,-20.69790625,-16.18277083,0.12,0.12,0.14,,-2.768133093,13.41463774,136.96904,18760.5166486646000,10.40342818,-13.17156127,173.4900264
2016,97,34.0601,33.15371,29.95897,-0.299708333,1.07934375,-1.250333333,0.72,1.17,1.93,,-1.342585269,0.092251936,135.54349,18372.0370147032000,24.10031438,-25.44289965,647.3411426
2016,101,36.94319,36.24787,35.41687,12.9210625,9.793166667,7.293572917,0.28,0.46,1.05,,3.84289863,3.450674287,130.35800,16993.2091133076000,31.93727413,-28.0943755,789.2939347
2016,115,29.06765,25.78963,24.32677,-21.57108333,-6.083822917,11.43994792,0.15,0.23,0.61,,-9.869006666,21.30895459,144.06991,20756.1386613877000,35.74056657,-45.60957323,2080.23317
2016,121,14.90653,11.01352,10.46056,-53.978125,-9.365114583,7.127791667,0,0,0,,5.19554949,1.932242177,129.00535,16642.3810463044000,31.78521008,-26.58966059,707.0100503
2016,129,41.92983,38.16541,37.81807,-13.75476042,0.975729167,-13.60628125,0.01,0,0.01,,4.432633151,18.0389144,129.76827,16839.8036703924000,12.76673187,-8.334098714,69.45720137
2016,131,44.82934,43.27427,38.49703,2.328833333,3.82140625,7.999864583,0,0.04,0.57,,5.942754485,2.057110098,128.25815,16450.1524737387000,32.58512526,-26.64237078,709.8159208
2016,137,28.28291,25.38237,25.30781,6.734052083,-20.25670833,-38.38039583,0,0,0,,-24.52020312,13.86019271,158.72111,25192.3892971472000,-9.95750376,-14.56269936,212.0722127
2016,145,46.63826,44.95573,40.89779,34.39716667,47.49772917,11.9730625,0.79,1.01,1.21,,34.65787855,22.68481605,99.54302,9908.8135720377100,36.22956977,-1.571691218,2.470213286
2016,150,24.87661,21.43333,19.47999,-42.57233333,41.42463542,17.3785,0,0,0.04,,3.476728195,13.90177181,130.72417,17088.8096880706000,41.18774637,-37.71101818,1422.120892
2016,164,45.36674,40.94908,38.8646,62.92052083,58.36460417,7.659177083,0,0,0,,36.83903756,29.17986048,97.36186,9479.3327004004800,32.27262719,4.566410365,20.85210362
2016,166,54.5078,48.01017,43.56512,66.39651042,77.28471875,26.16411458,0,0,0,,61.0589404,34.89482582,73.14196,5349.7465857884800,49.24641484,11.81252557,139.5357603
2016,172,58.18813,53.86342,47.03931,38.1529375,44.43554167,42.38654688,0,0,0,,41.43031621,0.956230671,92.77059,8606.3816384019300,64.12655809,-22.69624188,515.1193957
2016,177,39.40376,36.58484,33.85278,26.69457292,27.34961458,4.168770833,1.29,1.51,1.05,,6.3349974,2.166226567,127.86590,16349.6896287102000,29.07102684,-22.73602944,516.9270346
2016,191,40.38425,38.84981,35.38606,82.72786458,80.44466667,24.63619792,1.94,2.54,3.25,,54.22645126,29.59025334,79.97445,6395.9128138403300,47.84492224,6.381529026,40.72391271
2016,193,39.24238,34.40056,31.10761,75.3436875,42.038375,16.49219792,0,0,0.02,,20.13181954,3.639621617,114.06908,13011.7556357654000,40.37477939,-20.24295985,409.7774235
2016,194,47.50293,43.19909,39.30144,61.75004167,64.27715625,20.4404375,0,0,0,,47.4951953,27.0547578,86.70571,7517.8796213559500,43.99633067,3.498864627,12.24205368
2016,195,54.53677,48.59966,45.33551,128.4325,120.4441667,96.76166667,0,0,0,,148.2293695,51.4677028,14.02847,196.7978918227860,114.0025297,34.22683981,1171.476563
2016,221,55.72044,52.86667,51.21736,117.9984271,116.7287396,80.463,0.1,0.12,0,,150.359859,69.89685905,16.15896,261.1118840748050,99.05245987,51.30739917,2632.44921
2016,249,67.4465,61.55919,60.88588,184.4668438,175.5883333,177.9525,0,0,0,,175.483048,2.469452015,41.28215,1704.2155547553100,188.4754082,-12.99236026,168.8014251
2016,250,73.48175,63.96763,65.40838,177.7191667,176.840125,179.9673958,0,0,0,,175.8723254,4.095070406,41.67142,1736.5075050996800,190.323586,-14.45126058,208.8389324
2016,259,65.26738,59.13425,57.92004,166.3225,176.2979167,180.1107396,0,0,0,,164.6697515,15.44098813,30.46885,928.3507712685660,190.4550691,-25.78531765,664.8826061
2016,272,70.41481,62.25013,59.76425,164.6805208,170.1257292,181.1590313,0,0,0,,161.9645668,19.1944645,27.76366,770.8210679694100,191.4166222,-29.45205545,867.4235703
2016,274,68.11663,59.00771,57.65992,159.2175,164.4927083,174.6927083,0,0,0,,161.1931206,13.49958766,26.99222,728.5798523442810,185.4853407,-24.29222011,590.111958
2016,278,79.95763,68.16725,66.48163,152.080625,165.9774063,184.4624583,0,0,0,,161.0789233,23.38353497,26.87802,722.4280159558020,194.4467145,-33.36779121,1113.40949
2016,280,81.52588,69.34569,68.03844,139.6535417,157.4089583,177.1774792,0,0,0,,162.5518964,14.62558276,28.35099,803.7788703365950,187.7645148,-25.21261837,635.6761253
2016,289,78.65075,69.58156,66.41056,142.9143958,149.6025,186.201125,0,0,0,,155.0949557,31.10616925,20.89405,436.5614706033730,196.0415191,-40.94656339,1676.621053
2016,290,78.92731,70.72494,67.7345,145.2480208,154.4605729,194.3477813,0,0,0,,152.746262,41.60151934,18.54536,343.9303661002060,203.5140985,-50.76783653,2577.373226
2016,291,76.36447,68.92681,65.52725,118.7685104,141.8435938,166.89325,0,0,0,,157.9964016,8.89684844,23.79550,566.2257864010920,178.3312313,-20.3348297,413.505299
2016,293,77.37481,70.94225,66.86731,61.73616667,83.92623958,101.7009167,0,0,0.07,,150.67103,48.97011333,16.47013,271.2651084328310,118.5330924,32.13793759,1032.847033
2016,299,66.66613,63.36838,60.27875,110.3363854,120.1195729,104.4192188,0.47,0.53,0.67,,172.5390669,68.11984809,38.33816,1469.8148660919200,121.0264747,51.5125922,2653.547156
2016,306,79.24325,68.25969,66.28719,122.4955208,139.0330729,162.7291563,0,0,0,,162.8492119,0.120055636,28.64831,820.7256466564040,174.5116862,-11.66247429,136.0133065
2016,312,69.56806,64.06869,61.64469,88.61923958,104.2009583,124.0638021,0.15,0.11,0,,161.2439028,37.18010067,27.04300,731.3238757745720,139.0456107,22.19829209,492.7641718
2016,314,69.41694,64.36419,61.38219,119.14375,141.4552917,147.7406667,0,0.02,0,,165.4223586,17.68169189,31.22146,974.7793343424090,160.7633858,4.658972758,21.70602716
2016,321,66.89244,59.51195,57.02857,98.03983333,118.6867396,145.1823438,0,0,0.01,,149.7603443,4.578000501,15.55944,242.0962362834060,158.4167457,-8.656401358,74.93328447
2016,326,71.92025,63.92675,62.60506,73.70888542,96.54938542,119.5690208,0,0,0,,156.5812324,37.01221156,22.38033,500.8791746796730,134.92274,21.65849231,469.0902891
2016,329,70.62763,62.93338,61.4345,101.4153333,127.3353021,146.0513438,0,0.01,0,,159.1705062,13.11916241,24.96960,623.4811207888740,159.2138422,-0.04333598,0.001878007
2016,331,75.85288,67.20406,66.6845,95.65139583,119.3876563,139.2548646,0,0,0,,167.6404345,28.38556988,33.43953,1118.2023141080300,152.9797225,14.66071195,214.9364748
2016,334,77.69563,68.15956,68.22481,64.10691667,94.2465625,116.8535417,0,0,0,,163.2749339,46.42139218,29.07403,845.2993139350760,132.4319472,30.84298666,951.2898262
2016,336,68.93881,63.53844,61.25506,63.48157292,79.23069792,68.11344792,0,0,0,,155.146486,87.03303804,20.94558,438.7174760274520,87.72474398,67.42174198,4545.691291
2016,346,66.872,60.9005,59.19088,76.439375,99.80135417,115.0201042,0.01,0,0.04,,158.812064,43.79195982,24.61116,605.7092827876860,130.7502134,28.0618506,787.4674592
2016,348,70.31394,63.00013,62.33,64.64435417,95.48884375,103.8778125,0,0,0,,161.7937201,57.9159076,27.59282,761.3635956861040,120.5298658,41.26385426,1702.705668
2016,351,51.15243,48.19361,45.39682,45.7443125,34.95077083,42.92044792,3.14,3.65,3.75,,-0.542783259,43.46323118,134.74369,18155.8607903008000,64.61628268,-65.15906594,4245.703874
2016,352,48.53739,44.84429,42.5988,61.37419792,110.7930417,117.7603438,0.02,0.02,0.1,,129.3547388,11.59439501,4.84616,23.4853003431088,133.263718,-3.908979192,15.28011833
2016,356,55.16441,51.13349,48.9158,66.47614583,92.37335417,99.64466667,0.01,0.01,0,,141.858187,42.21352034,7.65728,58.6340096437576,116.6469822,25.21120478,635.6048462
2016,358,40.19349,36.99202,34.78289,62.85186458,80.70960417,69.54225,0.33,0.52,0.72,,108.3427049,38.80045489,25.85820,668.6463716339170,89.03532302,19.30738188,372.7749949
2016,361,42.74291,38.88839,35.87926,70.97260417,79.54252083,62.19905208,0.01,0.01,0.05,,117.868293,55.66924091,16.33261,266.7541260720170,82.29972166,35.56857133,1265.123266
2016,363,53.97335,47.08059,46.75629,53.4246875,82.45645833,69.68760417,0,0,0,,134.2009023,64.5132981,0.00000,0.0000000000000,89.16865018,45.03225209,2027.903728
,,,,,,,67.35269055,,,,,87.02693379,29.05667345,,810956.3284356880000,,,108582.6182910900000
,,,,,,,,,,,,,,,,,,
,,,,,,,,,,,,,,,,,,
,,,,,,,,,,,,Average Error:,29.05667345,,,,,
,,,,,,,,,,,,Error Direction:,19.67424324,,,,,
,,,,,,,,,,,,Sum of Squared Errors:,810956.33,,,,,
,,,,,,,,,,,,Sum of Mean Squared,108582.62,,,,,
,,,,,,,,,,,,Root Mean Squared,8.270446737,,,,,
