Water_Year,Month,ARBRC_Temperature_F,TMC_Temperature_F,KFC_Temperature_F,ARBRC_Radiation_Wm2,TMC_Radiation_Wm2,KFC_Radiation_Wm2,ARBRC_Precipitation_in_corrected,TMC_Precipitation_in_corrected,KFC_Precipitation_in_corrected,,,,,,,,
2015,10,71.17044,64.28844,63.05319,35.38326042,48.36263542,36.703125,0.00000,0.00000,0.00000,,,,,,,,
2015,10,53.66300,51.35953,48.62508,35.71258333,57.67198958,52.77273958,0.18110,0.23622,0.16929,,,,,,,,
2015,10,52.41425,50.55088,47.01920,48.63890625,68.39940625,58.37383333,0.22835,0.22441,0.26772,,,,,,,,
2015,10,59.04163,53.73350,50.95123,54.80826042,77.41959375,75.47761458,0.00000,0.00394,0.01181,,,,,,,,
2015,10,59.10763,54.55441,52.71772,40.56227083,57.24613542,66.80326042,0.00000,0.00000,0.00787,,,,,,,,
2015,10,56.11644,52.86161,50.08336,35.31488542,41.98957292,39.63377083,0.00000,0.00394,0.03150,,,,,,,,
2015,10,55.47674,51.13558,48.89966,50.68403125,72.71760417,69.47322917,0.00000,0.00000,0.00394,,,,,,,,
2015,10,59.16144,54.33753,53.01485,50.039,72.232125,61.39482292,0.00000,0.00000,0.00000,,,,,,,,
2015,10,59.80231,53.18660,52.45186,6.052083333,29.94329167,25.21094792,0.00000,0.00000,0.00000,,,,,,,,
2015,10,66.37100,60.31933,58.94411,36.5946875,70.21822917,54.52229167,0.00000,0.00000,0.00000,,,,,,,,
2015,10,61.20650,56.38739,55.00378,35.03936458,68.09854167,49.981875,0.00000,0.00000,0.00000,,,,,,,,
2015,10,58.11969,51.58248,50.72356,24.28989583,65.20302083,47.47725,0.00000,0.00394,0.00000,,,,,,,,
2015,10,62.22950,54.92240,54.66609,22.0378125,65.42833333,48.29791667,0.00000,0.00000,0.00000,,,,,,,,
2015,10,63.05600,55.64921,54.99003,19.97572917,63.22875,44.79696875,0.00000,0.00000,0.00000,,,,,,,,
2015,10,63.61006,55.82765,56.67907,13.146875,59.1365625,39.35545833,0.00000,0.00000,0.00000,,,,,,,,
2015,10,66.52906,58.74631,59.16388,6.666770833,57.05484375,35.03191667,0.00000,0.00000,0.00000,,,,,,,,
2015,10,58.59444,54.09545,53.71775,10.33982292,38.24404167,29.27138542,0.13386,0.16142,0.13780,,,,,,,,
2015,10,56.43669,53.79982,51.87170,71.63086458,108.7974896,100.5727083,0.21654,0.26772,0.29921,,,,,,,,
2015,10,52.58525,49.99589,47.09351,36.8309375,62.54823958,55.33163542,0.00000,0.00394,0.02362,,,,,,,,
2015,10,48.61143,45.05249,43.38397,53.77815625,67.43820833,47.97215625,0.06693,0.07480,0.05512,,,,,,,,
2015,10,51.92000,47.36823,45.80846,1.210291667,22.26414583,15.961125,0.00000,0.00394,0.00000,,,,,,,,
2015,10,48.70721,44.36356,42.34621,33.19103125,60.2060625,26.63041667,0.07087,0.11811,0.00000,,,,,,,,
2015,10,46.07866,41.94343,39.63191,34.00209375,97.09290625,45.13160417,0.00394,0.01181,0.00000,,,,,,,,
2015,10,50.40179,45.14467,43.40368,23.74040625,63.22761458,33.55985417,0.00000,0.00000,0.00000,,,,,,,,
2015,10,53.35537,47.74882,47.55170,-10.67817708,10.51316667,5.9229375,0.00000,0.00000,0.00000,,,,,,,,
2015,10,52.00070,46.93661,46.22521,9.709479167,52.57046875,29.70739583,0.00000,0.00000,0.00000,,,,,,,,
2015,10,43.94904,39.22070,38.46391,-12.7465625,23.1521875,8.781739583,0.00000,0.00000,0.00000,,,,,,,,
2015,10,45.19550,41.03011,40.06923,4.055479167,26.03860417,21.34602083,0.00000,0.00000,0.00000,,,,,,,,
2015,10,42.59628,40.37394,37.66708,10.57601042,22.76348958,20.35791667,0.10236,0.13780,0.12205,,,,,,,,
2015,10,39.06026,36.49610,34.03927,54.18272917,92.19355208,95.20121875,0.00394,0.01575,0.02362,,,,,,,,
2015,10,49.61433,45.71456,42.65915,30.2444375,80.62597917,46.63551042,0.00000,0.00000,0.01575,,,,,,,,
2015,11,56.45919,52.52452,51.27044,9.22778125,38.37654167,36.31341667,0.00000,0.00000,0.00000,,,,,,,,
2015,11,56.82084,54.35054,51.12592,-1.35984375,15.45630208,13.0384375,0.00000,0.00000,0.00000,,,,,,,,
2015,11,47.73425,46.11356,41.74269,15.57598958,27.633875,22.86440625,0.00394,0.02362,0.08268,,,,,,,,
2015,11,35.02398,33.53551,30.38358,-1.955333333,8.055458333,9.501958333,0.01575,0.01969,0.01575,,,,,,,,
2015,11,32.07646,30.39406,27.08448,-2.02171875,11.64829167,-3.925,0.01969,0.03543,0.04724,,,,,,,,
2015,11,32.24422,29.78930,25.83967,13.07644792,14.24776042,3.220177083,0.06693,0.07480,0.16142,,,,,,,,
2015,11,33.53189,28.89091,25.70549,-8.774291667,62.60444792,15.92604167,0.00394,0.00000,0.01181,,,,,,,,
2015,11,40.71611,34.70943,34.05937,-18.95673958,26.40767708,-4.820239583,0.00000,0.00000,0.00000,,,,,,,,
2015,11,44.08344,39.04173,38.30819,17.03521875,44.58569792,30.36973958,0.05906,0.07874,0.07874,,,,,,,,
2015,11,31.93387,30.37492,28.07632,8.442875,4.948572917,-4.000010417,0.26378,0.32283,0.31496,,,,,,,,
2015,11,31.33814,28.36063,25.17436,19.80677083,2.343447917,-8.77371875,0.01969,0.02362,0.02362,,,,,,,,
2015,11,33.20259,28.96267,26.02344,-14.79080208,18.083125,-3.959552083,0.00394,0.00000,0.01181,,,,,,,,
2015,11,35.51664,30.49079,28.49465,-25.69997917,21.7928125,-21.41082292,0.00000,0.00000,0.00000,,,,,,,,
2015,11,39.61858,33.56013,33.22055,-29.3305625,21.02895833,-17.2186875,0.00000,0.00000,0.00000,,,,,,,,
2015,11,44.48831,39.47776,36.90693,-14.61729167,29.43413542,-2.794697917,0.00000,0.00000,0.00000,,,,,,,,
2015,11,34.02650,32.35141,29.18491,16.90509375,24.24211458,2.082864583,0.03150,0.07087,0.12205,,,,,,,,
2015,11,27.03485,25.35989,21.97659,18.75254167,34.8813125,-1.17246875,0.00787,0.00000,0.02362,,,,,,,,
2015,11,35.47441,32.57797,30.74600,-9.78315625,14.35045833,-4.33521875,0.00000,0.01181,0.00000,,,,,,,,
2015,11,39.79366,36.69054,33.88584,9.165802083,23.70546875,24.84452083,0.00000,0.00787,0.03150,,,,,,,,
2015,11,36.15269,33.64848,29.71231,-6.311989583,42.3310625,3.369729167,0.01181,0.03150,0.13780,,,,,,,,
2015,11,28.04696,23.49988,21.85940,-43.84895833,0.844802083,-35.9315625,0.00394,0.00000,0.01181,,,,,,,,
2015,11,31.23149,26.04828,27.15011,-40.5603125,4.263125,-28.39534375,0.00000,0.00000,0.00000,,,,,,,,
2015,11,36.66676,32.19856,35.70596,-22.26745833,11.39611458,-7.278958333,0.00000,0.00000,0.00000,,,,,,,,
2015,11,43.00126,38.49414,37.87522,-40.81484375,-23.78958333,-18.12763542,0.00000,0.00000,0.00000,,,,,,,,
2015,11,41.05387,39.34370,35.38019,-20.54775,-4.110333333,-3.165645833,0.09055,0.10630,0.18110,,,,,,,,
2015,11,23.37358,21.51986,17.92689,-7.401385417,41.39436458,-14.95603125,0.02756,0.02362,0.04331,,,,,,,,
2015,11,19.10849,18.04867,15.53728,-25.25275,-3.0489375,6.147666667,0.00000,0.00000,0.00787,,,,,,,,
2015,11,20.18388,17.78294,14.40052,14.39313542,22.25572917,-2.214947917,0.05512,0.07087,0.09843,,,,,,,,
2015,11,18.71491,16.54258,13.50136,-9.561510417,20.3841875,-1.5509375,0.01575,0.01575,0.01575,,,,,,,,
2015,11,20.09960,17.61643,14.67346,-0.571677083,38.95753125,12.82303125,0.01575,0.01181,0.03937,,,,,,,,
2015,12,22.39597,17.97202,15.88871,-45.34675,4.745,-3.400135417,0.00000,0.00000,0.00000,,,,,,,,
2015,12,26.56978,22.45306,22.71129,-36.73570833,-5.37578125,-23.62327083,0.00000,0.00000,0.00000,,,,,,,,
2015,12,34.30694,29.77906,31.88842,-22.76698958,8.314677083,-17.20876042,0.00000,0.00000,0.00000,,,,,,,,
2015,12,36.55441,34.42483,36.24170,-14.23989583,-1.552041667,-11.52273958,0.00000,0.00000,0.00000,,,,,,,,
2015,12,31.16124,26.94256,25.03946,-42.134375,3.91253125,-24.50239583,0.00000,0.00000,0.00000,,,,,,,,
2015,12,38.08252,32.19054,33.68068,-28.36779167,1.752875,-14.36448958,0.00000,0.00000,0.00000,,,,,,,,
2015,12,41.84876,37.37647,37.57436,-12.43171875,14.56660417,0.94378125,0.02756,0.06299,0.08661,,,,,,,,
2015,12,43.09529,37.75269,37.26069,-13.22578125,42.6616875,28.51876042,0.00394,0.00787,0.01575,,,,,,,,
2015,12,47.96356,42.86161,41.46434,-25.76132292,-8.2489375,-4.50925,0.00000,0.00000,0.00000,,,,,,,,
2015,12,42.35383,38.84482,37.56581,-2.522260417,13.0098125,-2.216125,0.16142,0.23622,0.38976,,,,,,,,
2015,12,29.10794,27.50683,24.69862,10.41269792,25.75305208,9.673708333,0.18898,0.18110,0.09843,,,,,,,,
2015,12,26.64669,24.15380,21.31106,20.13909375,12.87555208,17.49427083,0.00787,0.00000,0.03543,,,,,,,,
2015,12,31.67866,28.71667,26.70712,-17.2365,-15.21926042,4.620822917,0.03150,0.05118,0.05906,,,,,,,,
2015,12,26.20762,25.42267,22.90036,2.08878125,-6.963635417,-11.049125,1.10236,1.61811,1.27165,,,,,,,,
2015,12,22.71440,21.05293,18.48412,-9.344479167,-15.26813542,-20.46463542,0.09055,0.16535,0.18504,,,,,,,,
2015,12,21.50679,20.12746,18.196,8.72346875,-23.520625,0.1433125,0.19291,0.33071,0.32641,,,,,,,,
2015,12,21.29154,18.16537,16.234,-32.6354375,-14.76178125,0,0.00394,0.00394,0.00000,,,,,,,,
2015,12,35.44886,32.33433,30.403,-47.80297917,-6.338458333,-6.415416667,0.00000,0.00000,0.10880,,,,,,,,
2015,12,41.11598,38.14475,36.213,-56.12270833,-29.49790625,-18.6953125,0.00000,0.00000,0.00000,,,,,,,,
2015,12,32.25189,30.57009,28.639,-11.79009375,-7.24128125,-13.86189583,0.32283,0.48031,0.65283,,,,,,,,
2015,12,33.62152,31.97639,30.045,2.2323125,-6.486791667,0,0.00000,0.01181,0.43522,,,,,,,,
2015,12,30.70670,29.79650,27.865,-8.923270833,-16.17038542,0,0.81102,1.47638,1.30565,,,,,,,,
2015,12,25.22966,23.60613,21.675,-10.10227083,-25.90551042,0,0.08661,0.24016,0.32641,,,,,,,,
2015,12,23.73230,21.29504,19.363,-37.24208333,-10.5671875,31.1934375,0.13780,0.00000,0.10880,,,,,,,,
2015,12,19.99951,17.96833,16.037,-19.57239583,-10.48960417,0,0.06299,0.08661,0.00000,,,,,,,,
2015,12,11.65346,6.50750,4.576,-82.52854167,36.87977083,0,0.00000,0.00000,0.00000,,,,,,,,
2015,12,11.27999,5.66602,3.734,-69.00947917,41.23604167,0,0.00000,0.00000,0.00000,,,,,,,,
2015,12,14.25746,12.48266,10.551,-9.3926875,-9.764135417,-7.402552083,0.01575,0.01181,0.10880,,,,,,,,
2015,12,14.96096,13.22713,11.296,13.6088125,-15.70257292,-4.139583333,0.07087,0.06693,0.00000,,,,,,,,
2015,12,16.10660,13.40921,11.478,3.136645833,-8.56025,-21.74675,0.03543,0.03937,0.00000,,,,,,,,
2015,12,11.15859,6.79083,4.859,-52.271875,23.122625,9.575354167,0.00000,0.00000,0.00000,,,,,,,,
2016,1,18.23579,17.00763,15.076,-91.04302083,62.20546875,-20.80970833,0.00000,0.00000,0.10880,,,,,,,,
2016,1,19.66631,18.42466,16.493,-47.83589583,-6.158052083,-17.05194792,0.00000,0.00000,0.10880,,,,,,,,
2016,1,24.85361,26.27471,32.19489,-20.97398958,-8.719083333,-12.9125,0.00000,0.00000,0.00000,,,,,,,,
2016,1,33.61951,31.84387,32.96321,-21.76690625,-14.51952083,-12.05661458,0.00000,0.00000,0.00000,,,,,,,,
2016,1,36.11885,34.20388,33.66613,15.408625,13.54367708,2.696875,0.01969,0.03150,0.03150,,,,,,,,
2016,1,35.14715,33.24091,31.140,-2.027541667,-1.111895833,4.712614583,0.22047,0.24409,0.71991,,,,,,,,
2016,1,30.87796,29.76213,27.662,16.30625,33.40735417,2.153947917,0.12992,0.20866,0.00000,,,,,,,,
2016,1,28.20093,27.28783,25.187,-10.01219792,-2.725885417,0,0.09449,0.11024,0.08999,,,,,,,,
2016,1,26.90465,25.47725,23.377,-19.88364583,-10.57366667,0,0.00394,0.00394,0.00000,,,,,,,,
2016,1,22.08592,19.44907,17.349,-4.978979167,-3.029197917,0,0.01969,0.03543,0.00000,,,,,,,,
2016,1,17.13037,12.79914,10.699,-72.03614583,-8.30403125,0,0.00394,0.00000,0.00000,,,,,,,,
2016,1,20.13665,15.95203,13.851,-61.80210417,-1.826291667,0,0.00000,0.00000,0.00000,,,,,,,,
2016,1,23.71070,22.44965,20.349,-39.31064583,-0.960979167,0,0.00000,0.00000,0.08999,,,,,,,,
2016,1,27.13528,24.59280,22.492,-22.22079167,-15.26777083,0,0.06299,0.11417,0.17998,,,,,,,,
2016,1,27.83212,26.64978,24.549,-0.776427083,-5.277677083,0,0.25591,0.35827,0.53993,,,,,,,,
2016,1,29.64013,27.94715,25.847,-4.1435,-7.930802083,0,0.15748,0.22835,0.35996,,,,,,,,
2016,1,33.85942,30.79233,28.692,-30.73373958,-18.69333333,0,0.02756,0.04724,0.00000,,,,,,,,
2016,1,34.08562,32.26175,30.161,2.279166667,2.073427083,0,0.61417,0.71260,0.89989,,,,,,,,
2016,1,29.58296,27.79865,25.698,2.460739583,0.809302083,0,0.01575,0.06299,0.17998,,,,,,,,
2016,1,30.14083,28.09114,25.991,-20.92883333,-6.215276042,0,0.14567,0.32283,0.35996,,,,,,,,
2016,1,26.12263,21.17744,19.077,-64.23578125,-27.81813542,0,0.00000,0.00000,0.00000,,,,,,,,
2016,1,31.96308,28.13083,26.030,-44.32588542,-25.04691667,0,0.00000,0.00000,0.08999,,,,,,,,
2016,1,35.03499,32.27146,33.40524,-10.17972917,-4.4498125,0,0.35039,0.47244,0.53993,,,,,,,,
2016,1,29.52374,28.66066,26.65700,-10.65041667,-8.71375,0,0.20866,0.30709,0.35996,,,,,,,,
2016,1,25.06304,23.62925,21.59161,-26.21835417,-27.00109375,0,0.10236,0.07874,0.00000,,,,,,,,
2016,1,21.95699,18.40248,16.45627,-45.52871875,-0.559260417,0,0.00000,0.00000,0.00000,,,,,,,,
2016,1,23.15851,19.53541,19.95504,-62.34648958,-11.95207292,-18.40697917,0.00000,0.00000,0.00000,,,,,,,,
2016,1,28.10392,25.16531,26.69930,-46.45759375,-10.69686458,-10.08045833,0.00000,0.00000,0.01575,,,,,,,,
2016,1,36.24103,32.76084,32.93784,-3.598489583,4.258520833,4.2968125,0.04331,0.05906,0.10630,,,,,,,,
2016,1,30.01366,29.00199,26.14409,7.317677083,-3.750927083,-6.843229167,0.48819,0.61417,0.57480,,,,,,,,
2016,1,24.07226,22.04433,19.58587,19.49284375,-31.53758333,-11.92265625,0.04331,0.03937,0.06693,,,,,,,,
2016,2,21.26233,19.91720,16.13321,-12.90830208,-23.50840625,15.8700625,0.05512,0.07087,0.21654,,,,,,,,
2016,2,14.89844,11.61219,10.33325,-49.65120833,-27.23878125,10.3846875,0.00394,0.00000,0.03937,,,,,,,,
2016,2,18.53589,16.17680,12.46646,-33.46066667,-37.40494792,-11.67307292,0.00000,0.01575,0.07874,,,,,,,,
2016,2,21.60011,19.43600,18.21729,-1.99684375,-8.464822917,-7.399802083,0.03937,0.05118,0.07480,,,,,,,,
2016,2,26.12999,24.38529,22.283,-31.93619792,-6.852916667,-29.99820313,0.09449,0.10236,0.00000,,,,,,,,
2016,2,27.80416,24.05473,23.83511,-51.241875,-17.51802083,25.83780208,0.00000,0.00000,0.00000,,,,,,,,
2016,2,29.48484,26.45296,26.54941,-51.79822917,-19.21195833,-32.82582292,0.00000,0.00000,0.00000,,,,,,,,
2016,2,29.93148,26.78926,27.35193,-46.77154167,-17.31802083,-29.42083333,0.00000,0.00000,0.00000,,,,,,,,
2016,2,30.20893,27.14773,29.56357,-46.06320833,-15.59105208,-31.84396875,0.00000,0.00000,0.00000,,,,,,,,
2016,2,26.00248,25.94285,31.07669,-25.83065625,-14.86928125,-31.3234375,0.00000,0.00000,0.00000,,,,,,,,
2016,2,25.97698,26.66623,33.81673,-16.53301042,-7.942072917,-24.33203125,0.00000,0.00000,0.00000,,,,,,,,
2016,2,25.83072,26.91298,36.28388,-12.53284375,-5.86746875,-26.23951042,0.00000,0.00000,0.00000,,,,,,,,
2016,2,28.90132,28.67473,34.12213,-22.03815625,-12.33360417,-23.18533333,0.00000,0.00000,0.00000,,,,,,,,
2016,2,33.91524,31.84638,31.13251,-1.975104167,-3.710302083,-11.44839583,0.31102,0.39370,0.56693,,,,,,,,
2016,2,41.44642,37.90132,37.15475,32.72136458,34.96635417,25.55885417,0.03543,0.04724,0.09449,,,,,,,,
2016,2,42.05994,37.52748,37.07919,-4.652302083,4.579322917,-12.94911458,0.00000,0.00000,0.00787,,,,,,,,
2016,2,47.74916,41.28013,41.58695,8.927291667,5.7993125,2.893979167,0.00000,0.00000,0.00000,,,,,,,,
2016,2,40.16079,38.73815,34.63619,12.50814583,-4.06546875,5.731802083,0.27559,0.55512,0.63386,,,,,,,,
2016,2,38.18096,33.50188,31.61448,-21.40761458,-11.74246875,-3.027020833,0.00394,0.00000,0.02756,,,,,,,,
2016,2,38.11543,35.06889,33.50739,58.721875,10.06870833,-0.970458333,0.00000,0.00000,0.00000,,,,,,,,
2016,2,36.37839,32.89773,31.40422,35.20802083,-2.906833333,-15.53320833,0.00000,0.00000,0.00000,,,,,,,,
2016,2,33.14126,30.89184,28.26808,39.64897917,4.314427083,13.45721875,0.07874,0.08661,0.06299,,,,,,,,
2016,2,30.73882,27.57133,24.83911,40.70802083,-13.50777083,-12.35654167,0.00394,0.00000,0.01969,,,,,,,,
2016,2,33.89030,29.89807,27.86086,38.61235417,-3.551229167,-23.15998958,0.00000,0.00000,0.00394,,,,,,,,
2016,2,39.03033,33.72678,32.23505,42.68973958,5.816354167,-16.5926875,0.00000,0.00000,0.00000,,,,,,,,
2016,2,44.01847,37.18584,36.39031,42.35729167,12.00977083,-7.860427083,0.00000,0.00000,0.00000,,,,,,,,
2016,2,46.23052,40.12856,39.36028,42.23002083,17.11986458,-3.775239583,0.00000,0.00000,0.00000,,,,,,,,
2016,2,40.82278,35.68850,33.96442,49.24742708,16.65570833,0.976427083,0.00000,0.00000,0.00000,,,,,,,,
2016,2,40.38429,35.74781,34.50129,21.09077083,1.391729167,-2.82753125,0.00000,0.00000,0.00000,,,,,,,,
2016,3,44.60979,38.72103,36.91869,43.2459375,25.71621875,16.50801042,0.00000,0.00000,0.00000,,,,,,,,
2016,3,45.66253,39.93451,38.02334,58.12442708,20.47095833,2.194427083,0.00000,0.00000,0.00000,,,,,,,,
2016,3,49.32699,42.04220,39.80885,41.82371875,28.328375,15.17391667,0.00000,0.00000,0.00000,,,,,,,,
2016,3,51.34567,44.37234,42.04203,59.41036458,42.66277083,20.49511458,0.00000,0.00000,0.00000,,,,,,,,
2016,3,53.01388,47.13316,42.88024,6.321041667,13.06416667,8.080770833,0.00000,0.00000,0.00000,,,,,,,,
2016,3,45.32019,43.30004,38.73742,27.19365625,23.20928125,13.01720833,0.51969,0.85039,0.85433,,,,,,,,
2016,3,34.08574,31.98108,29.07428,35.62639583,-20.93167708,-17.52065625,0.27559,0.23622,0.27559,,,,,,,,
2016,3,36.88320,31.89351,28.75875,69.64791667,3.71109375,-14.49734375,0.00394,0.00000,0.01969,,,,,,,,
2016,3,38.95678,36.11830,32.08355,90.61230208,51.035,2.310479167,0.06693,0.12992,0.18898,,,,,,,,
2016,3,48.33993,42.20861,37.93762,69.21280208,35.97625,3.941416667,0.00000,0.00000,0.01181,,,,,,,,
2016,3,52.85066,47.73675,43.43968,9.77653125,18.35585417,-1.28778125,0.00000,0.00000,0.00000,,,,,,,,
2016,3,48.09294,42.47855,40.27981,60.34975,42.04689583,17.33061458,0.00000,0.00000,0.00000,,,,,,,,
2016,3,46.53290,42.71990,38.91804,46.57359375,57.86998958,36.77035417,0.00000,0.00000,0.00000,,,,,,,,
2016,3,37.11933,35.65694,31.74149,22.01171875,9.2784375,-1.788166667,0.27559,0.50000,0.68110,,,,,,,,
2016,3,30.58901,28.86644,25.51631,54.88628125,-11.69778125,-36.65173958,0.05906,0.10630,0.21654,,,,,,,,
2016,3,35.49361,33.36028,29.53181,115.7721771,44.4345625,-6.02109375,0.00000,0.00000,0.01575,,,,,,,,
2016,3,39.75626,36.69950,34.06267,72.88038542,65.89525,12.85555208,0.00000,0.00000,0.00000,,,,,,,,
2016,3,34.79435,31.92224,28.17952,88.49166667,80.95364583,-2.901739583,0.00000,0.00000,0.01575,,,,,,,,
2016,3,39.93271,35.42761,32.76026,80.2209375,71.6690625,8.59725,0.00000,0.00000,0.00000,,,,,,,,
2016,3,51.11499,45.88991,42.08358,84.55572917,83.21860417,36.17729167,0.00000,0.00000,0.00000,,,,,,,,
2016,3,56.43800,53.66294,46.56080,32.5814375,36.09364583,27.60313542,0.00000,0.00000,0.00000,,,,,,,,
2016,3,35.82350,34.49651,31.34536,0.184760417,-24.17273958,-29.92434375,0.54724,0.70472,0.74016,,,,,,,,
2016,3,33.76063,31.59061,27.92276,10.36696875,9.190135417,-20.83760417,0.05512,0.09843,0.11417,,,,,,,,
2016,3,40.34829,36.96279,32.82241,87.43426042,56.50627083,6.820979167,0.00000,0.00000,0.03543,,,,,,,,
2016,3,37.01210,35.09551,30.81866,69.24695833,66.86730208,0.410291667,0.00000,0.00394,0.00000,,,,,,,,
2016,3,35.14374,32.85909,29.55479,76.48121875,67.69483333,0.309229167,0.00787,0.00787,0.02362,,,,,,,,
2016,3,44.53430,41.20788,37.29442,81.78520833,84.2914375,30.73089583,0.00000,0.00000,0.00000,,,,,,,,
2016,3,35.03529,35.28178,34.12996,4.601625,17.15239583,5.83925,0.38976,0.42913,0.40945,,,,,,,,
2016,3,34.90388,33.33251,30.00078,82.84161458,14.56489583,-18.50886458,0.43307,0.45276,0.49606,,,,,,,,
2016,3,34.28720,32.34740,28.59648,35.57502083,52.12739583,22.52390625,0.03937,0.03543,0.05118,,,,,,,,
2016,3,37.72728,35.48439,32.61238,49.87564583,64.88504167,25.62385417,0.02756,0.02756,0.03937,,,,,,,,
2016,4,41.37643,37.44137,34.02092,113.9218229,108.1002604,28.04725,0.00394,0.00000,0.02362,,,,,,,,
2016,4,46.09775,41.27812,38.34466,114.2570729,106.5012813,54.86177083,0.00000,0.00000,0.00000,,,,,,,,
2016,4,51.94372,46.85034,43.10248,118.0707292,111.3188542,57.11816667,0.00000,0.00000,0.00000,,,,,,,,
2016,4,52.54708,47.64532,44.00414,50.77883333,57.52811458,36.389125,0.03543,0.05906,0.01181,,,,,,,,
2016,4,41.35278,38.55530,35.66388,104.3330208,81.29739583,50.63222917,0.00787,0.00394,0.02362,,,,,,,,
2016,4,45.51659,41.03066,38.11578,120.6524063,110.5902083,69.80895833,0.00000,0.00000,0.02362,,,,,,,,
2016,4,53.39296,48.04321,47.25579,121.8374583,113.21675,86.25520833,0.00000,0.00000,0.00000,,,,,,,,
2016,4,62.08419,58.58718,52.06001,93.2183125,78.82759375,73.94352083,0.00000,0.00000,0.00000,,,,,,,,
2016,4,55.08013,52.96846,47.80642,135.7046146,135.29325,117.1391458,0.00000,0.00000,0.00000,,,,,,,,
2016,4,52.75929,50.04896,45.86459,111.450625,101.2761146,99.98911458,0.00000,0.00000,0.00000,,,,,,,,
2016,4,52.15897,47.99229,44.64046,142.2528125,117.4051458,109.4353125,0.00000,0.00000,0.00000,,,,,,,,
2016,4,54.97162,50.35417,47.80355,113.48875,124.4307083,125.4967708,0.00000,0.00000,0.00000,,,,,,,,
2016,4,50.22024,47.79238,44.18448,88.04908333,90.21027083,61.44077083,0.26772,0.35433,0.44861,,,,,,,,
2016,4,41.70039,39.51088,36.04445,14.51578125,20.8426875,14.9390625,0.47953,0.57165,0.53833,,,,,,,,
2016,4,36.50341,34.15766,30.05836,90.78166667,95.42832292,22.46170833,0.14567,0.15748,0.08972,,,,,,,,
2016,4,41.73021,39.06239,36.45198,128.8159375,125.9542604,115.6744479,0.00000,0.00000,0.00000,,,,,,,,
2016,4,44.90324,43.12753,38.17658,141.5829167,131.5519792,128.4854792,0.00000,0.00000,0.00000,,,,,,,,
2016,4,44.89668,42.86101,38.76523,126.1659479,112.0953854,92.38213542,0.00000,0.00000,0.00000,,,,,,,,
2016,4,49.18053,46.15389,43.16171,155.7822188,139.5942708,135.6839583,0.00000,0.00000,0.00000,,,,,,,,
2016,4,55.78374,50.38859,48.40012,147.7144792,138.7033333,119.9067708,0.00000,0.00000,0.00000,,,,,,,,
2016,4,63.44150,56.68248,54.74405,146.2909479,132.1526146,124.3352604,0.00000,0.00000,0.00000,,,,,,,,
2016,4,64.37375,59.64344,57.62158,132.0994792,129.568625,108.4302813,0.00000,0.00000,0.00000,,,,,,,,
2016,4,46.84381,45.35564,41.23301,83.26445833,86.97602083,83.54003125,1.16142,1.45669,1.61500,,,,,,,,
2016,4,45.53681,43.53869,36.59819,159.1485313,147.6751354,42.0906875,0.25591,0.30709,0.44861,,,,,,,,
2016,4,45.57481,43.67690,38.01376,82.48659375,85.5623125,85.30103125,0.01969,0.07087,0.26917,,,,,,,,
2016,4,41.46243,39.47921,35.32108,33.61767708,41.68869792,49.86119792,0.48031,0.72047,1.34584,,,,,,,,
2016,4,44.39803,42.46816,36.69815,86.86863542,85.10166667,86.64286458,0.04331,0.08661,0.17944,,,,,,,,
2016,4,42.84575,41.83211,36.64006,107.8310521,100.6547917,116.66025,0.01181,0.00394,0.08972,,,,,,,,
2016,4,42.80913,41.03214,36.71981,103.3205208,89.07072917,84.17182292,0.00787,0.01969,0.08972,,,,,,,,
2016,4,46.97701,44.80567,40.44838,128.8343229,120.9422604,162.91125,0.00000,0.00000,0.00000,,,,,,,,
2016,5,47.65873,45.94319,40.72751,162.2448958,137.1707188,152.5962708,0.00000,0.00000,0.00000,,,,,,,,
2016,5,50.28449,46.72396,43.31383,140.0926667,104.1148958,79.09642708,0.00000,0.00000,0.00000,,,,,,,,
2016,5,54.20615,49.33940,47.51484,167.3582292,140.7557604,150.3952292,0.00000,0.00000,0.00000,,,,,,,,
2016,5,62.71625,56.61151,56.58877,167.7315,149.7933854,143.5725833,0.00000,0.00000,0.00787,,,,,,,,
2016,5,66.88681,62.11588,60.40381,85.73095833,82.59388542,64.73065625,0.00000,0.00000,0.00000,,,,,,,,
2016,5,56.09150,53.90079,50.51587,55.60311458,70.66141667,75.78185417,0.25197,0.21654,0.06299,,,,,,,,
2016,5,47.07031,43.69318,41.40721,40.26517708,49.75916667,45.52270833,0.15748,0.18504,0.09449,,,,,,,,
2016,5,44.78347,43.13662,40.20478,38.35633333,36.49604167,32.99141667,0.72441,0.93701,1.16142,,,,,,,,
2016,5,51.67453,49.96784,46.35926,138.4269375,142.4937813,120.8955521,0.26772,0.26378,0.44094,,,,,,,,
2016,5,42.79031,39.90721,36.41047,172.3475,125.7125938,125.8594063,0.00394,0.00000,0.01575,,,,,,,,
2016,5,44.14475,40.64300,37.94135,182.9272917,145.9235417,147.7227083,0.00000,0.00000,0.02362,,,,,,,,
2016,5,54.85220,49.17251,48.23720,180.39875,152.4252708,164.5210417,0.00000,0.00000,0.07480,,,,,,,,
2016,5,63.28288,56.36814,57.12354,176.5628438,151.2408333,159.6005208,0.00000,0.00000,0.06299,,,,,,,,
2016,5,65.90075,59.21285,60.61756,163.0914375,159.3218958,142.1392396,0.00000,0.00000,0.05906,,,,,,,,
2016,5,55.03250,51.90761,48.68234,81.84107292,66.10504167,60.046,0.20866,0.28740,0.08268,,,,,,,,
2016,5,50.22826,48.43949,45.31196,112.2171875,107.5338854,99.82914583,0.00394,0.01181,0.03543,,,,,,,,
2016,5,52.75119,49.99586,46.88339,154.1825,128.4029375,119.1729167,0.00394,0.00000,0.00394,,,,,,,,
2016,5,56.56203,50.89411,49.24400,167.3794792,135.1652083,114.5711563,0.00000,0.00394,0.07087,,,,,,,,
2016,5,58.45063,54.75965,53.94772,184.0528646,159.1154896,151.6322708,0.21260,0.22835,0.06299,,,,,,,,
2016,5,60.58288,56.99293,53.70129,85.18938542,94.95675,76.17228125,0.02362,0.01969,0.20472,,,,,,,,
2016,5,51.13267,48.42127,45.48095,120.3981667,98.72586458,109.6549583,0.36220,0.44882,0.39370,,,,,,,,
2016,5,45.29549,41.83747,38.94144,70.36213542,58.83822917,66.10213542,0.00000,0.01969,0.00000,,,,,,,,
2016,5,50.41436,45.91936,44.62614,168.9027083,142.1726146,144.51775,0.00394,0.00000,0.00787,,,,,,,,
2016,5,52.39344,48.38219,46.64090,121.6276458,121.005125,130.1444271,0.00394,0.02756,0.06693,,,,,,,,
2016,5,50.48223,48.01850,45.49241,124.4009167,114.3853125,137.7828333,0.00394,0.00394,0.00787,,,,,,,,
2016,5,50.99488,47.77121,43.70131,152.7783333,108.6264792,91.34316667,0.00000,0.00394,0.11811,,,,,,,,
2016,5,52.34718,48.89684,45.06710,137.7447917,109.7820208,108.3690417,0.01575,0.04331,0.00000,,,,,,,,
2016,5,55.19609,51.45268,49.03618,204.5515938,171.4978125,191.5914583,0.00000,0.00000,0.00000,,,,,,,,
2016,5,59.22050,55.08854,53.86873,153.0952396,143.748125,142.1300313,0.00000,0.00394,0.00000,,,,,,,,
2016,5,58.15411,54.57941,52.29328,222.0034271,203.1174792,201.7892188,0.03150,0.03150,0.13386,,,,,,,,
2016,5,56.63769,52.07953,50.39707,195.7327396,167.3598958,178.47125,0.00000,0.00000,0.00000,,,,,,,,
2016,6,60.27350,54.57200,53.73442,194.040625,172.7432292,180.9821875,0.00000,0.00000,0.00000,,,,,,,,
2016,6,65.07388,58.66978,58.92397,155.6025729,146.2864479,151.28,0.00000,0.00000,0.00000,,,,,,,,
2016,6,63.91569,58.61984,57.98544,192.0042396,170.0285417,185.1731354,0.00000,0.00000,0.00000,,,,,,,,
2016,6,68.28856,61.18719,61.37525,201.1635208,176.9435417,183.8259792,0.00000,0.00000,0.00000,,,,,,,,
2016,6,72.08938,63.23675,64.53463,197.2200938,182.2465625,187.389375,0.00000,0.00000,0.00000,,,,,,,,
2016,6,75.24500,68.31556,67.55938,137.6176563,142.9399063,126.9053229,0.00000,0.00000,0.00000,,,,,,,,
2016,6,69.85850,64.53125,63.15350,175.1490729,167.2145104,167.6494792,0.00000,0.00000,0.00000,,,,,,,,
2016,6,70.75438,63.72706,62.98231,193.3777188,177.1645521,180.3080938,0.00000,0.00000,0.01181,,,,,,,,
2016,6,72.83075,65.41756,64.65369,164.6783646,153.2430833,162.5600729,0.00000,0.00000,0.00000,,,,,,,,
2016,6,69.64813,62.38456,61.47031,85.27520833,96.47761458,93.17396875,0.00000,0.00000,0.00000,,,,,,,,
2016,6,60.00669,55.65926,53.77149,45.88144792,55.71697917,47.80033333,0.19764,0.24331,0.25197,,,,,,,,
2016,6,59.05831,56.28875,53.83535,201.8912188,212.0496979,192.8732813,0.01575,0.01969,0.01575,,,,,,,,
2016,6,54.89469,51.97509,49.49752,44.48652083,61.96883333,59.48920833,0.09843,0.12598,0.14567,,,,,,,,
2016,6,62.68063,57.44971,55.10225,161.0080208,187.4293125,169.5754792,0.00394,0.00394,0.02756,,,,,,,,
2016,6,71.00638,67.56969,63.40681,189.5769792,173.5417708,184.7863854,0.00000,0.00000,0.00000,,,,,,,,
2016,6,60.52269,57.15352,54.38806,192.9229583,173.3377083,182.7027396,0.00000,0.00000,0.00000,,,,,,,,
2016,6,67.45625,60.30708,59.46007,188.0480729,177.5501042,187.6685104,0.00000,0.00000,0.00000,,,,,,,,
2016,6,70.45944,63.34400,62.42319,161.4112292,170.7688438,165.9785729,0.00000,0.00000,0.00000,,,,,,,,
2016,6,66.50300,60.58076,59.42791,189.1931563,179.0203125,188.6454063,0.00000,0.00000,0.00000,,,,,,,,
2016,6,76.39625,66.55269,66.48556,184.1905521,185.4044792,193.4970208,0.00000,0.00000,0.00000,,,,,,,,
2016,6,74.54956,65.98588,65.51338,177.9208333,181.7323958,189.1270625,0.00000,0.00000,0.00000,,,,,,,,
2016,6,73.52788,65.72038,64.91544,177.5908646,181.7315625,190.3856979,0.00000,0.00000,0.00000,,,,,,,,
2016,6,75.22400,66.87500,65.60994,167.400375,171.2669375,189.7966875,0.00000,0.00000,0.00000,,,,,,,,
2016,6,70.10450,62.99694,61.31975,173.925,173.5869792,184.7898125,0.00000,0.00000,0.00000,,,,,,,,
2016,6,60.61456,55.40883,52.89438,175.8236667,169.4507292,179.2268646,0.00000,0.00000,0.00000,,,,,,,,
2016,6,67.86481,59.88112,58.38074,170.6765625,172.6335417,182.728875,0.00000,0.00000,0.00000,,,,,,,,
2016,6,77.77231,66.26263,65.47588,160.9889271,172.9401042,183.7119375,0.00000,0.00000,0.00000,,,,,,,,
2016,6,79.84025,71.31144,68.91294,162.2155208,184.5449271,184.4997917,0.00000,0.00000,0.00000,,,,,,,,
2016,6,75.50619,69.40531,65.82519,116.4019792,134.8407396,127.2069271,0.00000,0.00000,0.00000,,,,,,,,
2016,6,72.25400,66.53394,62.91069,121.7557604,115.6948333,116.30575,0.00000,0.00000,0.00000,,,,,,,,
2016,7,69.22081,63.90144,60.97250,149.3142708,163.7216667,151.8700208,0.00000,0.00000,0.00000,,,,,,,,
2016,7,70.31206,64.22075,61.46900,161.9186979,172.9113542,170.1731771,0.00000,0.00000,0.00000,,,,,,,,
2016,7,72.57088,66.32056,63.591,162.7613021,158.0193958,160.715625,0.00000,0.00000,0.00000,,,,,,,,
2016,7,74.60600,67.79600,65.067,137.2306354,160.5400521,158.4323229,0.00000,0.00000,0.00000,,,,,,,,
2016,7,72.96763,66.07794,63.349,162.3091667,162.391875,178.2400313,0.00000,0.00000,0.00000,,,,,,,,
2016,7,69.85606,63.25419,60.525,165.4760313,163.7440938,177.0258333,0.00000,0.00000,0.00000,,,,,,,,
2016,7,69.34194,62.58238,59.853,162.6336458,162.9041667,178.5873958,0.00000,0.00000,0.00000,,,,,,,,
2016,7,75.66594,67.97056,65.241,141.2858125,157.6742708,165.8091667,0.00000,0.00000,0.00000,,,,,,,,
2016,7,78.25138,72.61194,69.883,137.2067708,136.4458333,157.986875,0.00000,0.00000,0.00000,,,,,,,,
2016,7,70.47650,67.30625,64.5769,125.6765729,137.1121979,133.5600521,0.00000,0.00000,0.00000,,,,,,,,
2016,7,56.10568,51.35484,48.6254,161.1406563,149.9515625,171.8898854,0.00000,0.00000,0.00000,,,,,,,,
2016,7,65.70688,58.34165,55.6123,151.4965313,150.8538542,175.9015625,0.00000,0.00000,0.00000,,,,,,,,
2016,7,67.77556,60.71437,57.9850,152.6490521,150.7484375,179.0673958,0.00000,0.00000,0.00000,,,,,,,,
2016,7,72.13981,63.74131,61.05969,148.0166458,149.8920833,180.2916667,0.00000,0.00000,0.00000,,,,,,,,
2016,7,75.32563,66.48031,63.52700,116.32875,146.0185,150.486125,0.00000,0.00000,0.00000,,,,,,,,
2016,7,73.73300,66.45088,63.23956,150.3685833,154.6197708,192.4199167,0.00000,0.00000,0.00000,,,,,,,,
2016,7,75.76606,67.16619,63.47844,118.5193646,139.5280208,156.9937604,0.00000,0.00000,0.00000,,,,,,,,
2016,7,77.81769,70.51681,66.77544,130.4868542,131.223,143.280625,0.00000,0.00000,0.00000,,,,,,,,
2016,7,78.28775,71.34969,67.60606,149.1686146,151.6304896,187.8743646,0.00000,0.00000,0.00000,,,,,,,,
2016,7,79.03981,71.07875,67.36794,147.3756667,145.8214583,178.0609583,0.00000,0.00000,0.00000,,,,,,,,
2016,7,81.02038,72.10044,69.02966,142.9674271,150.465,185.8735417,0.00000,0.00000,0.00000,,,,,,,,
2016,7,79.93475,71.14044,67.76938,98.68554167,101.1577083,139.6909271,0.00000,0.00000,0.00000,,,,,,,,
2016,7,72.99106,65.16688,62.72225,135.6767708,138.784375,175.9503125,0.00000,0.00000,0.00000,,,,,,,,
2016,7,73.95388,65.32644,63.38469,133.5345417,138.1616667,177.4157292,0.00000,0.00000,0.00000,,,,,,,,
2016,7,79.04488,69.51050,67.65481,125.1481146,137.0285417,175.6022917,0.00000,0.00000,0.00000,,,,,,,,
2016,7,79.33981,69.80263,67.55431,102.1259063,105.6373125,151.4947396,0.00000,0.00000,0.00000,,,,,,,,
2016,7,78.40869,69.11394,67.92884,125.9726771,133.4866667,174.9034375,0.00000,0.00000,0.00000,,,,,,,,
2016,7,79.13525,69.91531,68.86644,119.9956979,128.2637813,166.6913854,0.00000,0.00000,0.00000,,,,,,,,
2016,7,79.25281,70.18119,69.02825,124.5679583,130.8375,170.7502083,0.00000,0.00000,0.00000,,,,,,,,
2016,7,78.03556,69.64306,68.22313,75.66469792,86.05682292,118.1058542,0.00000,0.00000,0.00000,,,,,,,,
2016,7,76.39663,69.47769,67.38613,133.3902604,136.2979688,164.3860208,0.00000,0.00000,0.00000,,,,,,,,
2016,8,77.25575,69.61831,67.71275,124.9095625,131.8240625,166.7620833,0.00000,0.00000,0.00000,,,,,,,,
2016,8,79.52881,71.38813,69.7198,121.0290625,139.5074271,95.433125,0.00000,0.00000,0.00000,,,,,,,,
2016,8,76.37150,69.19100,67.5226,125.5644792,127.4061458,135.4517708,0.00000,0.00000,0.00000,,,,,,,,
2016,8,70.80931,64.00081,62.79931,110.044625,116.6699375,155.2976771,0.00000,0.00000,0.00000,,,,,,,,
2016,8,71.60281,65.10575,63.27481,73.47136458,89.51295833,88.1466875,0.00000,0.00000,0.00000,,,,,,,,
2016,8,72.62863,66.02403,64.09203,86.72141667,94.27158333,120.1933854,0.00000,0.00000,0.00000,,,,,,,,
2016,8,75.34184,68.57628,66.17038,72.903125,94.40665625,102.6729896,0.00000,0.00000,0.00000,,,,,,,,
2016,8,75.34081,68.05794,66.26694,113.6238438,122.7900417,159.4840521,0.00000,0.00000,0.00000,,,,,,,,
2016,8,79.07544,74.96084,69.58963,107.42225,106.1758333,154.4538542,0.00000,0.00000,0.00000,,,,,,,,
2016,8,66.68206,61.21494,59.20175,66.2653125,79.59101042,90.6814375,0.17323,0.19291,0.12992,,,,,,,,
2016,8,66.96875,60.72313,58.06044,131.9798958,133.9972917,173.6531667,0.00394,0.00394,0.01181,,,,,,,,
2016,8,69.22888,61.26875,60.21744,118.9989688,114.4360417,151.2178125,0.00000,0.00000,0.00394,,,,,,,,
2016,8,71.03750,62.80288,61.40244,104.4393021,108.187875,143.920625,0.00000,0.00000,0.00000,,,,,,,,
2016,8,74.41756,65.41363,64.56359,104.4026458,111.1774375,148.5274479,0.00000,0.00000,0.00000,,,,,,,,
2016,8,74.85847,64.09953,64.42991,1.43521875,25.80139583,35.6394375,0.00000,0.00000,0.00000,,,,,,,,
2016,8,74.89981,66.57444,66.08919,98.54375,117.5502604,144.0952083,0.00000,0.00000,0.00000,,,,,,,,
2016,8,74.90244,66.36106,66.30350,74.318875,84.65247917,112.3289896,0.00000,0.00000,0.00000,,,,,,,,
2016,8,72.59863,63.92619,63.48556,60.66955208,63.47158333,89.48915625,0.00000,0.00000,0.00000,,,,,,,,
2016,8,71.34069,63.94700,63.40081,98.14440625,98.062,131.69375,0.00000,0.00000,0.00000,,,,,,,,
2016,8,70.34394,61.38313,60.09125,87.45983333,89.83322917,127.6504167,0.00000,0.00000,0.00000,,,,,,,,
2016,8,72.85456,64.76544,63.92413,94.51822917,103.7261458,136.5282292,0.00000,0.00000,0.00000,,,,,,,,
2016,8,71.85106,64.40319,63.98469,79.70947917,90.536875,123.0531979,0.00000,0.00000,0.00000,,,,,,,,
2016,8,68.70144,61.89519,61.17969,79.88757292,84.72208333,115.3877083,0.00000,0.00000,0.00000,,,,,,,,
2016,8,64.10225,57.24393,56.04451,94.52177083,101.9940313,123.3413542,0.00000,0.00000,0.00000,,,,,,,,
2016,8,64.53875,57.16756,56.09909,36.68553125,45.97596875,60.97401042,0.00000,0.00000,0.00000,,,,,,,,
2016,8,64.93869,58.20661,56.96180,75.4973125,75.58364583,94.87645833,0.00000,0.00000,0.00000,,,,,,,,
2016,8,66.48856,59.46264,58.37769,89.95926042,95.48447917,123.9626042,0.00000,0.00000,0.00000,,,,,,,,
2016,8,69.25381,61.88375,61.43206,87.43688542,92.35188542,122.3382292,0.00000,0.00000,0.00000,,,,,,,,
2016,8,73.18025,65.02475,65.48431,85.68114583,93.264375,122.3551042,0.00000,0.00000,0.00000,,,,,,,,
2016,8,77.03544,67.39588,67.84138,79.06323958,92.376875,122.5654792,0.00000,0.00000,0.00000,,,,,,,,
2016,8,76.52863,67.92856,68.31144,79.160375,99.43967708,119.5566667,0.00000,0.00000,0.00000,,,,,,,,
2016,9,74.06169,67.64675,66.15125,68.95925,88.29066667,93.82532292,0.00000,0.00394,0.00000,,,,,,,,
2016,9,72.95281,67.67319,65.55650,92.9706875,102.3334688,125.9473646,0.00000,0.00394,0.01575,,,,,,,,
2016,9,68.71475,63.85775,63.58250,75.62208333,80.257875,100.3173438,0.00000,0.00000,0.00000,,,,,,,,
2016,9,62.93188,58.41313,57.12969,42.08155208,63.17191667,75.20725,0.00394,0.01181,0.00787,,,,,,,,
2016,9,56.03675,51.78613,49.51561,91.63738542,100.8955313,123.8552396,0.00394,0.00000,0.01181,,,,,,,,
2016,9,59.79106,53.94071,53.21684,81.888625,92.081875,115.023125,0.00000,0.00000,0.00000,,,,,,,,
2016,9,62.29869,55.97848,55.07356,78.33041667,87.739375,114.421875,0.00000,0.00000,0.00000,,,,,,,,
2016,9,62.77250,56.37905,55.69336,77.36260417,85.01177083,113.7334375,0.00000,0.00000,0.00000,,,,,,,,
2016,9,59.82556,53.02957,51.85076,70.10727083,77.98969792,107.7047917,0.00000,0.00000,0.00000,,,,,,,,
2016,9,61.27963,53.39990,53.63174,62.35417708,77.493875,101.6026042,0.00000,0.00000,0.00000,,,,,,,,
2016,9,70.98463,63.72084,63.65581,66.38854167,84.501125,106.4045938,0.00000,0.00000,0.00000,,,,,,,,
2016,9,69.28025,64.35256,61.87325,74.85142708,81.63208333,98.43026042,0.00000,0.00787,0.00000,,,,,,,,
2016,9,59.86513,57.00011,53.42266,88.79713542,113.2984583,135.4248125,0.20866,0.20866,0.25984,,,,,,,,
2016,9,53.54806,50.54234,47.47424,75.37038542,95.6285625,75.62197917,0.15354,0.16535,0.14961,,,,,,,,
2016,9,51.46394,48.05236,45.26180,62.83254167,68.59070833,54.39315625,0.00394,0.00394,0.00394,,,,,,,,
2016,9,54.27221,49.49776,48.32649,75.33239583,82.05354167,99.2734375,0.00000,0.00000,0.00787,,,,,,,,
2016,9,58.22951,52.59954,50.88800,69.52815625,82.08460417,88.05990625,0.00000,0.00000,0.00000,,,,,,,,
2016,9,65.72094,57.61409,57.72496,60.13927083,78.37432292,82.88916667,0.00000,0.00000,0.00000,,,,,,,,
2016,9,70.12531,61.44275,61.52319,51.68769792,74.00010417,78.0209375,0.00000,0.00000,0.00000,,,,,,,,
2016,9,69.15744,60.89000,61.97656,42.306,67.18732292,67.92458333,0.00000,0.00394,0.00000,,,,,,,,
2016,9,65.53063,61.29671,59.70391,60.43740625,86.30013542,84.15667708,0.00000,0.00394,0.00000,,,,,,,,
2016,9,56.73365,55.28206,52.92256,77.63872917,92.53151042,88.31179167,0.92520,1.12992,1.05512,,,,,,,,
2016,9,42.80604,41.41154,38.04328,16.25695833,18.76898958,19.23866667,0.64173,0.67717,0.78346,,,,,,,,
2016,9,45.88151,43.49364,39.56842,28.72723958,32.37095833,51.43063542,0.62205,0.74803,1.07874,,,,,,,,
2016,9,50.71910,46.29616,44.58474,66.981875,74.42135417,80.0921875,0.00000,0.00000,0.01969,,,,,,,,
2016,9,55.22094,50.48585,49.94829,63.44745833,74.6846875,73.26322917,0.00000,0.00000,0.00000,,,,,,,,
2016,9,59.33731,54.10111,53.25643,58.93940625,75.13177083,69.34041667,0.00000,0.00000,0.00000,,,,,,,,
2016,9,63.53675,58.18794,57.26225,72.4046875,96.57007292,74.94851042,0.03150,0.05906,0.00000,,,,,,,,
2016,9,62.75863,56.85819,55.88338,73.48610417,79.51828125,63.55741667,0.00394,0.00000,0.01969,,,,,,,,
2016,9,62.55631,57.39256,56.09825,63.87664583,78.43122917,67.711875,0.00000,0.00000,0.00394,,,,,,,,
2016,10,63.92638,59.04181,57.37138,68.61510417,93.64610417,74.67542708,0.00000,0.00787,0.00000,,,,,,,,
2016,10,63.80075,59.91406,57.45871,69.04053125,83.2095,66.55617708,0.09449,0.09843,0.07874,,,,,,,,
2016,10,46.37662,43.84117,38.22176,-15.56119792,11.13667708,20.50464583,0.03543,0.10630,0.40551,,,,,,,,
2016,10,42.50036,39.16449,35.38319,52.45420833,90.50603125,68.01502083,0.00394,0.00394,0.01969,,,,,,,,
2016,10,40.37019,36.97151,33.69984,7.453770833,42.02619792,25.77535417,0.12205,0.16535,0.27165,,,,,,,,
2016,10,40.94028,36.10796,32.87480,34.79570833,52.0361875,62.71704167,0.00000,0.00787,0.03937,,,,,,,,
2016,10,47.55766,41.62331,39.13679,38.0503125,68.20416667,61.43760417,0.00000,0.00000,0.00000,,,,,,,,
2016,10,52.10126,45.86617,45.17293,16.5284375,47.54097917,40.34260417,0.00000,0.00000,0.00000,,,,,,,,
2016,10,57.41563,50.26593,50.01905,33.16010417,68.8596875,57.00052083,0.00000,0.00000,0.00000,,,,,,,,
2016,10,60.03584,53.77589,54.15444,35.60189583,66.35939583,51.30195833,0.00000,0.00000,0.00000,,,,,,,,
2016,10,56.66238,51.98101,50.05861,-2.434114583,15.84947917,8.419739583,0.00000,0.00000,0.00000,,,,,,,,
2016,10,49.56052,44.82959,44.06936,11.45197917,43.83626042,41.21864583,0.00000,0.00000,0.00000,,,,,,,,
2016,10,56.90806,51.11776,51.99836,30.20403125,64.37479167,49.64173958,0.00000,0.00000,0.00000,,,,,,,,
2016,10,67.587,63.25981,59.26794,-27.93329167,-14.0439375,-10.85529167,0.00000,0.00000,0.00000,,,,,,,,
2016,10,63.904,59.57731,56.60574,25.24725,41.60919792,32.56425,0.00000,0.00000,0.00000,,,,,,,,
2016,10,57.232,52.90445,50.09336,6.20596875,18.57466667,16.87366667,0.00000,0.03937,0.00000,,,,,,,,
2016,10,45.782,41.45534,38.12864,31.2646875,37.03008333,21.50184375,0.34252,0.37795,0.55512,,,,,,,,
2016,10,43.044,38.71672,36.29002,-2.211822917,15.77747917,21.37589583,0.00000,0.00000,0.00787,,,,,,,,
2016,10,41.112,36.78506,33.59799,35.30354167,67.83798958,25.66990625,0.12205,0.08661,0.09843,,,,,,,,
2016,10,42.095,37.76773,36.52668,10.47614583,44.43822917,22.09197917,0.00000,0.00000,0.00394,,,,,,,,
2016,10,49.597,45.26943,46.86395,12.2125625,54.73052083,32.2128125,0.00000,0.00000,0.00000,,,,,,,,
2016,10,56.077,51.75018,52.92178,13.60828125,53.2896875,27.96942708,0.00000,0.00000,0.00000,,,,,,,,
2016,10,60.791,56.46431,55.56104,-5.8143125,22.97698958,8.698989583,0.00000,0.00000,0.00000,,,,,,,,
2016,10,58.052,53.72478,49.83136,-12.37963542,0.733291667,15.15786458,0.02756,0.09055,0.22835,,,,,,,,
2016,10,56.245,51.91814,47.97616,34.58940625,65.28541667,11.355125,0.00394,0.00000,0.00394,,,,,,,,
2016,10,53.446,49.11922,48.20424,3.03171875,44.74734375,20.58104167,0.00000,0.00394,0.00394,,,,,,,,
2016,10,62.50569,57.74653,56.44933,3.109166667,35.96339583,17.30183333,0.00000,0.00000,0.00000,,,,,,,,
2016,10,61.21569,59.37650,55.64431,18.30169792,38.13851042,45.51907292,0.12992,0.18504,0.20472,,,,,,,,
2016,10,57.56956,54.70194,51.33103,23.60384375,52.19297917,43.65373958,0.00394,0.00000,0.00787,,,,,,,,
2016,10,63.68863,62.24525,57.42800,-19.460125,-11.2975625,-2.951614583,0.00000,0.00787,0.01181,,,,,,,,
2016,10,45.20987,42.02454,38.46245,32.95538021,77.18669792,52.26945833,0.48819,0.57480,0.71654,,,,,,,,
2016,11,42.63506,38.64076,37.59089,-5.753791667,11.07844792,26.81463542,0.03543,0.04724,0.05118,,,,,,,,
2016,11,40.97417,36.54731,35.15341,-10.52447917,31.19397917,39.18515625,0.00000,0.00394,0.01575,,,,,,,,
2016,11,44.17129,38.80985,40.57616,-12.52015625,31.05239583,5.803020833,0.00000,0.00000,0.00000,,,,,,,,
2016,11,48.46829,43.25681,44.91433,-9.767416667,29.9196875,9.867479167,0.00000,0.00000,0.00000,,,,,,,,
2016,11,48.63283,43.06499,43.36792,-11.63994792,35.15917708,5.684895833,0.00000,0.00000,0.00000,,,,,,,,
2016,11,50.80732,45.27148,44.65143,-8.488052083,34.97433333,6.386927083,0.00000,0.00000,0.00000,,,,,,,,
2016,11,50.07974,44.21576,43.67373,-14.54234375,32.10385417,2.251458333,0.00000,0.00000,0.00000,,,,,,,,
2016,11,51.94051,45.08961,45.09301,-16.60554167,31.6625,2.763510417,0.00000,0.00000,0.00000,,,,,,,,
2016,11,51.80898,45.46828,45.12164,-19.13697917,30.74416667,1.509479167,0.00000,0.00000,0.00000,,,,,,,,
2016,11,50.19134,44.07046,45.83587,-18.70635417,28.59885417,0.9665625,0.00000,0.00000,0.00000,,,,,,,,
2016,11,53.28163,45.30766,44.71582,-22.75375,27.68427083,-2.1925,0.00000,0.00000,0.00000,,,,,,,,
2016,11,51.33487,45.56578,45.59371,-18.08005208,24.79280208,3.8675,0.00000,0.00000,0.00000,,,,,,,,
2016,11,48.37511,42.63804,41.75231,-19.76117708,27.86697917,-3.8378125,0.00000,0.00000,0.00000,,,,,,,,
2016,11,51.30973,44.41244,44.00705,-27.143125,23.70875,-6.9598125,0.00000,0.00000,0.00000,,,,,,,,
2016,11,57.84031,51.26527,50.24066,-40.14582292,15.51154167,-14.111875,0.00000,0.00000,0.00000,,,,,,,,
2016,11,45.56285,42.68836,42.28085,-11.208625,6.624052083,-8.511625,0.06299,0.07874,0.05512,,,,,,,,
2016,11,29.05869,27.19989,23.84780,0.877729167,-26.42364583,19.17175,0.11811,0.14173,0.12598,,,,,,,,
2016,11,30.63164,25.57365,22.91182,-25.9460625,2.091052083,10.00072917,0.00000,0.00394,0.01575,,,,,,,,
2016,11,46.17464,43.11749,41.97152,-16.86844792,21.31219792,-10.51454167,0.00000,0.00000,0.00000,,,,,,,,
2016,11,53.50141,50.73142,47.71657,-14.9695625,-1.397989583,3.188885417,0.01181,0.01575,0.04724,,,,,,,,
2016,11,41.86985,39.98337,36.81597,15.2428125,23.17575,16.7703125,1.02756,1.13386,1.00394,,,,,,,,
2016,11,34.53192,32.31915,29.31206,22.71558854,47.64088542,-32.78247917,0.01969,0.02756,0.08268,,,,,,,,
2016,11,36.56577,33.67445,30.02264,10.11791667,28.70584375,0.396927083,0.44094,0.82283,0.88976,,,,,,,,
2016,11,29.32769,25.63693,24.20323,-37.97208333,-3.252260417,-16.08748958,0.05906,0.02362,0.01575,,,,,,,,
2016,11,35.73373,29.34468,28.62311,-56.19932292,-19.19989583,-43.66001042,0.00000,0.00000,0.00000,,,,,,,,
2016,11,43.43399,38.91170,36.30920,-20.63228125,-14.83523958,-27.76451042,0.00000,0.00000,0.00000,,,,,,,,
2016,11,34.10223,32.37993,29.09542,7.647416667,-6.50796875,-8.775260417,0.13780,0.34646,0.79134,,,,,,,,
2016,11,28.12894,26.63288,23.89864,-0.1634375,-1.552567708,-0.005708333,0.77559,1.35039,1.62205,,,,,,,,
2016,11,23.90958,20.61637,17.99630,-35.17142708,-6.722510417,5.49796875,0.00394,0.00394,0.01181,,,,,,,,
2016,11,24.39111,20.70768,19.72046,-30.36078125,-13.69569271,7.182572917,0.00000,0.00000,0.00000,,,,,,,,
2016,12,26.32136,23.89351,21.29643,-4.954260417,-10.54945833,-3.285520833,0.01969,0.02756,0.02756,,,,,,,,
2016,12,22.30918,17.52065,16.73799,-72.43125,11.926625,41.47296875,0.00000,0.00394,0.01969,,,,,,,,
2016,12,25.36831,22.40049,19.96109,-9.52240625,2.682979167,2.682260417,0.00000,0.00000,0.00000,,,,,,,,
2016,12,32.19039,28.40879,27.60856,-21.70742708,14.4398125,2.06546875,0.00000,0.00000,0.00000,,,,,,,,
2016,12,26.19073,23.99242,19.43536,-47.70307292,-12.30761458,-20.5300625,0.02756,0.03937,0.05906,,,,,,,,
2016,12,19.43379,15.01715,14.13446,-31.73201042,-5.44021875,-2.429239583,0.01575,0.02756,0.05118,,,,,,,,
2016,12,15.96183,12.20503,10.28244,-33.01851042,3.699458333,7.281947917,0.01575,0.03937,0.04724,,,,,,,,
2016,12,22.10066,19.39406,19.24162,-6.867479167,3.410239583,1.974229167,0.00000,0.00394,0.05118,,,,,,,,
2016,12,38.30159,34.94246,33.66296,3.666197917,9.246864583,-2.621458333,0.01969,0.03150,0.10630,,,,,,,,
2016,12,38.55230,35.63939,33.87871,8.942125,9.264302083,1.439375,0.78346,1.09055,1.46850,,,,,,,,
2016,12,31.18644,29.55611,26.45041,-41.9061875,-22.89505208,-7.099927083,0.14961,0.13386,0.11811,,,,,,,,
2016,12,28.30887,25.02245,22.16021,-66.62046875,-20.6855,15.858625,0.00394,0.00787,0.01575,,,,,,,,
2016,12,28.11847,24.92981,22.38266,-22.49313542,-13.4349375,-11.38633333,0.00000,0.00000,0.00000,,,,,,,,
2016,12,34.37024,32.07701,30.97025,8.9014375,8.536854167,-1.518989583,0.05512,0.07087,0.19685,,,,,,,,
2016,12,47.67808,43.67135,40.91279,0.41046875,10.73548958,4.797572917,0.00787,0.00000,0.00787,,,,,,,,
2016,12,37.15229,35.75861,31.90207,-4.71034375,12.10403125,7.95871875,0.35039,0.72047,1.42126,,,,,,,,
2016,12,14.22674,12.57575,9.52957,-24.20222917,-17.63742708,-2.524822917,0.02362,0.05512,0.07087,,,,,,,,
2016,12,10.04696,6.58724,5.62606,-70.7790625,-21.59203125,13.10863542,0.00787,0.00394,0.01575,,,,,,,,
2016,12,16.09858,13.22237,15.18136,-47.45310417,-21.03047917,15.99467708,0.02756,0.00394,0.00394,,,,,,,,
2016,12,26.99628,26.94037,30.98409,-19.08778125,2.643479167,3.93596875,0.00394,0.00000,0.00000,,,,,,,,
2016,12,28.98271,27.77418,27.53913,4.486135417,5.477854167,6.02078125,0.03150,0.02362,0.00000,,,,,,,,
2016,12,25.56734,24.64619,26.03894,13.13201042,24.85658333,21.09890625,0.00000,0.00394,0.00394,,,,,,,,
2016,12,31.12329,29.21544,28.56089,-14.88027083,23.22473958,2.47871875,0.02362,0.04331,0.05906,,,,,,,,
2016,12,36.51425,35.18308,32.92859,19.03465625,18.84355208,11.81683333,0.25984,0.24803,0.21654,,,,,,,,
2016,12,19.94077,18.44060,16.33312,4.236802083,-10.61459375,-11.0713125,0.57874,1.07087,0.96457,,,,,,,,
2016,12,14.34828,11.24692,10.84870,17.64285417,2.9324375,0.716833333,0.01969,0.02362,0.01575,,,,,,,,
2016,12,19.64778,17.17640,19.83646,16.38114583,-9.834833333,-10.72082292,0.00000,0.00394,0.00000,,,,,,,,
2016,12,26.65754,24.75508,24.84808,-44.46473958,-15.23838542,-8.6984375,0.01575,0.00000,0.00000,,,,,,,,
2016,12,24.52726,20.17552,23.13787,-68.70875,-13.37596875,24.28260417,0.00394,0.00000,0.00000,,,,,,,,
2016,12,24.83598,24.05971,29.58736,-59.64853125,-24.34145833,-8.851229167,0.00000,0.00000,0.00000,,,,,,,,
2016,12,15.68988,15.50324,20.92316,-12.06827083,-12.446,-37.88447917,0.00394,0.00000,0.00000,,,,,,,,
2017,1,18.95111,19.89136,25.47061,-16.78603125,7.704677083,-29.99870833,0.00394,0.00394,0.00787,,,,,,,,
2017,1,21.90828,20.59173,19.31288,1.202,-13.50742708,-7.863192708,0.53150,0.65748,0.65354,,,,,,,,
2017,1,25.89603,24.80801,22.53166,-21.64811458,-20.69790625,-16.18277083,0.04724,0.04724,0.05512,,,,,,,,
2017,1,34.06010,33.15371,29.95897,-0.299708333,1.07934375,-1.250333333,0.28346,0.46063,0.75984,,,,,,,,
2017,1,12.12224,10.50995,9.57954,-19.28777083,-25.6700625,-15.84058333,0.16142,0.18110,0.16929,,,,,,,,
2017,1,4.78494,0.33969,1.31900,-44.82033333,-24.94357292,13.65382292,0.00000,0.00394,0.02362,,,,,,,,
2017,1,15.55391,14.93189,21.24575,14.04444792,-20.1083125,-9.625135417,0.01969,0.02756,0.01575,,,,,,,,
2017,1,36.94319,36.24787,35.41687,12.9210625,9.793166667,7.293572917,0.11024,0.18110,0.41339,,,,,,,,
2017,1,41.86042,40.35639,36.34702,6.128958333,7.488375,8.323260417,0.13780,0.18110,0.33071,,,,,,,,
2017,1,37.87961,36.49505,32.48838,-6.8594375,0.403885417,3.121541667,0.00000,0.00000,0.04724,,,,,,,,
2017,1,35.44595,33.75596,30.82544,2.140864583,-7.539739583,-5.264645833,0.33858,0.55118,0.79921,,,,,,,,
2017,1,29.80514,28.97360,27.34597,5.594708333,-6.190614583,-13.47967708,0.05512,0.07087,0.11417,,,,,,,,
2017,1,28.72610,28.96306,28.18286,5.04996875,15.60269792,-2.24565625,0.00394,0.00000,0.00394,,,,,,,,
2017,1,26.38063,24.72354,24.82989,-10.60497917,2.61575,-30.68486458,0.00000,0.00000,0.01575,,,,,,,,
2017,1,22.04645,19.73864,18.72487,-12.79909375,-12.3739375,-23.13603125,0.00394,0.00787,0.00787,,,,,,,,
2017,1,18.65932,17.45300,12.45592,-29.09106771,-12.80764583,-17.25783333,0.00000,0.00000,0.01181,,,,,,,,
2017,1,18.66793,15.82762,15.70668,-58.11083333,-6.522427083,-18.95041667,0.00000,0.00394,0.00000,,,,,,,,
2017,1,23.33158,21.24515,24.50126,-49.61869792,-15.07182292,-30.15583333,0.00000,0.00000,0.00000,,,,,,,,
2017,1,31.57149,31.12946,29.07629,-10.2306875,-12.10264583,-9.254208333,0.33858,0.46063,0.48425,,,,,,,,
2017,1,29.84879,28.16951,25.65245,-0.91046875,-7.522510417,-1.51509375,0.01181,0.00787,0.03543,,,,,,,,
2017,1,29.31313,27.72196,25.23097,-6.775854167,-12.30203125,-3.995677083,0.66142,0.94094,0.87008,,,,,,,,
2017,1,29.06765,25.78963,24.32677,-21.57108333,-6.083822917,11.43994792,0.05906,0.09055,0.24016,,,,,,,,
2017,1,32.85031,31.60502,28.15091,-6.330145833,-0.047328125,-0.869989583,0.19685,0.42520,0.75984,,,,,,,,
2017,1,23.94815,21.88754,19.01585,-5.706552083,-12.02822917,-4.6493125,0.05118,0.09449,0.12598,,,,,,,,
2017,1,20.77055,19.49555,16.25714,-0.2401875,-28.78471875,-18.65879167,0.16929,0.26772,0.29528,,,,,,,,
2017,1,19.94579,17.93349,14.50651,-14.79991667,-32.82736458,-16.55973958,0.11024,0.11417,0.27559,,,,,,,,
2017,1,13.89438,9.28070,8.11394,-71.22354167,-27.06603125,9.1726875,0.00000,0.00000,0.01969,,,,,,,,
2017,1,14.90653,11.01352,10.46056,-53.978125,-9.365114583,7.127791667,0.00000,0.00000,0.00000,,,,,,,,
2017,1,16.88488,14.46485,19.48224,-49.86145833,17.83273958,-13.03885417,0.00000,0.00000,0.00000,,,,,,,,
2017,1,17.90585,17.79327,26.22122,-25.0563125,14.66447396,-32.85835417,0.00000,0.00000,0.00000,,,,,,,,
2017,1,22.23519,23.43431,31.66186,-0.353979167,2.035083333,-12.0959375,0.00000,0.00000,0.00000,,,,,,,,
2017,2,35.35801,33.80248,35.04472,-27.82778125,-10.50996875,-18.80276042,0.00000,0.00000,0.00000,,,,,,,,
2017,2,35.35751,32.40028,31.66402,-2.468697917,3.030541667,-3.613375,0.02756,0.05118,0.17323,,,,,,,,
2017,2,40.29275,37.17933,35.14914,-4.62290625,28.78598958,9.7565,0.00000,0.00000,0.01181,,,,,,,,
2017,2,42.03052,39.19763,37.26364,-7.759177083,7.173083333,-9.734927083,0.00787,0.01969,0.02756,,,,,,,,
2017,2,41.92983,38.16541,37.81807,-13.75476042,0.975729167,-13.60628125,0.00394,0.00000,0.00394,,,,,,,,
2017,2,44.74692,43.33108,38.92606,-0.387359375,-0.241395833,-3.2745625,0.00000,0.00000,0.00787,,,,,,,,
2017,2,44.82934,43.27427,38.49703,2.328833333,3.82140625,7.999864583,0.00000,0.01575,0.22441,,,,,,,,
2017,2,46.42127,43.06642,40.24164,34.06858333,20.77,7.605052083,0.00394,0.00000,0.01969,,,,,,,,
2017,2,53.49560,47.46350,44.36851,18.26691667,32.18886458,31.08865625,0.00000,0.00394,0.01181,,,,,,,,
2017,2,48.74287,46.55113,40.89016,-5.35771875,21.04302083,15.94347917,0.43701,0.52362,0.74016,,,,,,,,
2017,2,34.90021,32.67106,30.56347,20.08872917,-20.30723958,-23.70482292,0.38583,0.40157,0.41732,,,,,,,,
2017,2,30.84262,28.72402,25.23305,9.3171875,-25.50611458,-46.66192708,0.00394,0.00787,0.01181,,,,,,,,
2017,2,28.28291,25.38237,25.30781,6.734052083,-20.25670833,-38.38039583,0.00000,0.00000,0.00000,,,,,,,,
2017,2,32.51617,28.71440,28.49328,15.23802083,-7.01875,-29.033125,0.00000,0.00000,0.00000,,,,,,,,
2017,2,37.44901,32.63879,32.64350,16.5375,0.713552083,-25.11604167,0.00000,0.00000,0.00000,,,,,,,,
2017,2,44.27332,38.87326,38.16641,3.371791667,4.888125,-7.239458333,0.00000,0.00000,0.00000,,,,,,,,
2017,2,41.99911,38.06864,35.97290,4.317708333,10.8496875,-4.743927083,0.02362,0.05118,0.03937,,,,,,,,
2017,2,44.84137,40.71041,37.76349,17.1416875,18.37104167,19.11433333,0.00000,0.00000,0.00000,,,,,,,,
2017,2,41.45377,38.12135,35.39964,20.97401042,34.56010417,18.59123958,0.14567,0.23228,0.48819,,,,,,,,
2017,2,44.19583,41.31961,38.46867,8.3253125,16.59252083,31.85852083,0.00000,0.00000,0.01575,,,,,,,,
2017,2,46.63826,44.95573,40.89779,34.39716667,47.49772917,11.9730625,0.31102,0.39764,0.47638,,,,,,,,
2017,2,30.89512,29.75148,27.19948,-1.909645833,-15.21957292,-30.0436875,0.32283,0.44094,0.58268,,,,,,,,
2017,2,23.78945,22.40135,19.53736,0.625739583,-8.4986875,-14.20223958,0.55512,0.97638,1.20472,,,,,,,,
2017,2,19.84985,17.58504,14.64446,-14.36489583,-37.4723125,-41.06169792,0.17323,0.31496,0.45669,,,,,,,,
2017,2,18.95767,15.48864,13.94938,-30.81409375,-26.83227083,-50.30785417,0.00787,0.02756,0.01969,,,,,,,,
2017,2,24.87661,21.43333,19.47999,-42.57233333,41.42463542,17.3785,0.00000,0.00000,0.01575,,,,,,,,
2017,2,27.39660,25.69925,22.38104,-20.64403125,-17.9160625,-12.35967708,0.28740,0.38189,0.61024,,,,,,,,
2017,2,22.58619,19.91013,17.81413,2.7254375,-44.79283333,-40.32579167,0.03150,0.07874,0.11417,,,,,,,,
2017,3,27.40121,24.52961,21.48864,-26.30827083,-31.39563542,-33.88565625,0.00000,0.00000,0.00787,,,,,,,,
2017,3,31.52806,26.04198,23.98850,-45.07147917,-13.98825,-24.25977083,0.00000,0.00000,0.00394,,,,,,,,
2017,3,40.27349,33.88408,32.18006,-15.22083333,-1.3878125,-13.72842708,0.00000,0.00000,0.00000,,,,,,,,
2017,3,49.18034,45.99461,42.84564,26.28225,13.73864583,6.261052083,0.00000,0.00000,0.00000,,,,,,,,
2017,3,44.35063,42.54573,38.30889,71.13575,26.27235417,12.95016667,0.29921,0.74409,0.97638,,,,,,,,
2017,3,25.56962,23.90347,20.35098,-13.48144271,22.00857292,-0.38784375,0.00394,0.00394,0.01969,,,,,,,,
2017,3,33.53233,31.61126,28.39595,-6.148291667,14.74754167,-7.362739583,0.00000,0.00394,0.00394,,,,,,,,
2017,3,44.14188,40.06306,38.40296,58.43701563,22.20677083,13.94157292,0.00000,0.00394,0.00000,,,,,,,,
2017,3,47.06392,41.06495,40.02399,67.99647917,35.88492708,8.86709375,0.00000,0.00000,0.00000,,,,,,,,
2017,3,49.42859,43.82632,41.32156,51.9529375,49.88385417,24.64566667,0.00000,0.00000,0.00000,,,,,,,,
2017,3,45.21104,40.76056,38.43991,60.61936458,59.02294792,14.3495,0.00000,0.00000,0.00000,,,,,,,,
2017,3,45.36674,40.94908,38.86460,62.92052083,58.36460417,7.659177083,0.00000,0.00000,0.00000,,,,,,,,
2017,3,47.70886,42.46809,39.22985,67.51509375,78.98884375,17.84651042,0.00000,0.00000,0.00000,,,,,,,,
2017,3,54.50780,48.01017,43.56512,66.39651042,77.28471875,26.16411458,0.00000,0.00000,0.00000,,,,,,,,
2017,3,58.08659,52.09818,45.22816,68.32802083,76.02173958,34.83760417,0.00000,0.00000,0.00000,,,,,,,,
2017,3,55.56631,51.84635,45.49691,66.2996875,70.94013542,38.866625,0.00000,0.00000,0.00000,,,,,,,,
2017,3,54.85274,49.38622,44.29029,70.65166667,76.16009375,38.3115,0.00000,0.00000,0.00000,,,,,,,,
2017,3,62.10988,57.25713,50.16888,76.8275,90.00248958,59.24886458,0.00000,0.00000,0.00000,,,,,,,,
2017,3,56.15673,53.53426,46.79506,55.33848958,59.4899375,42.42669792,0.00000,0.00000,0.00000,,,,,,,,
2017,3,58.18813,53.86342,47.03931,38.1529375,44.43554167,42.38654688,0.00000,0.00000,0.00000,,,,,,,,
2017,3,62.20850,60.64306,51.89278,65.17611458,63.347,57.49851042,0.00000,0.00000,0.00000,,,,,,,,
2017,3,50.55813,47.98499,41.83451,37.59508333,42.15745833,49.74291667,0.13386,0.19291,0.25197,,,,,,,,
2017,3,35.01183,33.79094,31.84293,17.81559375,-1.84459375,-28.88664583,1.30315,1.42913,1.09843,,,,,,,,
2017,3,41.28736,37.45696,32.27422,114.4207917,88.0905,43.3658125,0.00000,0.01575,0.02756,,,,,,,,
2017,3,39.40376,36.58484,33.85278,26.69457292,27.34961458,4.168770833,0.50787,0.59449,0.41339,,,,,,,,
2017,3,40.05035,37.41011,32.39566,116.9881458,116.8215833,43.38425,0.00000,0.01181,0.02756,,,,,,,,
2017,3,39.14872,36.87284,33.73340,25.31297917,29.8350625,12.69053646,0.40945,0.45669,0.40945,,,,,,,,
2017,3,39.37366,37.08789,33.92606,102.0476979,102.6162813,33.9531875,0.00394,0.00787,0.01575,,,,,,,,
2017,3,41.82802,38.57454,35.28701,109.1465417,99.07802083,38.4884375,0.00000,0.00000,0.00394,,,,,,,,
2017,3,45.03871,42.55265,39.07563,36.88845833,49.80933333,36.69194792,0.18110,0.17717,0.19685,,,,,,,,
2017,3,43.88988,41.87924,38.68113,48.64411458,57.04575,54.92409375,0.02362,0.03150,0.03150,,,,,,,,
2017,4,47.09986,45.05744,40.22714,113.4930208,98.1421875,69.95207292,0.00000,0.00000,0.00787,,,,,,,,
2017,4,40.79831,37.76073,35.09733,30.0083125,24.63965625,27.33734375,0.24409,0.37402,0.54331,,,,,,,,
2017,4,37.76780,34.97045,31.72398,96.762625,127.618,91.56941667,0.00394,0.00787,0.02362,,,,,,,,
2017,4,33.57451,31.12807,27.67031,94.15166667,77.00853125,55.67416667,0.00000,0.00000,0.00000,,,,,,,,
2017,4,40.88261,37.00535,34.52240,116.4543958,96.73102083,93.34402083,0.00000,0.00000,0.00000,,,,,,,,
2017,4,55.88992,52.29956,49.02373,94.46579167,98.24882292,106.5493333,0.00000,0.00000,0.00000,,,,,,,,
2017,4,59.89456,58.46844,53.14006,-8.90575,-3.63653125,12.22521875,0.00000,0.00000,0.00000,,,,,,,,
2017,4,40.38425,38.84981,35.38606,82.72786458,80.44466667,24.63619792,0.76378,1.00000,1.27953,,,,,,,,
2017,4,31.10881,28.65899,25.49482,-29.65578125,-65.50711458,-19.67947917,0.27953,0.42520,0.38976,,,,,,,,
2017,4,39.24238,34.40056,31.10761,75.3436875,42.038375,16.49219792,0.00000,0.00000,0.00787,,,,,,,,
2017,4,47.50293,43.19909,39.30144,61.75004167,64.27715625,20.4404375,0.00000,0.00000,0.00000,,,,,,,,
2017,4,54.53677,48.59966,45.33551,128.4325,120.4441667,96.76166667,0.00000,0.00000,0.00000,,,,,,,,
2017,4,58.18981,54.70646,52.45610,146.6440313,137.4627083,122.0206563,0.00000,0.00000,0.00000,,,,,,,,
2017,4,42.32343,40.56073,36.49391,-2.721770833,87.479625,77.06595833,0.00000,0.00000,0.00000,,,,,,,,
2017,4,39.84266,36.94629,34.06923,0,119.6021875,112.2853125,0.00000,0.00000,0.00394,,,,,,,,
2017,4,52.18379,48.20478,46.61214,0,134.7492708,113.6276979,0.00000,0.00000,0.00000,,,,,,,,
2017,4,57.59563,55.62446,51.64458,0,118.9992396,106.5875833,0.00000,0.00000,0.00000,,,,,,,,
2017,4,49.41937,46.78640,44.02205,0,50.59663542,46.67780208,0.50394,0.67323,0.59055,,,,,,,,
2017,4,44.73585,42.26954,38.61909,0,130.4626771,137.5600417,0.07874,0.09843,0.10630,,,,,,,,
2017,4,43.75522,40.16041,37.98088,0,82.94265625,65.53640625,0.33071,0.38189,0.37402,,,,,,,,
2017,4,38.76397,36.57999,32.89012,0,120.3203438,69.60386458,0.23228,0.23622,0.19291,,,,,,,,
2017,4,45.34739,41.63831,38.47734,0,135.6918542,136.0355208,0.00000,0.00394,0.01575,,,,,,,,
2017,4,51.77735,47.67464,47.26303,0,106.5701042,91.36341667,0.00000,0.00000,0.00000,,,,,,,,
2017,4,42.31767,38.96983,36.61033,0,17.3449375,16.12155208,0.41339,0.53543,0.74409,,,,,,,,
2017,4,37.58624,35.08190,32.70082,0,76.27509375,3.698447917,0.62205,0.88583,0.93701,,,,,,,,
2017,4,41.65919,39.17896,34.67983,0,76.97780208,36.67040625,0.13386,0.15354,0.25591,,,,,,,,
2017,4,38.38361,36.55156,32.36396,0,86.74441667,26.5264375,0.25197,0.38189,0.62598,,,,,,,,
2017,4,32.99443,31.56483,28.47373,0,81.314625,29.20009375,0.16929,0.25984,0.27953,,,,,,,,
2017,4,40.15389,37.47434,32.86749,0,168.8262813,66.18911458,0.00000,0.00000,0.00000,,,,,,,,
2017,4,46.356,42.51733,37.69588,0,119.729375,86.2695,0.01433,0.00000,0.00000,,,,,,,,
2017,5,49.082,45.24329,41.31084,0,122.1074688,152.0004271,0.01495,0.00000,0.01181,,,,,,,,
2017,5,49.378,45.53986,42.10423,0,87.67648958,108.6513854,0.01402,0.05118,0.08268,,,,,,,,
2017,5,50.17083,45.70177,43.74733,0,142.7103125,150.2601146,0.00394,0.00394,0.00394,,,,,,,,
2017,5,57.34687,51.62401,50.12396,0,148.4452813,153.6490729,0.00000,0.00000,0.00000,,,,,,,,
2017,5,66.20300,59.79916,59.69774,103.7090104,159.1414479,148.0550625,0.00000,0.00000,0.00000,,,,,,,,
2017,5,65.42375,60.56881,58.45400,93.35658333,80.15182292,42.58390625,0.00787,0.00394,0.00000,,,,,,,,
2017,5,62.44400,58.62506,56.19965,178.6067396,168.7069792,109.1658333,0.00394,0.00394,0.00000,,,,,,,,
2017,5,55.72044,52.86667,51.21736,117.9984271,116.7287396,80.463,0.03937,0.04724,0.00000,,,,,,,,
2017,5,58.29331,53.52502,51.61550,175.1457083,157.7353646,149.8421667,0.00000,0.00394,0.00787,,,,,,,,
2017,5,59.08344,54.54178,53.81302,110.349375,123.3599688,138.4783021,0.00000,0.00000,0.00000,,,,,,,,
2017,5,61.79600,55.36016,54.71996,169.1171875,153.7383333,152.4834375,0.00000,0.00000,0.00000,,,,,,,,
2017,5,66.18350,61.51597,61.03888,164.3290625,145.9629167,146.3531875,0.00000,0.00000,0.00000,,,,,,,,
2017,5,43.30237,40.72224,38.48009,-7.090625,90.51811458,115.2661771,0.00000,0.00000,0.00000,,,,,,,,
2017,5,49.00619,45.29073,44.93645,0,151.8978854,132.4593438,0.00000,0.00394,0.00000,,,,,,,,
2017,5,53.29968,49.79066,49.24363,0,140.3239583,113.89375,0.00000,0.00000,0.00000,,,,,,,,
2017,5,49.38217,46.80744,43.63220,0,123.4231979,123.3872917,0.05118,0.07874,0.08661,,,,,,,,
2017,5,34.41684,32.84587,29.27606,0,56.69966667,8.60146875,0.56299,0.84646,1.09449,,,,,,,,
2017,5,35.79155,33.97301,29.67296,0,123.5569271,33.89944792,0.00000,0.01575,0.07480,,,,,,,,
2017,5,43.52244,41.01410,36.43822,0,92.78422917,98.05611458,0.00000,0.00000,0.00394,,,,,,,,
2017,5,49.98048,45.38508,42.58882,0,140.2489583,110.9311354,0.00000,0.00000,0.01181,,,,,,,,
2017,5,50.78744,47.59003,45.03359,0,91.55767708,88.85614583,0.18898,0.16929,0.08661,,,,,,,,
2017,5,55.05354,50.17201,48.52807,0,142.7769167,147.1880104,0.00394,0.00394,0.01575,,,,,,,,
2017,5,60.97606,54.42864,54.01867,0,161.6373958,167.0555208,0.00000,0.00000,0.00000,,,,,,,,
2017,5,65.27656,59.42906,58.04334,0,137.6002708,124.4753021,0.00000,0.00000,0.00000,,,,,,,,
2017,5,55.02425,51.41780,48.72191,0,114.2109271,123.32,0.00394,0.01181,0.02362,,,,,,,,
2017,5,53.01406,48.34711,46.68892,0,72.21971875,85.69927083,0.00000,0.00394,0.00000,,,,,,,,
2017,5,49.72955,46.27079,44.75467,0,160.18375,148.1822917,0.00000,0.00394,0.00787,,,,,,,,
2017,5,58.94638,52.09473,53.26918,0,166.0175,169.3074271,0.00000,0.00000,0.00000,,,,,,,,
2017,5,63.83656,56.46423,58.61489,0,176.2624792,175.1006458,0.00000,0.00000,0.00000,,,,,,,,
2017,5,66.94747,58.87102,60.01567,97.08734375,177.9180521,164.3419063,0.00000,0.00000,0.00000,,,,,,,,
2017,5,69.74600,61.97669,63.01194,178.61625,171.4245313,154.37325,0.00000,0.00000,0.00000,,,,,,,,
2017,6,64.47913,59.08906,58.47275,88.03202083,109.7415833,99.01677083,0.04724,0.10630,0.12598,,,,,,,,
2017,6,60.61663,55.13379,53.49026,188.5841146,193.3078542,201.0274375,0.00000,0.00394,0.01575,,,,,,,,
2017,6,69.12913,59.78947,61.69048,179.8871563,179.5671875,176.2247188,0.00000,0.00394,0.00000,,,,,,,,
2017,6,75.42763,65.74006,66.80225,156.8228542,179.537,160.2272917,0.00000,0.00000,0.00000,,,,,,,,
2017,6,67.44650,61.55919,60.88588,184.4668438,175.5883333,177.9525,0.00000,0.00000,0.00000,,,,,,,,
2017,6,73.48175,63.96763,65.40838,177.7191667,176.840125,179.9673958,0.00000,0.00000,0.00000,,,,,,,,
2017,6,76.92350,68.31275,68.47719,176.7012813,176.1870833,181.2279167,0.00000,0.00000,0.00000,,,,,,,,
2017,6,74.91444,69.05619,67.51156,154.0271875,148.2217708,158.0486563,0.00000,0.00000,0.00000,,,,,,,,
2017,6,66.47975,63.25644,62.02404,183.7460833,176.2893021,182.1149896,0.00000,0.00000,0.00000,,,,,,,,
2017,6,59.78113,55.97002,54.37584,176.85,169.6001979,183.2034271,0.00000,0.00000,0.00000,,,,,,,,
2017,6,69.08563,63.08857,60.99862,173.6836458,168.9586458,178.6696875,0.00000,0.00000,0.00000,,,,,,,,
2017,6,56.29261,53.03109,49.30548,78.20426042,70.92819792,61.95646875,0.00000,0.00000,0.00000,,,,,,,,
2017,6,48.43588,45.15603,41.55101,96.24629167,65.73909375,71.46563542,0.58661,0.80709,1.08268,,,,,,,,
2017,6,58.47043,53.12362,51.08647,190.9367708,180.6969792,202.4931875,0.00000,0.00394,0.00787,,,,,,,,
2017,6,65.26738,59.13425,57.92004,166.3225,176.2979167,180.1107396,0.00000,0.00000,0.00000,,,,,,,,
2017,6,69.42519,61.61075,60.72144,186.7387292,186.2207292,199.5520833,0.00000,0.00000,0.00000,,,,,,,,
2017,6,65.04950,58.67750,56.76688,158.4058021,161.1420521,171.8029167,0.00000,0.00000,0.00000,,,,,,,,
2017,6,65.83550,58.77461,57.29737,188.3614583,183.0682292,197.0317396,0.00000,0.00000,0.00000,,,,,,,,
2017,6,72.15425,63.62919,62.84281,179.5623958,182.8745729,198.3289063,0.00000,0.00000,0.00000,,,,,,,,
2017,6,77.82331,68.77100,66.92488,167.7979896,193.7143542,193.325,0.00000,0.00000,0.00000,,,,,,,,
2017,6,77.51722,67.66588,67.23706,169.8102813,174.9739688,186.6658438,0.00000,0.00000,0.00000,,,,,,,,
2017,6,68.11588,60.77844,59.06469,175.6134375,175.3867708,189.6437396,0.00000,0.00000,0.00000,,,,,,,,
2017,6,66.33800,57.77353,56.59629,171.6155208,174.7953125,187.0268646,0.00000,0.00000,0.00000,,,,,,,,
2017,6,68.26513,59.46577,58.77123,171.3595833,174.8519792,186.5531771,0.00000,0.00000,0.00000,,,,,,,,
2017,6,74.02381,63.49344,62.97069,169.9995833,178.7595833,188.0603229,0.00000,0.00000,0.00000,,,,,,,,
2017,6,78.78088,66.97681,65.46931,156.3639583,165.9966146,179.3140938,0.00000,0.00000,0.00000,,,,,,,,
2017,6,72.66163,64.83950,62.14925,161.3201042,166.1463229,183.5819167,0.00000,0.00000,0.00000,,,,,,,,
2017,6,70.41481,62.25013,59.76425,164.6805208,170.1257292,181.1590313,0.00000,0.00000,0.00000,,,,,,,,
2017,6,66.59994,58.89772,56.68012,163.0746875,169.2598958,179.2984375,0.00000,0.00000,0.00000,,,,,,,,
2017,6,68.11663,59.00771,57.65992,159.2175,164.4927083,174.6927083,0.00000,0.00000,0.00000,,,,,,,,
2017,7,72.12959,62.68904,60.75082,155.4935625,175.4131042,181.969,0.00000,0.00000,0.00000,,,,,,,,
2017,7,77.98850,66.92216,65.07444,147.1465625,162.2484583,185.9294479,0.00000,0.00000,0.00000,,,,,,,,
2017,7,77.07838,66.91213,64.82225,149.7633646,164.5294688,186.4905104,0.00000,0.00000,0.00000,,,,,,,,
2017,7,79.95763,68.16725,66.48163,152.080625,165.9774063,184.4624583,0.00000,0.00000,0.00000,,,,,,,,
2017,7,82.85844,71.39525,68.42188,142.4488542,153.253,175.2999375,0.00000,0.00000,0.00000,,,,,,,,
2017,7,81.52588,69.34569,68.03844,139.6535417,157.4089583,177.1774792,0.00000,0.00000,0.00000,,,,,,,,
2017,7,82.28375,71.01069,68.54713,143.4511458,158.0425417,189.6428854,0.00000,0.00000,0.00000,,,,,,,,
2017,7,81.86525,72.50169,67.95781,157.16625,170.2689688,164.0560104,0.00000,0.00000,0.00000,,,,,,,,
2017,7,79.47444,70.74200,67.19281,130.5765208,145.4753542,171.121125,0.00000,0.00000,0.00000,,,,,,,,
2017,7,76.55647,69.30406,65.19425,107.5530729,124.4762083,126.8499792,0.00000,0.00000,0.00000,,,,,,,,
2017,7,74.30844,67.38538,64.10300,108.8461458,116.2887708,115.6222083,0.00000,0.00000,0.00000,,,,,,,,
2017,7,74.30581,66.53619,63.83206,135.0865417,143.9586458,166.0580729,0.00000,0.00000,0.00000,,,,,,,,
2017,7,75.25325,68.21713,65.21975,141.931125,162.3938958,180.2747396,0.00000,0.00000,0.00000,,,,,,,,
2017,7,76.70881,69.98113,66.39988,125.7177292,140.8237083,155.9260313,0.00000,0.00000,0.00000,,,,,,,,
2017,7,78.65075,69.58156,66.41056,142.9143958,149.6025,186.201125,0.00000,0.00000,0.00000,,,,,,,,
2017,7,78.92731,70.72494,67.73450,145.2480208,154.4605729,194.3477813,0.00000,0.00000,0.00000,,,,,,,,
2017,7,76.36447,68.92681,65.52725,118.7685104,141.8435938,166.89325,0.00000,0.00000,0.00000,,,,,,,,
2017,7,78.74619,69.89544,66.98713,150.3476979,157.3522083,186.6221146,0.00000,0.00000,0.01181,,,,,,,,
2017,7,77.37481,70.94225,66.86731,61.73616667,83.92623958,101.7009167,0.00000,0.00000,0.02756,,,,,,,,
2017,7,77.12900,69.96050,66.59506,107.9183021,109.3352917,142.6873646,0.00000,0.00000,0.00787,,,,,,,,
2017,7,76.16956,69.60969,65.99506,152.8476667,158.6845104,199.91975,0.00000,0.00787,0.06693,,,,,,,,
2017,7,77.17681,68.59681,66.19025,114.9603021,149.7752708,165.7420313,0.00000,0.00394,0.00000,,,,,,,,
2017,7,76.99438,68.90994,66.00369,120.4948438,152.9089896,167.6681042,0.00000,0.00000,0.00000,,,,,,,,
2017,7,76.28600,69.65469,66.45547,111.9662708,134.3529167,168.2535,0.00000,0.03150,0.08268,,,,,,,,
2017,7,66.66613,63.36838,60.27875,110.3363854,120.1195729,104.4192188,0.18504,0.20866,0.26378,,,,,,,,
2017,7,69.31138,65.09450,62.02194,192.3260104,185.1928646,191.5234167,1.33071,1.32283,0.78346,,,,,,,,
2017,7,69.99913,63.72069,60.82963,160.0060625,185.9843958,211.5125833,0.00000,0.00394,0.01181,,,,,,,,
2017,7,71.46050,64.13188,61.39119,101.3259896,98.55258333,121.8738542,0.00000,0.00000,0.00000,,,,,,,,
2017,7,72.33931,65.72469,62.60525,143.44625,157.7266354,178.3247813,0.00000,0.00000,0.00000,,,,,,,,
2017,7,75.05281,67.18344,64.42419,144.4082292,162.6555208,163.9551979,0.00000,0.00000,0.00000,,,,,,,,
2017,7,77.72806,67.87888,66.86291,139.2455208,163.9106042,154.1374479,0.00000,0.00000,0.00000,,,,,,,,
2017,8,79.24325,68.25969,66.28719,122.4955208,139.0330729,162.7291563,0.00000,0.00000,0.00000,,,,,,,,
2017,8,76.67450,67.39906,65.33825,109.5463333,134.9895208,155.3234167,0.00000,0.00000,0.00000,,,,,,,,
2017,8,77.61013,68.12994,66.38488,119.5505313,152.4170313,167.6476979,0.00000,0.00000,0.00000,,,,,,,,
2017,8,74.96225,67.16000,64.99306,111.3138958,133.9426146,151.3723438,0.00000,0.00000,0.00000,,,,,,,,
2017,8,73.28525,66.00875,63.59619,121.3873958,141.8338542,163.5761875,0.00000,0.00000,0.00000,,,,,,,,
2017,8,71.20625,63.94963,61.58075,87.5303125,115.2216667,122.6594896,0.00000,0.00000,0.00000,,,,,,,,
2017,8,69.56806,64.06869,61.64469,88.61923958,104.2009583,124.0638021,0.05906,0.04331,0.00000,,,,,,,,
2017,8,67.09400,62.23100,60.55644,87.796625,107.2090208,111.0193542,0.00394,0.00787,0.00000,,,,,,,,
2017,8,69.41694,64.36419,61.38219,119.14375,141.4552917,147.7406667,0.00000,0.00787,0.00000,,,,,,,,
2017,8,69.96744,63.54913,60.09350,121.9623854,145.2359896,168.6208229,0.00394,0.00394,0.01575,,,,,,,,
2017,8,74.61969,66.68281,63.95563,113.280375,135.4842708,160.2795625,0.00394,0.00787,0.00000,,,,,,,,
2017,8,75.45613,68.02569,65.30600,120.8155833,142.4002604,169.0890208,0.00000,0.00000,0.00000,,,,,,,,
2017,8,73.61750,67.31038,63.53956,101.5590625,120.2770938,149.2589167,0.01181,0.00787,0.02756,,,,,,,,
2017,8,66.68694,61.78569,59.97116,70.56114583,106.6736354,105.7026563,0.01969,0.02362,0.00000,,,,,,,,
2017,8,63.21838,58.57072,55.25094,117.3551667,131.1651146,157.9028125,0.00394,0.00787,0.01969,,,,,,,,
2017,8,66.89244,59.51195,57.02857,98.03983333,118.6867396,145.1823438,0.00000,0.00000,0.00394,,,,,,,,
2017,8,70.25956,62.84281,60.41469,107.3014583,129.295625,153.1548958,0.00000,0.00000,0.00000,,,,,,,,
2017,8,71.06131,62.94519,61.20106,101.0556979,125.5492604,150.9883333,0.00000,0.00000,0.00000,,,,,,,,
2017,8,73.68763,65.00113,63.81894,98.642875,133.5632396,157.2907708,0.00000,0.00000,0.00000,,,,,,,,
2017,8,73.73019,65.62006,63.90125,97.87677083,119.4380208,145.5645833,0.00000,0.00000,0.00000,,,,,,,,
2017,8,71.92025,63.92675,62.60506,73.70888542,96.54938542,119.5690208,0.00000,0.00000,0.00000,,,,,,,,
2017,8,71.20119,64.74369,62.75900,79.53802083,117.6005729,116.0529063,0.00000,0.00000,0.00000,,,,,,,,
2017,8,69.92938,62.85181,61.98650,61.05813542,93.28595833,98.30569792,0.00000,0.00000,0.00000,,,,,,,,
2017,8,70.62763,62.93338,61.43450,101.4153333,127.3353021,146.0513438,0.00000,0.00394,0.00000,,,,,,,,
2017,8,73.28769,65.02850,63.50863,82.89354167,115.2513854,123.986125,0.00000,0.00000,0.00000,,,,,,,,
2017,8,75.85288,67.20406,66.68450,95.65139583,119.3876563,139.2548646,0.00000,0.00000,0.00000,,,,,,,,
2017,8,75.60481,66.81294,66.70456,85.31542708,112.28,136.1640625,0.00000,0.00000,0.00000,,,,,,,,
2017,8,76.06288,66.83806,66.76166,81.91466667,115.7814792,139.630625,0.00000,0.00000,0.00000,,,,,,,,
2017,8,77.69563,68.15956,68.22481,64.10691667,94.2465625,116.8535417,0.00000,0.00000,0.00000,,,,,,,,
2017,8,75.00988,68.39731,66.75894,94.37197917,119.6185833,133.2721042,0.00000,0.00000,0.00000,,,,,,,,
2017,8,68.93881,63.53844,61.25506,63.48157292,79.23069792,68.11344792,0.00000,0.00000,0.00000,,,,,,,,
2017,9,69.63444,62.84844,60.90031,79.94009375,103.0912917,124.7632292,0.00000,0.00000,0.00000,,,,,,,,
2017,9,74.24188,64.98913,65.43706,75.65359375,105.4748958,125.9832292,0.00000,0.00000,0.00000,,,,,,,,
2017,9,75.65844,66.79400,66.59019,69.99846875,100.2309063,121.198875,0.00000,0.00000,0.00000,,,,,,,,
2017,9,75.72988,67.23144,67.34047,66.23895833,100.4376354,119.825474,0.00000,0.00000,0.00000,,,,,,,,
2017,9,76.39063,68.57019,69.12013,52.72476042,85.21321875,103.2632813,0.00000,0.00000,0.00000,,,,,,,,
2017,9,72.88231,63.68638,64.30588,36.96028125,73.378,88.92627083,0.00000,0.00000,0.00000,,,,,,,,
2017,9,72.30388,65.02831,64.53088,51.3209375,85.70796875,97.44845833,0.00000,0.00000,0.00000,,,,,,,,
2017,9,69.45575,62.61256,63.36875,60.85760417,93.38066667,89.9158125,0.00000,0.01575,0.00000,,,,,,,,
2017,9,65.03394,58.94656,58.94469,31.25035417,48.85969792,62.95725,0.00000,0.01575,0.00000,,,,,,,,
2017,9,66.87200,60.90050,59.19088,76.439375,99.80135417,115.0201042,0.00394,0.00000,0.01575,,,,,,,,
2017,9,71.69563,63.48050,64.10113,69.5501875,100.2936458,109.9090625,0.00000,0.00000,0.00000,,,,,,,,
2017,9,70.31394,63.00013,62.33000,64.64435417,95.48884375,103.8778125,0.00000,0.00000,0.00000,,,,,,,,
2017,9,67.94563,60.94738,60.91944,43.01197917,68.54717708,78.5826875,0.00394,0.01181,0.00000,,,,,,,,
2017,9,61.18213,57.49081,55.31863,16.36245833,28.12784375,28.25291667,0.04724,0.05512,0.01969,,,,,,,,
2017,9,51.15243,48.19361,45.39682,45.7443125,34.95077083,42.92044792,1.23622,1.43701,1.47638,,,,,,,,
2017,9,48.53739,44.84429,42.59880,61.37419792,110.7930417,117.7603438,0.00787,0.00787,0.03937,,,,,,,,
2017,9,56.20370,50.35319,49.34424,58.981875,90.139375,84.01303125,0.00000,0.00000,0.00000,,,,,,,,
2017,9,63.89188,59.34286,57.34513,69.83348958,87.61626042,90.72378125,0.00000,0.00000,0.00000,,,,,,,,
2017,9,48.71338,45.44733,42.57948,34.40991667,32.085,30.20969792,0.14173,0.16535,0.19685,,,,,,,,
2017,9,55.16441,51.13349,48.91580,66.47614583,92.37335417,99.64466667,0.00394,0.00394,0.00000,,,,,,,,
2017,9,44.12551,42.61886,41.71415,38.94402083,75.29253125,92.58615625,0.43701,0.42520,0.33071,,,,,,,,
2017,9,40.19349,36.99202,34.78289,62.85186458,80.70960417,69.54225,0.12992,0.20472,0.28346,,,,,,,,
2017,9,39.26439,36.32488,34.80734,-1.17228125,40.74677083,46.87654167,0.28740,0.26772,0.26772,,,,,,,,
2017,9,39.55372,35.74784,33.32030,23.5084375,27.49207292,24.1151875,0.70866,0.68504,0.58268,,,,,,,,
2017,9,42.74291,38.88839,35.87926,70.97260417,79.54252083,62.19905208,0.00394,0.00394,0.01969,,,,,,,,
2017,9,49.93983,42.71724,42.23510,57.95432292,77.80697917,56.7685625,0.00000,0.00000,0.00000,,,,,,,,
2017,9,53.97335,47.08059,46.75629,53.4246875,82.45645833,69.68760417,0.00000,0.00000,0.00000,,,,,,,,
2017,9,55.21025,51.37038,49.93550,23.1099375,45.0750625,36.28735417,0.00000,0.00000,0.00000,,,,,,,,
2017,9,55.10784,49.72657,47.36699,51.4960625,72.91782292,60.9759375,0.00000,0.00000,0.00000,,,,,,,,
2017,9,53.13590,48.43619,45.90369,16.99295833,36.81796875,36.04020833,0.03150,0.06693,0.09843,,,,,,,,
