Year,Water_Year_Day,ARBRC_Temperature,TMC_Temperature,KFC_Temperature,ARBRC_Radiation,TMC_Radiation,KFC_Radiation,ARBRC_Precipitation,TMC_Precipitation,KFC_Precipitation Recorded in,,V1,
2015,6,56.11644,52.86161,50.08336,35.31488542,41.98957292,39.63377083,0,0.01,0.08,,0.002664702,0.077335298
2015,11,61.2065,56.38739,55.00378,35.03936458,68.09854167,49.981875,0,0,0,,0.03309461,0.03309461
2015,12,58.11969,51.58248,50.72356,24.28989583,65.20302083,47.47725,0,0.01,0,,0.042809959,0.042809959
2015,13,62.2295,54.9224,54.66609,22.0378125,65.42833333,48.29791667,0,0,0,,0.045450364,0.045450364
2015,31,49.61433,45.71456,42.65915,30.2444375,80.62597917,46.63551042,0,0,0.04,,0.048565949,0.008565949
2015,35,35.02398,33.53551,30.38358,-1.955333333,8.055458333,9.501958333,0.04,0.05,0.04,,0.046668986,0.006668986
2015,37,32.24422,29.7893,25.83967,13.07644792,14.24776042,3.220177083,0.17,0.19,0.41,,0.209360979,0.200639021
2015,40,44.08344,39.04173,38.30819,17.03521875,44.58569792,30.36973958,0.15,0.2,0.2,,0.172803262,0.027196738
2015,41,31.93387,30.37492,28.07632,8.442875,4.948572917,-4.000010417,0.67,0.82,0.8,,0.971496684,0.171496684
2015,45,39.61858,33.56013,33.22055,-29.3305625,21.02895833,-17.2186875,0,0,0,,0,0
2015,47,34.0265,32.35141,29.18491,16.90509375,24.24211458,2.082864583,0.08,0.18,0.31,,0.218738456,0.091261544
2015,63,26.56978,22.45306,22.71129,-36.73570833,-5.37578125,-23.62327083,0,0,0,,0.012781422,0.012781422
2015,66,31.16124,26.94256,25.03946,-42.134375,3.91253125,-24.50239583,0,0,0,,0.023072768,0.023072768
2015,67,38.08252,32.19054,33.68068,-28.36779167,1.752875,-14.36448958,0,0,0,,0,0
2015,124,21.26233,19.9172,16.13321,-12.90830208,-23.50840625,15.8700625,0.14,0.18,0.55,,0.261724469,0.288275531
2015,126,18.53589,16.1768,12.46646,-33.46066667,-37.40494792,-11.67307292,0,0.04,0.2,,0.126921332,0.073078668
2015,140,47.74916,41.28013,41.58695,8.927291667,5.7993125,2.893979167,0,0,0,,0,0
2015,153,44.60979,38.72103,36.91869,43.2459375,25.71621875,16.50801042,0,0,0,,0,0
2015,156,51.34567,44.37234,42.04203,59.41036458,42.66277083,20.49511458,0,0,0,,0,0
2015,157,53.01388,47.13316,42.88024,6.321041667,13.06416667,8.080770833,0,0,0,,0.03324877,0.03324877
2015,163,52.85066,47.73675,43.43968,9.77653125,18.35585417,-1.28778125,0,0,0,,0.017650344,0.017650344
2015,166,37.11933,35.65694,31.74149,22.01171875,9.2784375,-1.788166667,0.7,1.27,1.73,,1.602434328,0.127565672
2015,171,39.93271,35.42761,32.76026,80.2209375,71.6690625,8.59725,0,0,0,,0.017125347,0.017125347
2015,173,56.438,53.66294,46.5608,32.5814375,36.09364583,27.60313542,0,0,0,,0.014469732,0.014469732
2015,174,35.8235,34.49651,31.34536,0.184760417,-24.17273958,-29.92434375,1.39,1.79,1.88,,2.145892863,0.265892863
2015,176,40.34829,36.96279,32.82241,87.43426042,56.50627083,6.820979167,0,0,0.09,,0.028526217,0.061473783
2015,179,44.5343,41.20788,37.29442,81.78520833,84.2914375,30.73089583,0,0,0,,0,0
2015,183,37.72728,35.48439,32.61238,49.87564583,64.88504167,25.62385417,0.07,0.07,0.1,,0.080443516,0.019556484
2015,224,44.14475,40.643,37.94135,182.9272917,145.9235417,147.7227083,0,0,0.06,,0.055478332,0.004521668
2015,227,65.90075,59.21285,60.61756,163.0914375,159.3218958,142.1392396,0,0,0.15,,0,0.15
2015,229,50.22826,48.43949,45.31196,112.2171875,107.5338854,99.82914583,0.01,0.03,0.09,,0.010201889,0.079798111
2015,231,56.56203,50.89411,49.244,167.3794792,135.1652083,114.5711563,0,0.01,0.18,,0,0.18
2015,239,50.99488,47.77121,43.70131,152.7783333,108.6264792,91.34316667,0,0.01,0.3,,0,0.3
2015,255,60.00669,55.65926,53.77149,45.88144792,55.71697917,47.80033333,0.502,0.618,0.64,,0.504752563,0.135247437
2015,256,59.05831,56.28875,53.83535,201.8912188,212.0496979,192.8732813,0.04,0.05,0.04,,0.160998717,0.120998717
2015,291,75.76606,67.16619,63.47844,118.5193646,139.5280208,156.9937604,0,0,0,,0.001484141,0.001484141
2015,294,79.03981,71.07875,67.36794,147.3756667,145.8214583,178.0609583,0,0,0,,0,0
2015,295,81.02038,72.10044,69.02966,142.9674271,150.465,185.8735417,0,0,0,,0.003221138,0.003221138
2015,296,79.93475,71.14044,67.76938,98.68554167,101.1577083,139.6909271,0,0,0,,0,0
2015,301,78.40869,69.11394,67.92884,125.9726771,133.4866667,174.9034375,0,0,0,,0.001273972,0.001273972
2015,302,79.13525,69.91531,68.86644,119.9956979,128.2637813,166.6913854,0,0,0,,0,0
2015,306,77.25575,69.61831,67.71275,124.9095625,131.8240625,166.7620833,0,0,0,,0,0
2015,311,72.62863,66.02403,64.09203,86.72141667,94.27158333,120.1933854,0,0,0,,0,0
2015,315,66.68206,61.21494,59.20175,66.2653125,79.59101042,90.6814375,0.44,0.49,0.33,,0.358458195,0.028458195
2015,328,68.70144,61.89519,61.17969,79.88757292,84.72208333,115.3877083,0,0,0,,0.001581903,0.001581903
2015,335,77.03544,67.39588,67.84138,79.06323958,92.376875,122.5654792,0,0,0,,0,0
2015,341,56.03675,51.78613,49.51561,91.63738542,100.8955313,123.8552396,0.01,0,0.03,,0.052679345,0.022679345
2015,342,59.79106,53.94071,53.21684,81.888625,92.081875,115.023125,0,0,0,,0.036107411,0.036107411
2015,344,62.7725,56.37905,55.69336,77.36260417,85.01177083,113.7334375,0,0,0,,0.035017817,0.035017817
2015,353,58.22951,52.59954,50.888,69.52815625,82.08460417,88.05990625,0,0,0,,0.046110138,0.046110138
2015,355,70.12531,61.44275,61.52319,51.68769792,74.00010417,78.0209375,0,0,0,,0,0
2015,356,69.15744,60.89,61.97656,42.306,67.18732292,67.92458333,0,0.01,0,,0.004831787,0.004831787
2015,357,65.53063,61.29671,59.70391,60.43740625,86.30013542,84.15667708,0,0.01,0,,0.005462036,0.005462036
2015,359,42.80604,41.41154,38.04328,16.25695833,18.76898958,19.23866667,1.63,1.72,1.99,,2.1504231,0.1604231
2015,365,62.75863,56.85819,55.88338,73.48610417,79.51828125,63.55741667,0.01,0,0.05,,0.00769759,0.04230241
2016,1,62.55631,57.39256,56.09825,63.87664583,78.43122917,67.711875,0,0,0.01,,0.029300782,0.019300782
2016,5,42.50036,39.16449,35.38319,52.45420833,90.50603125,68.01502083,0.01,0.01,0.05,,0.062146762,0.012146762
2016,11,60.03584,53.77589,54.15444,35.60189583,66.35939583,51.30195833,0,0,0,,0,0
2016,30,57.56956,54.70194,51.33103,23.60384375,52.19297917,43.65373958,0.01,0,0.02,,0.030837395,0.010837395
2016,37,48.63283,43.06499,43.36792,-11.63994792,35.15917708,5.684895833,0,0,0,,0,0
2016,46,51.30973,44.41244,44.00705,-27.143125,23.70875,-6.9598125,0,0,0,,0,0
2016,51,46.17464,43.11749,41.97152,-16.86844792,21.31219792,-10.51454167,0,0,0,,0.011026802,0.011026802
2016,54,34.53192,32.31915,29.31206,22.71558854,47.64088542,-32.78247917,0.05,0.07,0.21,,0.18783854,0.02216146
2016,64,22.30918,17.52065,16.73799,-72.43125,11.926625,41.47296875,0,0.01,0.05,,0.063258519,0.013258519
2016,68,19.43379,15.01715,14.13446,-31.73201042,-5.44021875,-2.429239583,0.04,0.07,0.13,,0.16753101,0.03753101
2016,71,38.30159,34.94246,33.66296,3.666197917,9.246864583,-2.621458333,0.05,0.08,0.27,,0.155070753,0.114929247
2016,73,31.18644,29.55611,26.45041,-41.9061875,-22.89505208,-7.099927083,0.38,0.34,0.3,,0.393878767,0.093878767
2016,80,10.04696,6.58724,5.62606,-70.7790625,-21.59203125,13.10863542,0.02,0.01,0.04,,0,0.04
2016,83,28.98271,27.77418,27.53913,4.486135417,5.477854167,6.02078125,0.08,0.06,0,,0.054278296,0.054278296
2016,84,25.56734,24.64619,26.03894,13.13201042,24.85658333,21.09890625,0,0.01,0.01,,0.035718985,0.025718985
2016,96,25.89603,24.80801,22.53166,-21.64811458,-20.69790625,-16.18277083,0.12,0.12,0.14,,0.179213716,0.039213716
2016,97,34.0601,33.15371,29.95897,-0.299708333,1.07934375,-1.250333333,0.72,1.17,1.93,,1.808293826,0.121706174
2016,101,36.94319,36.24787,35.41687,12.9210625,9.793166667,7.293572917,0.28,0.46,1.05,,0.772740475,0.277259525
2016,115,29.06765,25.78963,24.32677,-21.57108333,-6.083822917,11.43994792,0.15,0.23,0.61,,0.404731845,0.205268155
2016,121,14.90653,11.01352,10.46056,-53.978125,-9.365114583,7.127791667,0,0,0,,0.023912919,0.023912919
2016,129,41.92983,38.16541,37.81807,-13.75476042,0.975729167,-13.60628125,0.01,0,0.01,,0,0.01
2016,131,44.82934,43.27427,38.49703,2.328833333,3.82140625,7.999864583,0,0.04,0.57,,0.133232624,0.436767376
2016,137,28.28291,25.38237,25.30781,6.734052083,-20.25670833,-38.38039583,0,0,0,,0,0
2016,145,46.63826,44.95573,40.89779,34.39716667,47.49772917,11.9730625,0.79,1.01,1.21,,1.404824648,0.194824648
2016,150,24.87661,21.43333,19.47999,-42.57233333,41.42463542,17.3785,0,0,0.04,,0.030891564,0.009108436
2016,164,45.36674,40.94908,38.8646,62.92052083,58.36460417,7.659177083,0,0,0,,0,0
2016,166,54.5078,48.01017,43.56512,66.39651042,77.28471875,26.16411458,0,0,0,,0,0
2016,172,58.18813,53.86342,47.03931,38.1529375,44.43554167,42.38654688,0,0,0,,0.037137436,0.037137436
2016,177,39.40376,36.58484,33.85278,26.69457292,27.34961458,4.168770833,1.29,1.51,1.05,,1.700544652,0.650544652
2016,191,40.38425,38.84981,35.38606,82.72786458,80.44466667,24.63619792,1.94,2.54,3.25,,2.791246694,0.458753306
2016,193,39.24238,34.40056,31.10761,75.3436875,42.038375,16.49219792,0,0,0.02,,0.022144987,0.002144987
2016,194,47.50293,43.19909,39.30144,61.75004167,64.27715625,20.4404375,0,0,0,,0,0
2016,195,54.53677,48.59966,45.33551,128.4325,120.4441667,96.76166667,0,0,0,,0,0
2016,221,55.72044,52.86667,51.21736,117.9984271,116.7287396,80.463,0.1,0.12,0,,0.051149036,0.051149036
2016,249,67.4465,61.55919,60.88588,184.4668438,175.5883333,177.9525,0,0,0,,0.00583502,0.00583502
2016,250,73.48175,63.96763,65.40838,177.7191667,176.840125,179.9673958,0,0,0,,0,0
2016,259,65.26738,59.13425,57.92004,166.3225,176.2979167,180.1107396,0,0,0,,0.00424999,0.00424999
2016,272,70.41481,62.25013,59.76425,164.6805208,170.1257292,181.1590313,0,0,0,,0.010755041,0.010755041
2016,274,68.11663,59.00771,57.65992,159.2175,164.4927083,174.6927083,0,0,0,,0,0
2016,278,79.95763,68.16725,66.48163,152.080625,165.9774063,184.4624583,0,0,0,,0.013013958,0.013013958
2016,280,81.52588,69.34569,68.03844,139.6535417,157.4089583,177.1774792,0,0,0,,0,0
2016,289,78.65075,69.58156,66.41056,142.9143958,149.6025,186.201125,0,0,0,,0.030267276,0.030267276
2016,290,78.92731,70.72494,67.7345,145.2480208,154.4605729,194.3477813,0,0,0,,0.045005774,0.045005774
2016,291,76.36447,68.92681,65.52725,118.7685104,141.8435938,166.89325,0,0,0,,0.020551207,0.020551207
2016,293,77.37481,70.94225,66.86731,61.73616667,83.92623958,101.7009167,0,0,0.07,,0.014039825,0.055960175
2016,299,66.66613,63.36838,60.27875,110.3363854,120.1195729,104.4192188,0.47,0.53,0.67,,0.390413114,0.279586886
2016,306,79.24325,68.25969,66.28719,122.4955208,139.0330729,162.7291563,0,0,0,,0,0
2016,312,69.56806,64.06869,61.64469,88.61923958,104.2009583,124.0638021,0.15,0.11,0,,0,0
2016,314,69.41694,64.36419,61.38219,119.14375,141.4552917,147.7406667,0,0.02,0,,0.03866144,0.03866144
2016,321,66.89244,59.51195,57.02857,98.03983333,118.6867396,145.1823438,0,0,0.01,,0,0.01
2016,326,71.92025,63.92675,62.60506,73.70888542,96.54938542,119.5690208,0,0,0,,0,0
2016,329,70.62763,62.93338,61.4345,101.4153333,127.3353021,146.0513438,0,0.01,0,,0.007049882,0.007049882
2016,331,75.85288,67.20406,66.6845,95.65139583,119.3876563,139.2548646,0,0,0,,0,0
2016,334,77.69563,68.15956,68.22481,64.10691667,94.2465625,116.8535417,0,0,0,,0,0
2016,336,68.93881,63.53844,61.25506,63.48157292,79.23069792,68.11344792,0,0,0,,0,0
2016,346,66.872,60.9005,59.19088,76.439375,99.80135417,115.0201042,0.01,0,0.04,,0,0.04
2016,348,70.31394,63.00013,62.33,64.64435417,95.48884375,103.8778125,0,0,0,,0,0
2016,351,51.15243,48.19361,45.39682,45.7443125,34.95077083,42.92044792,3.14,3.65,3.75,,3.689630888,0.060369112
2016,352,48.53739,44.84429,42.5988,61.37419792,110.7930417,117.7603438,0.02,0.02,0.1,,0,0.1
2016,356,55.16441,51.13349,48.9158,66.47614583,92.37335417,99.64466667,0.01,0.01,0,,0.029402291,0.029402291
2016,358,40.19349,36.99202,34.78289,62.85186458,80.70960417,69.54225,0.33,0.52,0.72,,0.850333517,0.130333517
2016,361,42.74291,38.88839,35.87926,70.97260417,79.54252083,62.19905208,0.01,0.01,0.05,,0.057090339,0.007090339
2016,363,53.97335,47.08059,46.75629,53.4246875,82.45645833,69.68760417,0,0,0,,0,0
,,,,,,,,,,0.226016949,,0.214821828,0.058298476
