Water_Year,Water_Day,ARBRC_Temperature_F,TMC_Temperature_F,KFC_Temperature_F,ARBRC_Radiation_Wm2,TMC_Radiation_Wm2,KFC_Radiation_Wm2,,,
2015,1,71.17044,64.28844,63.05319,35.38326042,48.36263542,36.703125,,,
2015,2,53.66300,51.35953,48.62508,35.71258333,57.67198958,52.77273958,,,
2015,3,52.41425,50.55088,47.01920,48.63890625,68.39940625,58.37383333,,,
2015,4,59.04163,53.73350,50.95123,54.80826042,77.41959375,75.47761458,,,
2015,5,59.10763,54.55441,52.71772,40.56227083,57.24613542,66.80326042,,,
2015,6,56.11644,52.86161,50.08336,35.31488542,41.98957292,39.63377083,,,
2015,7,55.47674,51.13558,48.89966,50.68403125,72.71760417,69.47322917,,,
2015,8,59.16144,54.33753,53.01485,50.039,72.232125,61.39482292,,,
2015,9,59.80231,53.18660,52.45186,6.052083333,29.94329167,25.21094792,,,
2015,10,66.37100,60.31933,58.94411,36.5946875,70.21822917,54.52229167,,,
2015,11,61.20650,56.38739,55.00378,35.03936458,68.09854167,49.981875,,,
2015,12,58.11969,51.58248,50.72356,24.28989583,65.20302083,47.47725,,,
2015,13,62.22950,54.92240,54.66609,22.0378125,65.42833333,48.29791667,,,
2015,14,63.05600,55.64921,54.99003,19.97572917,63.22875,44.79696875,,,
2015,15,63.61006,55.82765,56.67907,13.146875,59.1365625,39.35545833,,,
2015,16,66.52906,58.74631,59.16388,6.666770833,57.05484375,35.03191667,,,
2015,17,58.59444,54.09545,53.71775,10.33982292,38.24404167,29.27138542,,,
2015,18,56.43669,53.79982,51.87170,71.63086458,108.7974896,100.5727083,,,
2015,19,52.58525,49.99589,47.09351,36.8309375,62.54823958,55.33163542,,,
2015,20,48.61143,45.05249,43.38397,53.77815625,67.43820833,47.97215625,,,
2015,21,51.92000,47.36823,45.80846,1.210291667,22.26414583,15.961125,,,
2015,22,48.70721,44.36356,42.34621,33.19103125,60.2060625,26.63041667,,,
2015,23,46.07866,41.94343,39.63191,34.00209375,97.09290625,45.13160417,,,
2015,24,50.40179,45.14467,43.40368,23.74040625,63.22761458,33.55985417,,,
2015,25,53.35537,47.74882,47.55170,-10.67817708,10.51316667,5.9229375,,,
2015,26,52.00070,46.93661,46.22521,9.709479167,52.57046875,29.70739583,,,
2015,27,43.94904,39.22070,38.46391,-12.7465625,23.1521875,8.781739583,,,
2015,28,45.19550,41.03011,40.06923,4.055479167,26.03860417,21.34602083,,,
2015,29,42.59628,40.37394,37.66708,10.57601042,22.76348958,20.35791667,,,
2015,30,39.06026,36.49610,34.03927,54.18272917,92.19355208,95.20121875,,,
2015,31,49.61433,45.71456,42.65915,30.2444375,80.62597917,46.63551042,,,
2015,32,56.45919,52.52452,51.27044,9.22778125,38.37654167,36.31341667,,,
2015,33,56.82084,54.35054,51.12592,-1.35984375,15.45630208,13.0384375,,,
2015,34,47.73425,46.11356,41.74269,15.57598958,27.633875,22.86440625,,,
2015,35,35.02398,33.53551,30.38358,-1.955333333,8.055458333,9.501958333,,,
2015,36,32.07646,30.39406,27.08448,-2.02171875,11.64829167,-3.925,,,
2015,37,32.24422,29.78930,25.83967,13.07644792,14.24776042,3.220177083,,,
2015,38,33.53189,28.89091,25.70549,-8.774291667,62.60444792,15.92604167,,,
2015,39,40.71611,34.70943,34.05937,-18.95673958,26.40767708,-4.820239583,,,
2015,40,44.08344,39.04173,38.30819,17.03521875,44.58569792,30.36973958,,,
2015,41,31.93387,30.37492,28.07632,8.442875,4.948572917,-4.000010417,,,
2015,42,31.33814,28.36063,25.17436,19.80677083,2.343447917,-8.77371875,,,
2015,43,33.20259,28.96267,26.02344,-14.79080208,18.083125,-3.959552083,,,
2015,44,35.51664,30.49079,28.49465,-25.69997917,21.7928125,-21.41082292,,,
2015,45,39.61858,33.56013,33.22055,-29.3305625,21.02895833,-17.2186875,,,
2015,46,44.48831,39.47776,36.90693,-14.61729167,29.43413542,-2.794697917,,,
2015,47,34.02650,32.35141,29.18491,16.90509375,24.24211458,2.082864583,,,
2015,48,27.03485,25.35989,21.97659,18.75254167,34.8813125,-1.17246875,,,
2015,49,35.47441,32.57797,30.74600,-9.78315625,14.35045833,-4.33521875,,,
2015,50,39.79366,36.69054,33.88584,9.165802083,23.70546875,24.84452083,,,
2015,51,36.15269,33.64848,29.71231,-6.311989583,42.3310625,3.369729167,,,
2015,52,28.04696,23.49988,21.85940,-43.84895833,0.844802083,-35.9315625,,,
2015,53,31.23149,26.04828,27.15011,-40.5603125,4.263125,-28.39534375,,,
2015,54,36.66676,32.19856,35.70596,-22.26745833,11.39611458,-7.278958333,,,
2015,55,43.00126,38.49414,37.87522,-40.81484375,-23.78958333,-18.12763542,,,
2015,56,41.05387,39.34370,35.38019,-20.54775,-4.110333333,-3.165645833,,,
2015,57,23.37358,21.51986,17.92689,-7.401385417,41.39436458,-14.95603125,,,
2015,58,19.10849,18.04867,15.53728,-25.25275,-3.0489375,6.147666667,,,
2015,59,20.18388,17.78294,14.40052,14.39313542,22.25572917,-2.214947917,,,
2015,60,18.71491,16.54258,13.50136,-9.561510417,20.3841875,-1.5509375,,,
2015,61,20.09960,17.61643,14.67346,-0.571677083,38.95753125,12.82303125,,,
2015,62,22.39597,17.97202,15.88871,-45.34675,4.745,-3.400135417,,,
2015,63,26.56978,22.45306,22.71129,-36.73570833,-5.37578125,-23.62327083,,,
2015,64,34.30694,29.77906,31.88842,-22.76698958,8.314677083,-17.20876042,,,
2015,65,36.55441,34.42483,36.24170,-14.23989583,-1.552041667,-11.52273958,,,
2015,66,31.16124,26.94256,25.03946,-42.134375,3.91253125,-24.50239583,,,
2015,67,38.08252,32.19054,33.68068,-28.36779167,1.752875,-14.36448958,,,
2015,68,41.84876,37.37647,37.57436,-12.43171875,14.56660417,0.94378125,,,
2015,69,43.09529,37.75269,37.26069,-13.22578125,42.6616875,28.51876042,,,
2015,70,47.96356,42.86161,41.46434,-25.76132292,-8.2489375,-4.50925,,,
2015,71,42.35383,38.84482,37.56581,-2.522260417,13.0098125,-2.216125,,,
2015,72,29.10794,27.50683,24.69862,10.41269792,25.75305208,9.673708333,,,
2015,73,26.64669,24.15380,21.31106,20.13909375,12.87555208,17.49427083,,,
2015,74,31.67866,28.71667,26.70712,-17.2365,-15.21926042,4.620822917,,,
2015,75,26.20762,25.42267,22.90036,2.08878125,-6.963635417,-11.049125,,,
2015,76,22.71440,21.05293,18.48412,-9.344479167,-15.26813542,-20.46463542,,,
2015,95,24.85361,26.27471,32.19489,-20.97398958,-8.719083333,-12.9125,,,
2015,96,33.61951,31.84387,32.96321,-21.76690625,-14.51952083,-12.05661458,,,
2015,97,36.11885,34.20388,33.66613,15.408625,13.54367708,2.696875,,,
2015,120,28.10392,25.16531,26.69930,-46.45759375,-10.69686458,-10.08045833,,,
2015,121,36.24103,32.76084,32.93784,-3.598489583,4.258520833,4.2968125,,,
2015,122,30.01366,29.00199,26.14409,7.317677083,-3.750927083,-6.843229167,,,
2015,123,24.07226,22.04433,19.58587,19.49284375,-31.53758333,-11.92265625,,,
2015,124,21.26233,19.91720,16.13321,-12.90830208,-23.50840625,15.8700625,,,
2015,125,14.89844,11.61219,10.33325,-49.65120833,-27.23878125,10.3846875,,,
2015,126,18.53589,16.17680,12.46646,-33.46066667,-37.40494792,-11.67307292,,,
2015,127,21.60011,19.43600,18.21729,-1.99684375,-8.464822917,-7.399802083,,,
2015,129,27.80416,24.05473,23.83511,-51.241875,-17.51802083,25.83780208,,,
2015,130,29.48484,26.45296,26.54941,-51.79822917,-19.21195833,-32.82582292,,,
2015,131,29.93148,26.78926,27.35193,-46.77154167,-17.31802083,-29.42083333,,,
2015,132,30.20893,27.14773,29.56357,-46.06320833,-15.59105208,-31.84396875,,,
2015,133,26.00248,25.94285,31.07669,-25.83065625,-14.86928125,-31.3234375,,,
2015,134,25.97698,26.66623,33.81673,-16.53301042,-7.942072917,-24.33203125,,,
2015,135,25.83072,26.91298,36.28388,-12.53284375,-5.86746875,-26.23951042,,,
2015,136,28.90132,28.67473,34.12213,-22.03815625,-12.33360417,-23.18533333,,,
2015,137,33.91524,31.84638,31.13251,-1.975104167,-3.710302083,-11.44839583,,,
2015,138,41.44642,37.90132,37.15475,32.72136458,34.96635417,25.55885417,,,
2015,139,42.05994,37.52748,37.07919,-4.652302083,4.579322917,-12.94911458,,,
2015,140,47.74916,41.28013,41.58695,8.927291667,5.7993125,2.893979167,,,
2015,141,40.16079,38.73815,34.63619,12.50814583,-4.06546875,5.731802083,,,
2015,142,38.18096,33.50188,31.61448,-21.40761458,-11.74246875,-3.027020833,,,
2015,143,38.11543,35.06889,33.50739,58.721875,10.06870833,-0.970458333,,,
2015,144,36.37839,32.89773,31.40422,35.20802083,-2.906833333,-15.53320833,,,
2015,145,33.14126,30.89184,28.26808,39.64897917,4.314427083,13.45721875,,,
2015,146,30.73882,27.57133,24.83911,40.70802083,-13.50777083,-12.35654167,,,
2015,147,33.89030,29.89807,27.86086,38.61235417,-3.551229167,-23.15998958,,,
2015,148,39.03033,33.72678,32.23505,42.68973958,5.816354167,-16.5926875,,,
2015,149,44.01847,37.18584,36.39031,42.35729167,12.00977083,-7.860427083,,,
2015,150,46.23052,40.12856,39.36028,42.23002083,17.11986458,-3.775239583,,,
2015,151,40.82278,35.68850,33.96442,49.24742708,16.65570833,0.976427083,,,
2015,152,40.38429,35.74781,34.50129,21.09077083,1.391729167,-2.82753125,,,
2015,153,44.60979,38.72103,36.91869,43.2459375,25.71621875,16.50801042,,,
2015,154,45.66253,39.93451,38.02334,58.12442708,20.47095833,2.194427083,,,
2015,155,49.32699,42.04220,39.80885,41.82371875,28.328375,15.17391667,,,
2015,156,51.34567,44.37234,42.04203,59.41036458,42.66277083,20.49511458,,,
2015,157,53.01388,47.13316,42.88024,6.321041667,13.06416667,8.080770833,,,
2015,158,45.32019,43.30004,38.73742,27.19365625,23.20928125,13.01720833,,,
2015,159,34.08574,31.98108,29.07428,35.62639583,-20.93167708,-17.52065625,,,
2015,160,36.88320,31.89351,28.75875,69.64791667,3.71109375,-14.49734375,,,
2015,161,38.95678,36.11830,32.08355,90.61230208,51.035,2.310479167,,,
2015,162,48.33993,42.20861,37.93762,69.21280208,35.97625,3.941416667,,,
2015,163,52.85066,47.73675,43.43968,9.77653125,18.35585417,-1.28778125,,,
2015,164,48.09294,42.47855,40.27981,60.34975,42.04689583,17.33061458,,,
2015,165,46.53290,42.71990,38.91804,46.57359375,57.86998958,36.77035417,,,
2015,166,37.11933,35.65694,31.74149,22.01171875,9.2784375,-1.788166667,,,
2015,167,30.58901,28.86644,25.51631,54.88628125,-11.69778125,-36.65173958,,,
2015,168,35.49361,33.36028,29.53181,115.7721771,44.4345625,-6.02109375,,,
2015,169,39.75626,36.69950,34.06267,72.88038542,65.89525,12.85555208,,,
2015,170,34.79435,31.92224,28.17952,88.49166667,80.95364583,-2.901739583,,,
2015,171,39.93271,35.42761,32.76026,80.2209375,71.6690625,8.59725,,,
2015,172,51.11499,45.88991,42.08358,84.55572917,83.21860417,36.17729167,,,
2015,173,56.43800,53.66294,46.56080,32.5814375,36.09364583,27.60313542,,,
2015,174,35.82350,34.49651,31.34536,0.184760417,-24.17273958,-29.92434375,,,
2015,175,33.76063,31.59061,27.92276,10.36696875,9.190135417,-20.83760417,,,
2015,176,40.34829,36.96279,32.82241,87.43426042,56.50627083,6.820979167,,,
2015,177,37.01210,35.09551,30.81866,69.24695833,66.86730208,0.410291667,,,
2015,178,35.14374,32.85909,29.55479,76.48121875,67.69483333,0.309229167,,,
2015,179,44.53430,41.20788,37.29442,81.78520833,84.2914375,30.73089583,,,
2015,180,35.03529,35.28178,34.12996,4.601625,17.15239583,5.83925,,,
2015,181,34.90388,33.33251,30.00078,82.84161458,14.56489583,-18.50886458,,,
2015,182,34.28720,32.34740,28.59648,35.57502083,52.12739583,22.52390625,,,
2015,183,37.72728,35.48439,32.61238,49.87564583,64.88504167,25.62385417,,,
2015,184,41.37643,37.44137,34.02092,113.9218229,108.1002604,28.04725,,,
2015,185,46.09775,41.27812,38.34466,114.2570729,106.5012813,54.86177083,,,
2015,186,51.94372,46.85034,43.10248,118.0707292,111.3188542,57.11816667,,,
2015,187,52.54708,47.64532,44.00414,50.77883333,57.52811458,36.389125,,,
2015,188,41.35278,38.55530,35.66388,104.3330208,81.29739583,50.63222917,,,
2015,189,45.51659,41.03066,38.11578,120.6524063,110.5902083,69.80895833,,,
2015,190,53.39296,48.04321,47.25579,121.8374583,113.21675,86.25520833,,,
2015,191,62.08419,58.58718,52.06001,93.2183125,78.82759375,73.94352083,,,
2015,192,55.08013,52.96846,47.80642,135.7046146,135.29325,117.1391458,,,
2015,193,52.75929,50.04896,45.86459,111.450625,101.2761146,99.98911458,,,
2015,194,52.15897,47.99229,44.64046,142.2528125,117.4051458,109.4353125,,,
2015,217,62.71625,56.61151,56.58877,167.7315,149.7933854,143.5725833,,,
2015,218,66.88681,62.11588,60.40381,85.73095833,82.59388542,64.73065625,,,
2015,219,56.09150,53.90079,50.51587,55.60311458,70.66141667,75.78185417,,,
2015,220,47.07031,43.69318,41.40721,40.26517708,49.75916667,45.52270833,,,
2015,221,44.78347,43.13662,40.20478,38.35633333,36.49604167,32.99141667,,,
2015,222,51.67453,49.96784,46.35926,138.4269375,142.4937813,120.8955521,,,
2015,223,42.79031,39.90721,36.41047,172.3475,125.7125938,125.8594063,,,
2015,224,44.14475,40.64300,37.94135,182.9272917,145.9235417,147.7227083,,,
2015,225,54.85220,49.17251,48.23720,180.39875,152.4252708,164.5210417,,,
2015,226,63.28288,56.36814,57.12354,176.5628438,151.2408333,159.6005208,,,
2015,227,65.90075,59.21285,60.61756,163.0914375,159.3218958,142.1392396,,,
2015,228,55.03250,51.90761,48.68234,81.84107292,66.10504167,60.046,,,
2015,229,50.22826,48.43949,45.31196,112.2171875,107.5338854,99.82914583,,,
2015,230,52.75119,49.99586,46.88339,154.1825,128.4029375,119.1729167,,,
2015,231,56.56203,50.89411,49.24400,167.3794792,135.1652083,114.5711563,,,
2015,232,58.45063,54.75965,53.94772,184.0528646,159.1154896,151.6322708,,,
2015,233,60.58288,56.99293,53.70129,85.18938542,94.95675,76.17228125,,,
2015,234,51.13267,48.42127,45.48095,120.3981667,98.72586458,109.6549583,,,
2015,235,45.29549,41.83747,38.94144,70.36213542,58.83822917,66.10213542,,,
2015,236,50.41436,45.91936,44.62614,168.9027083,142.1726146,144.51775,,,
2015,237,52.39344,48.38219,46.64090,121.6276458,121.005125,130.1444271,,,
2015,238,50.48223,48.01850,45.49241,124.4009167,114.3853125,137.7828333,,,
2015,239,50.99488,47.77121,43.70131,152.7783333,108.6264792,91.34316667,,,
2015,252,70.75438,63.72706,62.98231,193.3777188,177.1645521,180.3080938,,,
2015,253,72.83075,65.41756,64.65369,164.6783646,153.2430833,162.5600729,,,
2015,254,69.64813,62.38456,61.47031,85.27520833,96.47761458,93.17396875,,,
2015,255,60.00669,55.65926,53.77149,45.88144792,55.71697917,47.80033333,,,
2015,256,59.05831,56.28875,53.83535,201.8912188,212.0496979,192.8732813,,,
2015,257,54.89469,51.97509,49.49752,44.48652083,61.96883333,59.48920833,,,
2015,258,62.68063,57.44971,55.10225,161.0080208,187.4293125,169.5754792,,,
2015,259,71.00638,67.56969,63.40681,189.5769792,173.5417708,184.7863854,,,
2015,260,60.52269,57.15352,54.38806,192.9229583,173.3377083,182.7027396,,,
2015,261,67.45625,60.30708,59.46007,188.0480729,177.5501042,187.6685104,,,
2015,262,70.45944,63.34400,62.42319,161.4112292,170.7688438,165.9785729,,,
2015,263,66.50300,60.58076,59.42791,189.1931563,179.0203125,188.6454063,,,
2015,264,76.39625,66.55269,66.48556,184.1905521,185.4044792,193.4970208,,,
2015,265,74.54956,65.98588,65.51338,177.9208333,181.7323958,189.1270625,,,
2015,266,73.52788,65.72038,64.91544,177.5908646,181.7315625,190.3856979,,,
2015,267,75.22400,66.87500,65.60994,167.400375,171.2669375,189.7966875,,,
2015,268,70.10450,62.99694,61.31975,173.925,173.5869792,184.7898125,,,
2015,269,60.61456,55.40883,52.89438,175.8236667,169.4507292,179.2268646,,,
2015,270,67.86481,59.88112,58.38074,170.6765625,172.6335417,182.728875,,,
2015,271,77.77231,66.26263,65.47588,160.9889271,172.9401042,183.7119375,,,
2015,272,79.84025,71.31144,68.91294,162.2155208,184.5449271,184.4997917,,,
2015,273,75.50619,69.40531,65.82519,116.4019792,134.8407396,127.2069271,,,
2015,274,72.25400,66.53394,62.91069,121.7557604,115.6948333,116.30575,,,
2015,275,69.22081,63.90144,60.97250,149.3142708,163.7216667,151.8700208,,,
2015,276,70.31206,64.22075,61.46900,161.9186979,172.9113542,170.1731771,,,
2015,288,72.13981,63.74131,61.05969,148.0166458,149.8920833,180.2916667,,,
2015,289,75.32563,66.48031,63.52700,116.32875,146.0185,150.486125,,,
2015,290,73.73300,66.45088,63.23956,150.3685833,154.6197708,192.4199167,,,
2015,291,75.76606,67.16619,63.47844,118.5193646,139.5280208,156.9937604,,,
2015,292,77.81769,70.51681,66.77544,130.4868542,131.223,143.280625,,,
2015,293,78.28775,71.34969,67.60606,149.1686146,151.6304896,187.8743646,,,
2015,294,79.03981,71.07875,67.36794,147.3756667,145.8214583,178.0609583,,,
2015,295,81.02038,72.10044,69.02966,142.9674271,150.465,185.8735417,,,
2015,296,79.93475,71.14044,67.76938,98.68554167,101.1577083,139.6909271,,,
2015,297,72.99106,65.16688,62.72225,135.6767708,138.784375,175.9503125,,,
2015,298,73.95388,65.32644,63.38469,133.5345417,138.1616667,177.4157292,,,
2015,299,79.04488,69.51050,67.65481,125.1481146,137.0285417,175.6022917,,,
2015,300,79.33981,69.80263,67.55431,102.1259063,105.6373125,151.4947396,,,
2015,301,78.40869,69.11394,67.92884,125.9726771,133.4866667,174.9034375,,,
2015,302,79.13525,69.91531,68.86644,119.9956979,128.2637813,166.6913854,,,
2015,303,79.25281,70.18119,69.02825,124.5679583,130.8375,170.7502083,,,
2015,304,78.03556,69.64306,68.22313,75.66469792,86.05682292,118.1058542,,,
2015,305,76.39663,69.47769,67.38613,133.3902604,136.2979688,164.3860208,,,
2015,306,77.25575,69.61831,67.71275,124.9095625,131.8240625,166.7620833,,,
2015,309,70.80931,64.00081,62.79931,110.044625,116.6699375,155.2976771,,,
2015,310,71.60281,65.10575,63.27481,73.47136458,89.51295833,88.1466875,,,
2015,311,72.62863,66.02403,64.09203,86.72141667,94.27158333,120.1933854,,,
2015,312,75.34184,68.57628,66.17038,72.903125,94.40665625,102.6729896,,,
2015,313,75.34081,68.05794,66.26694,113.6238438,122.7900417,159.4840521,,,
2015,314,79.07544,74.96084,69.58963,107.42225,106.1758333,154.4538542,,,
2015,315,66.68206,61.21494,59.20175,66.2653125,79.59101042,90.6814375,,,
2015,316,66.96875,60.72313,58.06044,131.9798958,133.9972917,173.6531667,,,
2015,317,69.22888,61.26875,60.21744,118.9989688,114.4360417,151.2178125,,,
2015,318,71.03750,62.80288,61.40244,104.4393021,108.187875,143.920625,,,
2015,319,74.41756,65.41363,64.56359,104.4026458,111.1774375,148.5274479,,,
2015,320,74.85847,64.09953,64.42991,1.43521875,25.80139583,35.6394375,,,
2015,321,74.89981,66.57444,66.08919,98.54375,117.5502604,144.0952083,,,
2015,322,74.90244,66.36106,66.30350,74.318875,84.65247917,112.3289896,,,
2015,323,72.59863,63.92619,63.48556,60.66955208,63.47158333,89.48915625,,,
2015,324,71.34069,63.94700,63.40081,98.14440625,98.062,131.69375,,,
2015,325,70.34394,61.38313,60.09125,87.45983333,89.83322917,127.6504167,,,
2015,326,72.85456,64.76544,63.92413,94.51822917,103.7261458,136.5282292,,,
2015,327,71.85106,64.40319,63.98469,79.70947917,90.536875,123.0531979,,,
2015,328,68.70144,61.89519,61.17969,79.88757292,84.72208333,115.3877083,,,
2015,329,64.10225,57.24393,56.04451,94.52177083,101.9940313,123.3413542,,,
2015,330,64.53875,57.16756,56.09909,36.68553125,45.97596875,60.97401042,,,
2015,331,64.93869,58.20661,56.96180,75.4973125,75.58364583,94.87645833,,,
2015,332,66.48856,59.46264,58.37769,89.95926042,95.48447917,123.9626042,,,
2015,333,69.25381,61.88375,61.43206,87.43688542,92.35188542,122.3382292,,,
2015,334,73.18025,65.02475,65.48431,85.68114583,93.264375,122.3551042,,,
2015,335,77.03544,67.39588,67.84138,79.06323958,92.376875,122.5654792,,,
2015,336,76.52863,67.92856,68.31144,79.160375,99.43967708,119.5566667,,,
2015,337,74.06169,67.64675,66.15125,68.95925,88.29066667,93.82532292,,,
2015,338,72.95281,67.67319,65.55650,92.9706875,102.3334688,125.9473646,,,
2015,339,68.71475,63.85775,63.58250,75.62208333,80.257875,100.3173438,,,
2015,340,62.93188,58.41313,57.12969,42.08155208,63.17191667,75.20725,,,
2015,341,56.03675,51.78613,49.51561,91.63738542,100.8955313,123.8552396,,,
2015,342,59.79106,53.94071,53.21684,81.888625,92.081875,115.023125,,,
2015,343,62.29869,55.97848,55.07356,78.33041667,87.739375,114.421875,,,
2015,344,62.77250,56.37905,55.69336,77.36260417,85.01177083,113.7334375,,,
2015,345,59.82556,53.02957,51.85076,70.10727083,77.98969792,107.7047917,,,
2015,346,61.27963,53.39990,53.63174,62.35417708,77.493875,101.6026042,,,
2015,347,70.98463,63.72084,63.65581,66.38854167,84.501125,106.4045938,,,
2015,348,69.28025,64.35256,61.87325,74.85142708,81.63208333,98.43026042,,,
2015,349,59.86513,57.00011,53.42266,88.79713542,113.2984583,135.4248125,,,
2015,350,53.54806,50.54234,47.47424,75.37038542,95.6285625,75.62197917,,,
2015,351,51.46394,48.05236,45.26180,62.83254167,68.59070833,54.39315625,,,
2015,352,54.27221,49.49776,48.32649,75.33239583,82.05354167,99.2734375,,,
2015,353,58.22951,52.59954,50.88800,69.52815625,82.08460417,88.05990625,,,
2015,354,65.72094,57.61409,57.72496,60.13927083,78.37432292,82.88916667,,,
2015,355,70.12531,61.44275,61.52319,51.68769792,74.00010417,78.0209375,,,
2015,356,69.15744,60.89000,61.97656,42.306,67.18732292,67.92458333,,,
2015,357,65.53063,61.29671,59.70391,60.43740625,86.30013542,84.15667708,,,
2015,358,56.73365,55.28206,52.92256,77.63872917,92.53151042,88.31179167,,,
2015,359,42.80604,41.41154,38.04328,16.25695833,18.76898958,19.23866667,,,
2015,360,45.88151,43.49364,39.56842,28.72723958,32.37095833,51.43063542,,,
2015,361,50.71910,46.29616,44.58474,66.981875,74.42135417,80.0921875,,,
2015,362,55.22094,50.48585,49.94829,63.44745833,74.6846875,73.26322917,,,
2015,363,59.33731,54.10111,53.25643,58.93940625,75.13177083,69.34041667,,,
2015,364,63.53675,58.18794,57.26225,72.4046875,96.57007292,74.94851042,,,
2015,365,62.75863,56.85819,55.88338,73.48610417,79.51828125,63.55741667,,,
2016,1,62.55631,57.39256,56.09825,63.87664583,78.43122917,67.711875,,,
2016,2,63.92638,59.04181,57.37138,68.61510417,93.64610417,74.67542708,,,
2016,3,63.80075,59.91406,57.45871,69.04053125,83.2095,66.55617708,,,
2016,4,46.37662,43.84117,38.22176,-15.56119792,11.13667708,20.50464583,,,
2016,5,42.50036,39.16449,35.38319,52.45420833,90.50603125,68.01502083,,,
2016,6,40.37019,36.97151,33.69984,7.453770833,42.02619792,25.77535417,,,
2016,7,40.94028,36.10796,32.87480,34.79570833,52.0361875,62.71704167,,,
2016,8,47.55766,41.62331,39.13679,38.0503125,68.20416667,61.43760417,,,
2016,9,52.10126,45.86617,45.17293,16.5284375,47.54097917,40.34260417,,,
2016,10,57.41563,50.26593,50.01905,33.16010417,68.8596875,57.00052083,,,
2016,11,60.03584,53.77589,54.15444,35.60189583,66.35939583,51.30195833,,,
2016,12,56.66238,51.98101,50.05861,-2.434114583,15.84947917,8.419739583,,,
2016,13,49.56052,44.82959,44.06936,11.45197917,43.83626042,41.21864583,,,
2016,14,56.90806,51.11776,51.99836,30.20403125,64.37479167,49.64173958,,,
2016,28,62.50569,57.74653,56.44933,3.109166667,35.96339583,17.30183333,,,
2016,29,61.21569,59.37650,55.64431,18.30169792,38.13851042,45.51907292,,,
2016,30,57.56956,54.70194,51.33103,23.60384375,52.19297917,43.65373958,,,
2016,31,63.68863,62.24525,57.42800,-19.460125,-11.2975625,-2.951614583,,,
2016,32,45.20987,42.02454,38.46245,32.95538021,77.18669792,52.26945833,,,
2016,33,42.63506,38.64076,37.59089,-5.753791667,11.07844792,26.81463542,,,
2016,34,40.97417,36.54731,35.15341,-10.52447917,31.19397917,39.18515625,,,
2016,35,44.17129,38.80985,40.57616,-12.52015625,31.05239583,5.803020833,,,
2016,36,48.46829,43.25681,44.91433,-9.767416667,29.9196875,9.867479167,,,
2016,37,48.63283,43.06499,43.36792,-11.63994792,35.15917708,5.684895833,,,
2016,38,50.80732,45.27148,44.65143,-8.488052083,34.97433333,6.386927083,,,
2016,39,50.07974,44.21576,43.67373,-14.54234375,32.10385417,2.251458333,,,
2016,40,51.94051,45.08961,45.09301,-16.60554167,31.6625,2.763510417,,,
2016,41,51.80898,45.46828,45.12164,-19.13697917,30.74416667,1.509479167,,,
2016,42,50.19134,44.07046,45.83587,-18.70635417,28.59885417,0.9665625,,,
2016,43,53.28163,45.30766,44.71582,-22.75375,27.68427083,-2.1925,,,
2016,44,51.33487,45.56578,45.59371,-18.08005208,24.79280208,3.8675,,,
2016,45,48.37511,42.63804,41.75231,-19.76117708,27.86697917,-3.8378125,,,
2016,46,51.30973,44.41244,44.00705,-27.143125,23.70875,-6.9598125,,,
2016,47,57.84031,51.26527,50.24066,-40.14582292,15.51154167,-14.111875,,,
2016,48,45.56285,42.68836,42.28085,-11.208625,6.624052083,-8.511625,,,
2016,49,29.05869,27.19989,23.84780,0.877729167,-26.42364583,19.17175,,,
2016,50,30.63164,25.57365,22.91182,-25.9460625,2.091052083,10.00072917,,,
2016,51,46.17464,43.11749,41.97152,-16.86844792,21.31219792,-10.51454167,,,
2016,52,53.50141,50.73142,47.71657,-14.9695625,-1.397989583,3.188885417,,,
2016,53,41.86985,39.98337,36.81597,15.2428125,23.17575,16.7703125,,,
2016,54,34.53192,32.31915,29.31206,22.71558854,47.64088542,-32.78247917,,,
2016,55,36.56577,33.67445,30.02264,10.11791667,28.70584375,0.396927083,,,
2016,56,29.32769,25.63693,24.20323,-37.97208333,-3.252260417,-16.08748958,,,
2016,57,35.73373,29.34468,28.62311,-56.19932292,-19.19989583,-43.66001042,,,
2016,58,43.43399,38.91170,36.30920,-20.63228125,-14.83523958,-27.76451042,,,
2016,59,34.10223,32.37993,29.09542,7.647416667,-6.50796875,-8.775260417,,,
2016,60,28.12894,26.63288,23.89864,-0.1634375,-1.552567708,-0.005708333,,,
2016,61,23.90958,20.61637,17.99630,-35.17142708,-6.722510417,5.49796875,,,
2016,62,24.39111,20.70768,19.72046,-30.36078125,-13.69569271,7.182572917,,,
2016,63,26.32136,23.89351,21.29643,-4.954260417,-10.54945833,-3.285520833,,,
2016,64,22.30918,17.52065,16.73799,-72.43125,11.926625,41.47296875,,,
2016,65,25.36831,22.40049,19.96109,-9.52240625,2.682979167,2.682260417,,,
2016,66,32.19039,28.40879,27.60856,-21.70742708,14.4398125,2.06546875,,,
2016,67,26.19073,23.99242,19.43536,-47.70307292,-12.30761458,-20.5300625,,,
2016,68,19.43379,15.01715,14.13446,-31.73201042,-5.44021875,-2.429239583,,,
2016,69,15.96183,12.20503,10.28244,-33.01851042,3.699458333,7.281947917,,,
2016,70,22.10066,19.39406,19.24162,-6.867479167,3.410239583,1.974229167,,,
2016,71,38.30159,34.94246,33.66296,3.666197917,9.246864583,-2.621458333,,,
2016,72,38.55230,35.63939,33.87871,8.942125,9.264302083,1.439375,,,
2016,73,31.18644,29.55611,26.45041,-41.9061875,-22.89505208,-7.099927083,,,
2016,74,28.30887,25.02245,22.16021,-66.62046875,-20.6855,15.858625,,,
2016,75,28.11847,24.92981,22.38266,-22.49313542,-13.4349375,-11.38633333,,,
2016,76,34.37024,32.07701,30.97025,8.9014375,8.536854167,-1.518989583,,,
2016,77,47.67808,43.67135,40.91279,0.41046875,10.73548958,4.797572917,,,
2016,78,37.15229,35.75861,31.90207,-4.71034375,12.10403125,7.95871875,,,
2016,79,14.22674,12.57575,9.52957,-24.20222917,-17.63742708,-2.524822917,,,
2016,80,10.04696,6.58724,5.62606,-70.7790625,-21.59203125,13.10863542,,,
2016,81,16.09858,13.22237,15.18136,-47.45310417,-21.03047917,15.99467708,,,
2016,82,26.99628,26.94037,30.98409,-19.08778125,2.643479167,3.93596875,,,
2016,83,28.98271,27.77418,27.53913,4.486135417,5.477854167,6.02078125,,,
2016,84,25.56734,24.64619,26.03894,13.13201042,24.85658333,21.09890625,,,
2016,85,31.12329,29.21544,28.56089,-14.88027083,23.22473958,2.47871875,,,
2016,86,36.51425,35.18308,32.92859,19.03465625,18.84355208,11.81683333,,,
2016,87,19.94077,18.44060,16.33312,4.236802083,-10.61459375,-11.0713125,,,
2016,88,14.34828,11.24692,10.84870,17.64285417,2.9324375,0.716833333,,,
2016,89,19.64778,17.17640,19.83646,16.38114583,-9.834833333,-10.72082292,,,
2016,90,26.65754,24.75508,24.84808,-44.46473958,-15.23838542,-8.6984375,,,
2016,91,24.52726,20.17552,23.13787,-68.70875,-13.37596875,24.28260417,,,
2016,92,24.83598,24.05971,29.58736,-59.64853125,-24.34145833,-8.851229167,,,
2016,93,15.68988,15.50324,20.92316,-12.06827083,-12.446,-37.88447917,,,
2016,94,18.95111,19.89136,25.47061,-16.78603125,7.704677083,-29.99870833,,,
2016,95,21.90828,20.59173,19.31288,1.202,-13.50742708,-7.863192708,,,
2016,96,25.89603,24.80801,22.53166,-21.64811458,-20.69790625,-16.18277083,,,
2016,97,34.06010,33.15371,29.95897,-0.299708333,1.07934375,-1.250333333,,,
2016,98,12.12224,10.50995,9.57954,-19.28777083,-25.6700625,-15.84058333,,,
2016,99,4.78494,0.33969,1.31900,-44.82033333,-24.94357292,13.65382292,,,
2016,100,15.55391,14.93189,21.24575,14.04444792,-20.1083125,-9.625135417,,,
2016,101,36.94319,36.24787,35.41687,12.9210625,9.793166667,7.293572917,,,
2016,102,41.86042,40.35639,36.34702,6.128958333,7.488375,8.323260417,,,
2016,103,37.87961,36.49505,32.48838,-6.8594375,0.403885417,3.121541667,,,
2016,104,35.44595,33.75596,30.82544,2.140864583,-7.539739583,-5.264645833,,,
2016,105,29.80514,28.97360,27.34597,5.594708333,-6.190614583,-13.47967708,,,
2016,106,28.72610,28.96306,28.18286,5.04996875,15.60269792,-2.24565625,,,
2016,107,26.38063,24.72354,24.82989,-10.60497917,2.61575,-30.68486458,,,
2016,108,22.04645,19.73864,18.72487,-12.79909375,-12.3739375,-23.13603125,,,
2016,109,18.65932,17.45300,12.45592,-29.09106771,-12.80764583,-17.25783333,,,
2016,110,18.66793,15.82762,15.70668,-58.11083333,-6.522427083,-18.95041667,,,
2016,111,23.33158,21.24515,24.50126,-49.61869792,-15.07182292,-30.15583333,,,
2016,112,31.57149,31.12946,29.07629,-10.2306875,-12.10264583,-9.254208333,,,
2016,113,29.84879,28.16951,25.65245,-0.91046875,-7.522510417,-1.51509375,,,
2016,114,29.31313,27.72196,25.23097,-6.775854167,-12.30203125,-3.995677083,,,
2016,115,29.06765,25.78963,24.32677,-21.57108333,-6.083822917,11.43994792,,,
2016,116,32.85031,31.60502,28.15091,-6.330145833,-0.047328125,-0.869989583,,,
2016,117,23.94815,21.88754,19.01585,-5.706552083,-12.02822917,-4.6493125,,,
2016,118,20.77055,19.49555,16.25714,-0.2401875,-28.78471875,-18.65879167,,,
2016,119,19.94579,17.93349,14.50651,-14.79991667,-32.82736458,-16.55973958,,,
2016,120,13.89438,9.28070,8.11394,-71.22354167,-27.06603125,9.1726875,,,
2016,121,14.90653,11.01352,10.46056,-53.978125,-9.365114583,7.127791667,,,
2016,122,16.88488,14.46485,19.48224,-49.86145833,17.83273958,-13.03885417,,,
2016,123,17.90585,17.79327,26.22122,-25.0563125,14.66447396,-32.85835417,,,
2016,124,22.23519,23.43431,31.66186,-0.353979167,2.035083333,-12.0959375,,,
2016,125,35.35801,33.80248,35.04472,-27.82778125,-10.50996875,-18.80276042,,,
2016,126,35.35751,32.40028,31.66402,-2.468697917,3.030541667,-3.613375,,,
2016,127,40.29275,37.17933,35.14914,-4.62290625,28.78598958,9.7565,,,
2016,128,42.03052,39.19763,37.26364,-7.759177083,7.173083333,-9.734927083,,,
2016,129,41.92983,38.16541,37.81807,-13.75476042,0.975729167,-13.60628125,,,
2016,130,44.74692,43.33108,38.92606,-0.387359375,-0.241395833,-3.2745625,,,
2016,131,44.82934,43.27427,38.49703,2.328833333,3.82140625,7.999864583,,,
2016,132,46.42127,43.06642,40.24164,34.06858333,20.77,7.605052083,,,
2016,133,53.49560,47.46350,44.36851,18.26691667,32.18886458,31.08865625,,,
2016,134,48.74287,46.55113,40.89016,-5.35771875,21.04302083,15.94347917,,,
2016,135,34.90021,32.67106,30.56347,20.08872917,-20.30723958,-23.70482292,,,
2016,136,30.84262,28.72402,25.23305,9.3171875,-25.50611458,-46.66192708,,,
2016,137,28.28291,25.38237,25.30781,6.734052083,-20.25670833,-38.38039583,,,
2016,138,32.51617,28.71440,28.49328,15.23802083,-7.01875,-29.033125,,,
2016,139,37.44901,32.63879,32.64350,16.5375,0.713552083,-25.11604167,,,
2016,140,44.27332,38.87326,38.16641,3.371791667,4.888125,-7.239458333,,,
2016,141,41.99911,38.06864,35.97290,4.317708333,10.8496875,-4.743927083,,,
2016,142,44.84137,40.71041,37.76349,17.1416875,18.37104167,19.11433333,,,
2016,143,41.45377,38.12135,35.39964,20.97401042,34.56010417,18.59123958,,,
2016,144,44.19583,41.31961,38.46867,8.3253125,16.59252083,31.85852083,,,
2016,145,46.63826,44.95573,40.89779,34.39716667,47.49772917,11.9730625,,,
2016,146,30.89512,29.75148,27.19948,-1.909645833,-15.21957292,-30.0436875,,,
2016,147,23.78945,22.40135,19.53736,0.625739583,-8.4986875,-14.20223958,,,
2016,148,19.84985,17.58504,14.64446,-14.36489583,-37.4723125,-41.06169792,,,
2016,149,18.95767,15.48864,13.94938,-30.81409375,-26.83227083,-50.30785417,,,
2016,150,24.87661,21.43333,19.47999,-42.57233333,41.42463542,17.3785,,,
2016,151,27.39660,25.69925,22.38104,-20.64403125,-17.9160625,-12.35967708,,,
2016,152,22.58619,19.91013,17.81413,2.7254375,-44.79283333,-40.32579167,,,
2016,153,27.40121,24.52961,21.48864,-26.30827083,-31.39563542,-33.88565625,,,
2016,154,31.52806,26.04198,23.98850,-45.07147917,-13.98825,-24.25977083,,,
2016,155,40.27349,33.88408,32.18006,-15.22083333,-1.3878125,-13.72842708,,,
2016,156,49.18034,45.99461,42.84564,26.28225,13.73864583,6.261052083,,,
2016,157,44.35063,42.54573,38.30889,71.13575,26.27235417,12.95016667,,,
2016,158,25.56962,23.90347,20.35098,-13.48144271,22.00857292,-0.38784375,,,
2016,159,33.53233,31.61126,28.39595,-6.148291667,14.74754167,-7.362739583,,,
2016,160,44.14188,40.06306,38.40296,58.43701563,22.20677083,13.94157292,,,
2016,161,47.06392,41.06495,40.02399,67.99647917,35.88492708,8.86709375,,,
2016,162,49.42859,43.82632,41.32156,51.9529375,49.88385417,24.64566667,,,
2016,163,45.21104,40.76056,38.43991,60.61936458,59.02294792,14.3495,,,
2016,164,45.36674,40.94908,38.86460,62.92052083,58.36460417,7.659177083,,,
2016,165,47.70886,42.46809,39.22985,67.51509375,78.98884375,17.84651042,,,
2016,166,54.50780,48.01017,43.56512,66.39651042,77.28471875,26.16411458,,,
2016,167,58.08659,52.09818,45.22816,68.32802083,76.02173958,34.83760417,,,
2016,168,55.56631,51.84635,45.49691,66.2996875,70.94013542,38.866625,,,
2016,169,54.85274,49.38622,44.29029,70.65166667,76.16009375,38.3115,,,
2016,170,62.10988,57.25713,50.16888,76.8275,90.00248958,59.24886458,,,
2016,171,56.15673,53.53426,46.79506,55.33848958,59.4899375,42.42669792,,,
2016,172,58.18813,53.86342,47.03931,38.1529375,44.43554167,42.38654688,,,
2016,173,62.20850,60.64306,51.89278,65.17611458,63.347,57.49851042,,,
2016,174,50.55813,47.98499,41.83451,37.59508333,42.15745833,49.74291667,,,
2016,175,35.01183,33.79094,31.84293,17.81559375,-1.84459375,-28.88664583,,,
2016,176,41.28736,37.45696,32.27422,114.4207917,88.0905,43.3658125,,,
2016,177,39.40376,36.58484,33.85278,26.69457292,27.34961458,4.168770833,,,
2016,178,40.05035,37.41011,32.39566,116.9881458,116.8215833,43.38425,,,
2016,179,39.14872,36.87284,33.73340,25.31297917,29.8350625,12.69053646,,,
2016,180,39.37366,37.08789,33.92606,102.0476979,102.6162813,33.9531875,,,
2016,181,41.82802,38.57454,35.28701,109.1465417,99.07802083,38.4884375,,,
2016,182,45.03871,42.55265,39.07563,36.88845833,49.80933333,36.69194792,,,
2016,183,43.88988,41.87924,38.68113,48.64411458,57.04575,54.92409375,,,
2016,184,47.09986,45.05744,40.22714,113.4930208,98.1421875,69.95207292,,,
2016,185,40.79831,37.76073,35.09733,30.0083125,24.63965625,27.33734375,,,
2016,186,37.76780,34.97045,31.72398,96.762625,127.618,91.56941667,,,
2016,189,55.88992,52.29956,49.02373,94.46579167,98.24882292,106.5493333,,,
2016,190,59.89456,58.46844,53.14006,-8.90575,-3.63653125,12.22521875,,,
2016,191,40.38425,38.84981,35.38606,82.72786458,80.44466667,24.63619792,,,
2016,192,31.10881,28.65899,25.49482,-29.65578125,-65.50711458,-19.67947917,,,
2016,193,39.24238,34.40056,31.10761,75.3436875,42.038375,16.49219792,,,
2016,194,47.50293,43.19909,39.30144,61.75004167,64.27715625,20.4404375,,,
2016,195,54.53677,48.59966,45.33551,128.4325,120.4441667,96.76166667,,,
2016,196,58.18981,54.70646,52.45610,146.6440313,137.4627083,122.0206563,,,
2016,220,62.44400,58.62506,56.19965,178.6067396,168.7069792,109.1658333,,,
2016,221,55.72044,52.86667,51.21736,117.9984271,116.7287396,80.463,,,
2016,223,59.08344,54.54178,53.81302,110.349375,123.3599688,138.4783021,,,
2016,224,61.79600,55.36016,54.71996,169.1171875,153.7383333,152.4834375,,,
2016,225,66.18350,61.51597,61.03888,164.3290625,145.9629167,146.3531875,,,
2016,244,69.74600,61.97669,63.01194,178.61625,171.4245313,154.37325,,,
2016,245,64.47913,59.08906,58.47275,88.03202083,109.7415833,99.01677083,,,
2016,246,60.61663,55.13379,53.49026,188.5841146,193.3078542,201.0274375,,,
2016,247,69.12913,59.78947,61.69048,179.8871563,179.5671875,176.2247188,,,
2016,248,75.42763,65.74006,66.80225,156.8228542,179.537,160.2272917,,,
2016,249,67.44650,61.55919,60.88588,184.4668438,175.5883333,177.9525,,,
2016,250,73.48175,63.96763,65.40838,177.7191667,176.840125,179.9673958,,,
2016,251,76.92350,68.31275,68.47719,176.7012813,176.1870833,181.2279167,,,
2016,252,74.91444,69.05619,67.51156,154.0271875,148.2217708,158.0486563,,,
2016,253,66.47975,63.25644,62.02404,183.7460833,176.2893021,182.1149896,,,
2016,254,59.78113,55.97002,54.37584,176.85,169.6001979,183.2034271,,,
2016,255,69.08563,63.08857,60.99862,173.6836458,168.9586458,178.6696875,,,
2016,256,56.29261,53.03109,49.30548,78.20426042,70.92819792,61.95646875,,,
2016,257,48.43588,45.15603,41.55101,96.24629167,65.73909375,71.46563542,,,
2016,258,58.47043,53.12362,51.08647,190.9367708,180.6969792,202.4931875,,,
2016,259,65.26738,59.13425,57.92004,166.3225,176.2979167,180.1107396,,,
2016,260,69.42519,61.61075,60.72144,186.7387292,186.2207292,199.5520833,,,
2016,261,65.04950,58.67750,56.76688,158.4058021,161.1420521,171.8029167,,,
2016,262,65.83550,58.77461,57.29737,188.3614583,183.0682292,197.0317396,,,
2016,263,72.15425,63.62919,62.84281,179.5623958,182.8745729,198.3289063,,,
2016,264,77.82331,68.77100,66.92488,167.7979896,193.7143542,193.325,,,
2016,265,77.51722,67.66588,67.23706,169.8102813,174.9739688,186.6658438,,,
2016,266,68.11588,60.77844,59.06469,175.6134375,175.3867708,189.6437396,,,
2016,267,66.33800,57.77353,56.59629,171.6155208,174.7953125,187.0268646,,,
2016,268,68.26513,59.46577,58.77123,171.3595833,174.8519792,186.5531771,,,
2016,269,74.02381,63.49344,62.97069,169.9995833,178.7595833,188.0603229,,,
2016,270,78.78088,66.97681,65.46931,156.3639583,165.9966146,179.3140938,,,
2016,271,72.66163,64.83950,62.14925,161.3201042,166.1463229,183.5819167,,,
2016,272,70.41481,62.25013,59.76425,164.6805208,170.1257292,181.1590313,,,
2016,273,66.59994,58.89772,56.68012,163.0746875,169.2598958,179.2984375,,,
2016,274,68.11663,59.00771,57.65992,159.2175,164.4927083,174.6927083,,,
2016,275,72.12959,62.68904,60.75082,155.4935625,175.4131042,181.969,,,
2016,276,77.98850,66.92216,65.07444,147.1465625,162.2484583,185.9294479,,,
2016,277,77.07838,66.91213,64.82225,149.7633646,164.5294688,186.4905104,,,
2016,278,79.95763,68.16725,66.48163,152.080625,165.9774063,184.4624583,,,
2016,279,82.85844,71.39525,68.42188,142.4488542,153.253,175.2999375,,,
2016,280,81.52588,69.34569,68.03844,139.6535417,157.4089583,177.1774792,,,
2016,281,82.28375,71.01069,68.54713,143.4511458,158.0425417,189.6428854,,,
2016,282,81.86525,72.50169,67.95781,157.16625,170.2689688,164.0560104,,,
2016,283,79.47444,70.74200,67.19281,130.5765208,145.4753542,171.121125,,,
2016,284,76.55647,69.30406,65.19425,107.5530729,124.4762083,126.8499792,,,
2016,285,74.30844,67.38538,64.10300,108.8461458,116.2887708,115.6222083,,,
2016,286,74.30581,66.53619,63.83206,135.0865417,143.9586458,166.0580729,,,
2016,287,75.25325,68.21713,65.21975,141.931125,162.3938958,180.2747396,,,
2016,288,76.70881,69.98113,66.39988,125.7177292,140.8237083,155.9260313,,,
2016,289,78.65075,69.58156,66.41056,142.9143958,149.6025,186.201125,,,
2016,290,78.92731,70.72494,67.73450,145.2480208,154.4605729,194.3477813,,,
2016,291,76.36447,68.92681,65.52725,118.7685104,141.8435938,166.89325,,,
2016,292,78.74619,69.89544,66.98713,150.3476979,157.3522083,186.6221146,,,
2016,293,77.37481,70.94225,66.86731,61.73616667,83.92623958,101.7009167,,,
2016,294,77.12900,69.96050,66.59506,107.9183021,109.3352917,142.6873646,,,
2016,295,76.16956,69.60969,65.99506,152.8476667,158.6845104,199.91975,,,
2016,296,77.17681,68.59681,66.19025,114.9603021,149.7752708,165.7420313,,,
2016,297,76.99438,68.90994,66.00369,120.4948438,152.9089896,167.6681042,,,
2016,298,76.28600,69.65469,66.45547,111.9662708,134.3529167,168.2535,,,
2016,299,66.66613,63.36838,60.27875,110.3363854,120.1195729,104.4192188,,,
2016,300,69.31138,65.09450,62.02194,192.3260104,185.1928646,191.5234167,,,
2016,301,69.99913,63.72069,60.82963,160.0060625,185.9843958,211.5125833,,,
2016,302,71.46050,64.13188,61.39119,101.3259896,98.55258333,121.8738542,,,
2016,303,72.33931,65.72469,62.60525,143.44625,157.7266354,178.3247813,,,
2016,304,75.05281,67.18344,64.42419,144.4082292,162.6555208,163.9551979,,,
2016,305,77.72806,67.87888,66.86291,139.2455208,163.9106042,154.1374479,,,
2016,306,79.24325,68.25969,66.28719,122.4955208,139.0330729,162.7291563,,,
2016,307,76.67450,67.39906,65.33825,109.5463333,134.9895208,155.3234167,,,
2016,308,77.61013,68.12994,66.38488,119.5505313,152.4170313,167.6476979,,,
2016,309,74.96225,67.16000,64.99306,111.3138958,133.9426146,151.3723438,,,
2016,310,73.28525,66.00875,63.59619,121.3873958,141.8338542,163.5761875,,,
2016,311,71.20625,63.94963,61.58075,87.5303125,115.2216667,122.6594896,,,
2016,312,69.56806,64.06869,61.64469,88.61923958,104.2009583,124.0638021,,,
2016,313,67.09400,62.23100,60.55644,87.796625,107.2090208,111.0193542,,,
2016,314,69.41694,64.36419,61.38219,119.14375,141.4552917,147.7406667,,,
2016,315,69.96744,63.54913,60.09350,121.9623854,145.2359896,168.6208229,,,
2016,316,74.61969,66.68281,63.95563,113.280375,135.4842708,160.2795625,,,
2016,317,75.45613,68.02569,65.30600,120.8155833,142.4002604,169.0890208,,,
2016,318,73.61750,67.31038,63.53956,101.5590625,120.2770938,149.2589167,,,
2016,319,66.68694,61.78569,59.97116,70.56114583,106.6736354,105.7026563,,,
2016,320,63.21838,58.57072,55.25094,117.3551667,131.1651146,157.9028125,,,
2016,321,66.89244,59.51195,57.02857,98.03983333,118.6867396,145.1823438,,,
2016,322,70.25956,62.84281,60.41469,107.3014583,129.295625,153.1548958,,,
2016,323,71.06131,62.94519,61.20106,101.0556979,125.5492604,150.9883333,,,
2016,324,73.68763,65.00113,63.81894,98.642875,133.5632396,157.2907708,,,
2016,325,73.73019,65.62006,63.90125,97.87677083,119.4380208,145.5645833,,,
2016,326,71.92025,63.92675,62.60506,73.70888542,96.54938542,119.5690208,,,
2016,327,71.20119,64.74369,62.75900,79.53802083,117.6005729,116.0529063,,,
2016,328,69.92938,62.85181,61.98650,61.05813542,93.28595833,98.30569792,,,
2016,329,70.62763,62.93338,61.43450,101.4153333,127.3353021,146.0513438,,,
2016,330,73.28769,65.02850,63.50863,82.89354167,115.2513854,123.986125,,,
2016,331,75.85288,67.20406,66.68450,95.65139583,119.3876563,139.2548646,,,
2016,332,75.60481,66.81294,66.70456,85.31542708,112.28,136.1640625,,,
2016,333,76.06288,66.83806,66.76166,81.91466667,115.7814792,139.630625,,,
2016,334,77.69563,68.15956,68.22481,64.10691667,94.2465625,116.8535417,,,
2016,335,75.00988,68.39731,66.75894,94.37197917,119.6185833,133.2721042,,,
2016,336,68.93881,63.53844,61.25506,63.48157292,79.23069792,68.11344792,,,
2016,337,69.63444,62.84844,60.90031,79.94009375,103.0912917,124.7632292,,,
2016,338,74.24188,64.98913,65.43706,75.65359375,105.4748958,125.9832292,,,
2016,339,75.65844,66.79400,66.59019,69.99846875,100.2309063,121.198875,,,
2016,340,75.72988,67.23144,67.34047,66.23895833,100.4376354,119.825474,,,
2016,341,76.39063,68.57019,69.12013,52.72476042,85.21321875,103.2632813,,,
2016,342,72.88231,63.68638,64.30588,36.96028125,73.378,88.92627083,,,
2016,343,72.30388,65.02831,64.53088,51.3209375,85.70796875,97.44845833,,,
2016,344,69.45575,62.61256,63.36875,60.85760417,93.38066667,89.9158125,,,
2016,345,65.03394,58.94656,58.94469,31.25035417,48.85969792,62.95725,,,
2016,346,66.87200,60.90050,59.19088,76.439375,99.80135417,115.0201042,,,
2016,347,71.69563,63.48050,64.10113,69.5501875,100.2936458,109.9090625,,,
2016,348,70.31394,63.00013,62.33000,64.64435417,95.48884375,103.8778125,,,
2016,349,67.94563,60.94738,60.91944,43.01197917,68.54717708,78.5826875,,,
2016,350,61.18213,57.49081,55.31863,16.36245833,28.12784375,28.25291667,,,
2016,351,51.15243,48.19361,45.39682,45.7443125,34.95077083,42.92044792,,,
2016,352,48.53739,44.84429,42.59880,61.37419792,110.7930417,117.7603438,,,
2016,353,56.20370,50.35319,49.34424,58.981875,90.139375,84.01303125,,,
2016,354,63.89188,59.34286,57.34513,69.83348958,87.61626042,90.72378125,,,
2016,355,48.71338,45.44733,42.57948,34.40991667,32.085,30.20969792,,,
2016,356,55.16441,51.13349,48.91580,66.47614583,92.37335417,99.64466667,,,
2016,357,44.12551,42.61886,41.71415,38.94402083,75.29253125,92.58615625,,,
2016,358,40.19349,36.99202,34.78289,62.85186458,80.70960417,69.54225,,,
2016,359,39.26439,36.32488,34.80734,-1.17228125,40.74677083,46.87654167,,,
2016,360,39.55372,35.74784,33.32030,23.5084375,27.49207292,24.1151875,,,
2016,361,42.74291,38.88839,35.87926,70.97260417,79.54252083,62.19905208,,,
2016,362,49.93983,42.71724,42.23510,57.95432292,77.80697917,56.7685625,,,
2016,363,53.97335,47.08059,46.75629,53.4246875,82.45645833,69.68760417,,,
2016,364,55.21025,51.37038,49.93550,23.1099375,45.0750625,36.28735417,,,
2016,365,55.10784,49.72657,47.36699,51.4960625,72.91782292,60.9759375,,,
2016,366,53.13590,48.43619,45.90369,16.99295833,36.81796875,36.04020833,,,
