Water_Year,Month,ARBRC_Temperature_F,TMC_Temperature_F,KFC_Temperature_F,ARBRC_Radiation_Wm2,TMC_Radiation_Wm2,KFC_Radiation_Wm2,ARBRC_Precipitation_in_corrected,TMC_Precipitation_in_corrected,KFC_Precipitation_in_corrected
2015,10,71.00000,64.00000,63.00000,35,48,37,0.00000,0.00000,0.00000
2015,10,54.00000,51.00000,49.00000,36,58,53,0.18000,0.24000,0.17000
2015,10,52.00000,51.00000,47.00000,49,68,58,0.23000,0.22000,0.27000
2015,10,59.00000,54.00000,51.00000,55,77,75,0.00000,0.00000,0.01000
2015,10,59.00000,54.00000,53.00000,41,57,67,0.00000,0.00000,0.01000
2015,10,56.00000,53.00000,50.00000,35,42,40,0.00000,0.00000,0.03000
2015,10,55.00000,51.00000,49.00000,51,73,69,0.00000,0.00000,0.00000
2015,10,59.00000,54.00000,53.00000,50,72,61,0.00000,0.00000,0.00000
2015,10,60.00000,53.00000,52.00000,6,30,25,0.00000,0.00000,0.00000
2015,10,66.00000,60.00000,59.00000,37,70,55,0.00000,0.00000,0.00000
2015,10,61.00000,56.00000,55.00000,35,68,50,0.00000,0.00000,0.00000
2015,10,58.00000,52.00000,51.00000,24,65,47,0.00000,0.00000,0.00000
2015,10,62.00000,55.00000,55.00000,22,65,48,0.00000,0.00000,0.00000
2015,10,63.00000,56.00000,55.00000,20,63,45,0.00000,0.00000,0.00000
2015,10,64.00000,56.00000,57.00000,13,59,39,0.00000,0.00000,0.00000
2015,10,67.00000,59.00000,59.00000,7,57,35,0.00000,0.00000,0.00000
2015,10,59.00000,54.00000,54.00000,10,38,29,0.13000,0.16000,0.14000
2015,10,56.00000,54.00000,52.00000,72,109,101,0.22000,0.27000,0.30000
2015,10,53.00000,50.00000,47.00000,37,63,55,0.00000,0.00000,0.02000
2015,10,49.00000,45.00000,43.00000,54,67,48,0.07000,0.07000,0.06000
2015,10,52.00000,47.00000,46.00000,1,22,16,0.00000,0.00000,0.00000
2015,10,49.00000,44.00000,42.00000,33,60,27,0.07000,0.12000,0.00000
2015,10,46.00000,42.00000,40.00000,34,97,45,0.00000,0.01000,0.00000
2015,10,50.00000,45.00000,43.00000,24,63,34,0.00000,0.00000,0.00000
2015,10,53.00000,48.00000,48.00000,-11,11,6,0.00000,0.00000,0.00000
2015,10,52.00000,47.00000,46.00000,10,53,30,0.00000,0.00000,0.00000
2015,10,44.00000,39.00000,38.00000,-13,23,9,0.00000,0.00000,0.00000
2015,10,45.00000,41.00000,40.00000,4,26,21,0.00000,0.00000,0.00000
2015,10,43.00000,40.00000,38.00000,11,23,20,0.10000,0.14000,0.12000
2015,10,39.00000,36.00000,34.00000,54,92,95,0.00000,0.02000,0.02000
2015,10,50.00000,46.00000,43.00000,30,81,47,0.00000,0.00000,0.02000
2015,11,56.00000,53.00000,51.00000,9,38,36,0.00000,0.00000,0.00000
2015,11,57.00000,54.00000,51.00000,-1,15,13,0.00000,0.00000,0.00000
2015,11,48.00000,46.00000,42.00000,16,28,23,0.00000,0.02000,0.08000
2015,11,35.00000,34.00000,30.00000,-2,8,10,0.02000,0.02000,0.02000
2015,11,32.00000,30.00000,27.00000,-2,12,-4,0.02000,0.04000,0.05000
2015,11,32.00000,30.00000,26.00000,13,14,3,0.07000,0.07000,0.16000
2015,11,34.00000,29.00000,26.00000,-9,63,16,0.00000,0.00000,0.01000
2015,11,41.00000,35.00000,34.00000,-19,26,-5,0.00000,0.00000,0.00000
2015,11,44.00000,39.00000,38.00000,17,45,30,0.06000,0.08000,0.08000
2015,11,32.00000,30.00000,28.00000,8,5,-4,0.26000,0.32000,0.31000
2015,11,31.00000,28.00000,25.00000,20,2,-9,0.02000,0.02000,0.02000
2015,11,33.00000,29.00000,26.00000,-15,18,-4,0.00000,0.00000,0.01000
2015,11,36.00000,30.00000,28.00000,-26,22,-21,0.00000,0.00000,0.00000
2015,11,40.00000,34.00000,33.00000,-29,21,-17,0.00000,0.00000,0.00000
2015,11,44.00000,39.00000,37.00000,-15,29,-3,0.00000,0.00000,0.00000
2015,11,34.00000,32.00000,29.00000,17,24,2,0.03000,0.07000,0.12000
2015,11,27.00000,25.00000,22.00000,19,35,-1,0.01000,0.00000,0.02000
2015,11,35.00000,33.00000,31.00000,-10,14,-4,0.00000,0.01000,0.00000
2015,11,40.00000,37.00000,34.00000,9,24,25,0.00000,0.01000,0.03000
2015,11,36.00000,34.00000,30.00000,-6,42,3,0.01000,0.03000,0.14000
2015,11,28.00000,23.00000,22.00000,-44,1,-36,0.00000,0.00000,0.01000
2015,11,31.00000,26.00000,27.00000,-41,4,-28,0.00000,0.00000,0.00000
2015,11,37.00000,32.00000,36.00000,-22,11,-7,0.00000,0.00000,0.00000
2015,11,43.00000,38.00000,38.00000,-41,-24,-18,0.00000,0.00000,0.00000
2015,11,41.00000,39.00000,35.00000,-21,-4,-3,0.09000,0.11000,0.18000
2015,11,23.00000,22.00000,18.00000,-7,41,-15,0.03000,0.02000,0.04000
2015,11,19.00000,18.00000,16.00000,-25,-3,6,0.00000,0.00000,0.01000
2015,11,20.00000,18.00000,14.00000,14,22,-2,0.06000,0.07000,0.10000
2015,11,19.00000,17.00000,14.00000,-10,20,-2,0.02000,0.02000,0.02000
2015,11,20.00000,18.00000,15.00000,-1,39,13,0.02000,0.01000,0.04000
2015,12,22.00000,18.00000,16.00000,-45,5,-3,0.00000,0.00000,0.00000
2015,12,27.00000,22.00000,23.00000,-37,-5,-24,0.00000,0.00000,0.00000
2015,12,34.00000,30.00000,32.00000,-23,8,-17,0.00000,0.00000,0.00000
2015,12,37.00000,34.00000,36.00000,-14,-2,-12,0.00000,0.00000,0.00000
2015,12,31.00000,27.00000,25.00000,-42,4,-25,0.00000,0.00000,0.00000
2015,12,38.00000,32.00000,34.00000,-28,2,-14,0.00000,0.00000,0.00000
2015,12,42.00000,37.00000,38.00000,-12,15,1,0.03000,0.06000,0.09000
2015,12,43.00000,38.00000,37.00000,-13,43,29,0.00000,0.01000,0.02000
2015,12,48.00000,43.00000,41.00000,-26,-8,-5,0.00000,0.00000,0.00000
2015,12,42.00000,39.00000,38.00000,-3,13,-2,0.16000,0.24000,0.39000
2015,12,29.00000,28.00000,25.00000,10,26,10,0.19000,0.18000,0.10000
2015,12,27.00000,24.00000,21.00000,20,13,17,0.01000,0.00000,0.04000
2015,12,32.00000,29.00000,27.00000,-17,-15,5,0.03000,0.05000,0.06000
2015,12,26.00000,25.00000,23.00000,2,-7,-11,1.10000,1.62000,1.27000
2015,12,23.00000,21.00000,18.00000,-9,-15,-20,0.09000,0.17000,0.19000
2015,12,22.00000,20.00000,18.000,9,-24,0,0.19000,0.33000,0.33000
2015,12,21.00000,18.00000,16.000,-33,-15,0,0.00000,0.00000,0.00000
2015,12,35.00000,32.00000,30.000,-48,-6,-6,0.00000,0.00000,0.11000
2015,12,41.00000,38.00000,36.000,-56,-29,-19,0.00000,0.00000,0.00000
2015,12,32.00000,31.00000,29.000,-12,-7,-14,0.32000,0.48000,0.65000
2015,12,34.00000,32.00000,30.000,2,-6,0,0.00000,0.01000,0.44000
2015,12,31.00000,30.00000,28.000,-9,-16,0,0.81000,1.48000,1.31000
2015,12,25.00000,24.00000,22.000,-10,-26,0,0.09000,0.24000,0.33000
2015,12,24.00000,21.00000,19.000,-37,-11,31,0.14000,0.00000,0.11000
2015,12,20.00000,18.00000,16.000,-20,-10,0,0.06000,0.09000,0.00000
2015,12,12.00000,7.00000,5.000,-83,37,0,0.00000,0.00000,0.00000
2015,12,11.00000,6.00000,4.000,-69,41,0,0.00000,0.00000,0.00000
2015,12,14.00000,12.00000,11.000,-9,-10,-7,0.02000,0.01000,0.11000
2015,12,15.00000,13.00000,11.000,14,-16,-4,0.07000,0.07000,0.00000
2015,12,16.00000,13.00000,11.000,3,-9,-22,0.04000,0.04000,0.00000
2015,12,11.00000,7.00000,5.000,-52,23,10,0.00000,0.00000,0.00000
2016,1,18.00000,17.00000,15.000,-91,62,-21,0.00000,0.00000,0.11000
2016,1,20.00000,18.00000,16.000,-48,-6,-17,0.00000,0.00000,0.11000
2016,1,25.00000,26.00000,32.00000,-21,-9,-13,0.00000,0.00000,0.00000
2016,1,34.00000,32.00000,33.00000,-22,-15,-12,0.00000,0.00000,0.00000
2016,1,36.00000,34.00000,34.00000,15,14,3,0.02000,0.03000,0.03000
2016,1,35.00000,33.00000,31.000,-2,-1,5,0.22000,0.24000,0.72000
2016,1,31.00000,30.00000,28.000,16,33,2,0.13000,0.21000,0.00000
2016,1,28.00000,27.00000,25.000,-10,-3,0,0.09000,0.11000,0.09000
2016,1,27.00000,25.00000,23.000,-20,-11,0,0.00000,0.00000,0.00000
2016,1,22.00000,19.00000,17.000,-5,-3,0,0.02000,0.04000,0.00000
2016,1,17.00000,13.00000,11.000,-72,-8,0,0.00000,0.00000,0.00000
2016,1,20.00000,16.00000,14.000,-62,-2,0,0.00000,0.00000,0.00000
2016,1,24.00000,22.00000,20.000,-39,-1,0,0.00000,0.00000,0.09000
2016,1,27.00000,25.00000,22.000,-22,-15,0,0.06000,0.11000,0.18000
2016,1,28.00000,27.00000,25.000,-1,-5,0,0.26000,0.36000,0.54000
2016,1,30.00000,28.00000,26.000,-4,-8,0,0.16000,0.23000,0.36000
2016,1,34.00000,31.00000,29.000,-31,-19,0,0.03000,0.05000,0.00000
2016,1,34.00000,32.00000,30.000,2,2,0,0.61000,0.71000,0.90000
2016,1,30.00000,28.00000,26.000,2,1,0,0.02000,0.06000,0.18000
2016,1,30.00000,28.00000,26.000,-21,-6,0,0.15000,0.32000,0.36000
2016,1,26.00000,21.00000,19.000,-64,-28,0,0.00000,0.00000,0.00000
2016,1,32.00000,28.00000,26.000,-44,-25,0,0.00000,0.00000,0.09000
2016,1,35.00000,32.00000,33.00000,-10,-4,0,0.35000,0.47000,0.54000
2016,1,30.00000,29.00000,27.00000,-11,-9,0,0.21000,0.31000,0.36000
2016,1,25.00000,24.00000,22.00000,-26,-27,0,0.10000,0.08000,0.00000
2016,1,22.00000,18.00000,16.00000,-46,-1,0,0.00000,0.00000,0.00000
2016,1,23.00000,20.00000,20.00000,-62,-12,-18,0.00000,0.00000,0.00000
2016,1,28.00000,25.00000,27.00000,-46,-11,-10,0.00000,0.00000,0.02000
2016,1,36.00000,33.00000,33.00000,-4,4,4,0.04000,0.06000,0.11000
2016,1,30.00000,29.00000,26.00000,7,-4,-7,0.49000,0.61000,0.57000
2016,1,24.00000,22.00000,20.00000,19,-32,-12,0.04000,0.04000,0.07000
2016,2,21.00000,20.00000,16.00000,-13,-24,16,0.06000,0.07000,0.22000
2016,2,15.00000,12.00000,10.00000,-50,-27,10,0.00000,0.00000,0.04000
2016,2,19.00000,16.00000,12.00000,-33,-37,-12,0.00000,0.02000,0.08000
2016,2,22.00000,19.00000,18.00000,-2,-8,-7,0.04000,0.05000,0.07000
2016,2,26.00000,24.00000,22.000,-32,-7,-30,0.09000,0.10000,0.00000
2016,2,28.00000,24.00000,24.00000,-51,-18,26,0.00000,0.00000,0.00000
2016,2,29.00000,26.00000,27.00000,-52,-19,-33,0.00000,0.00000,0.00000
2016,2,30.00000,27.00000,27.00000,-47,-17,-29,0.00000,0.00000,0.00000
2016,2,30.00000,27.00000,30.00000,-46,-16,-32,0.00000,0.00000,0.00000
2016,2,26.00000,26.00000,31.00000,-26,-15,-31,0.00000,0.00000,0.00000
2016,2,26.00000,27.00000,34.00000,-17,-8,-24,0.00000,0.00000,0.00000
2016,2,26.00000,27.00000,36.00000,-13,-6,-26,0.00000,0.00000,0.00000
2016,2,29.00000,29.00000,34.00000,-22,-12,-23,0.00000,0.00000,0.00000
2016,2,34.00000,32.00000,31.00000,-2,-4,-11,0.31000,0.39000,0.57000
2016,2,41.00000,38.00000,37.00000,33,35,26,0.04000,0.05000,0.09000
2016,2,42.00000,38.00000,37.00000,-5,5,-13,0.00000,0.00000,0.01000
2016,2,48.00000,41.00000,42.00000,9,6,3,0.00000,0.00000,0.00000
2016,2,40.00000,39.00000,35.00000,13,-4,6,0.28000,0.56000,0.63000
2016,2,38.00000,34.00000,32.00000,-21,-12,-3,0.00000,0.00000,0.03000
2016,2,38.00000,35.00000,34.00000,59,10,-1,0.00000,0.00000,0.00000
2016,2,36.00000,33.00000,31.00000,35,-3,-16,0.00000,0.00000,0.00000
2016,2,33.00000,31.00000,28.00000,40,4,13,0.08000,0.09000,0.06000
2016,2,31.00000,28.00000,25.00000,41,-14,-12,0.00000,0.00000,0.02000
2016,2,34.00000,30.00000,28.00000,39,-4,-23,0.00000,0.00000,0.00000
2016,2,39.00000,34.00000,32.00000,43,6,-17,0.00000,0.00000,0.00000
2016,2,44.00000,37.00000,36.00000,42,12,-8,0.00000,0.00000,0.00000
2016,2,46.00000,40.00000,39.00000,42,17,-4,0.00000,0.00000,0.00000
2016,2,41.00000,36.00000,34.00000,49,17,1,0.00000,0.00000,0.00000
2016,2,40.00000,36.00000,35.00000,21,1,-3,0.00000,0.00000,0.00000
2016,3,45.00000,39.00000,37.00000,43,26,17,0.00000,0.00000,0.00000
2016,3,46.00000,40.00000,38.00000,58,20,2,0.00000,0.00000,0.00000
2016,3,49.00000,42.00000,40.00000,42,28,15,0.00000,0.00000,0.00000
2016,3,51.00000,44.00000,42.00000,59,43,20,0.00000,0.00000,0.00000
2016,3,53.00000,47.00000,43.00000,6,13,8,0.00000,0.00000,0.00000
2016,3,45.00000,43.00000,39.00000,27,23,13,0.52000,0.85000,0.85000
2016,3,34.00000,32.00000,29.00000,36,-21,-18,0.28000,0.24000,0.28000
2016,3,37.00000,32.00000,29.00000,70,4,-14,0.00000,0.00000,0.02000
2016,3,39.00000,36.00000,32.00000,91,51,2,0.07000,0.13000,0.19000
2016,3,48.00000,42.00000,38.00000,69,36,4,0.00000,0.00000,0.01000
2016,3,53.00000,48.00000,43.00000,10,18,-1,0.00000,0.00000,0.00000
2016,3,48.00000,42.00000,40.00000,60,42,17,0.00000,0.00000,0.00000
2016,3,47.00000,43.00000,39.00000,47,58,37,0.00000,0.00000,0.00000
2016,3,37.00000,36.00000,32.00000,22,9,-2,0.28000,0.50000,0.68000
2016,3,31.00000,29.00000,26.00000,55,-12,-37,0.06000,0.11000,0.22000
2016,3,35.00000,33.00000,30.00000,116,44,-6,0.00000,0.00000,0.02000
2016,3,40.00000,37.00000,34.00000,73,66,13,0.00000,0.00000,0.00000
2016,3,35.00000,32.00000,28.00000,88,81,-3,0.00000,0.00000,0.02000
2016,3,40.00000,35.00000,33.00000,80,72,9,0.00000,0.00000,0.00000
2016,3,51.00000,46.00000,42.00000,85,83,36,0.00000,0.00000,0.00000
2016,3,56.00000,54.00000,47.00000,33,36,28,0.00000,0.00000,0.00000
2016,3,36.00000,34.00000,31.00000,0,-24,-30,0.55000,0.70000,0.74000
2016,3,34.00000,32.00000,28.00000,10,9,-21,0.06000,0.10000,0.11000
2016,3,40.00000,37.00000,33.00000,87,57,7,0.00000,0.00000,0.04000
2016,3,37.00000,35.00000,31.00000,69,67,0,0.00000,0.00000,0.00000
2016,3,35.00000,33.00000,30.00000,76,68,0,0.01000,0.01000,0.02000
2016,3,45.00000,41.00000,37.00000,82,84,31,0.00000,0.00000,0.00000
2016,3,35.00000,35.00000,34.00000,5,17,6,0.39000,0.43000,0.41000
2016,3,35.00000,33.00000,30.00000,83,15,-19,0.43000,0.45000,0.50000
2016,3,34.00000,32.00000,29.00000,36,52,23,0.04000,0.04000,0.05000
2016,3,38.00000,35.00000,33.00000,50,65,26,0.03000,0.03000,0.04000
2016,4,41.00000,37.00000,34.00000,114,108,28,0.00000,0.00000,0.02000
2016,4,46.00000,41.00000,38.00000,114,107,55,0.00000,0.00000,0.00000
2016,4,52.00000,47.00000,43.00000,118,111,57,0.00000,0.00000,0.00000
2016,4,53.00000,48.00000,44.00000,51,58,36,0.04000,0.06000,0.01000
2016,4,41.00000,39.00000,36.00000,104,81,51,0.01000,0.00000,0.02000
2016,4,46.00000,41.00000,38.00000,121,111,70,0.00000,0.00000,0.02000
2016,4,53.00000,48.00000,47.00000,122,113,86,0.00000,0.00000,0.00000
2016,4,62.00000,59.00000,52.00000,93,79,74,0.00000,0.00000,0.00000
2016,4,55.00000,53.00000,48.00000,136,135,117,0.00000,0.00000,0.00000
2016,4,53.00000,50.00000,46.00000,111,101,100,0.00000,0.00000,0.00000
2016,4,52.00000,48.00000,45.00000,142,117,109,0.00000,0.00000,0.00000
2016,4,55.00000,50.00000,48.00000,113,124,125,0.00000,0.00000,0.00000
2016,4,50.00000,48.00000,44.00000,88,90,61,0.27000,0.35000,0.45000
2016,4,42.00000,40.00000,36.00000,15,21,15,0.48000,0.57000,0.54000
2016,4,37.00000,34.00000,30.00000,91,95,22,0.15000,0.16000,0.09000
2016,4,42.00000,39.00000,36.00000,129,126,116,0.00000,0.00000,0.00000
2016,4,45.00000,43.00000,38.00000,142,132,128,0.00000,0.00000,0.00000
2016,4,45.00000,43.00000,39.00000,126,112,92,0.00000,0.00000,0.00000
2016,4,49.00000,46.00000,43.00000,156,140,136,0.00000,0.00000,0.00000
2016,4,56.00000,50.00000,48.00000,148,139,120,0.00000,0.00000,0.00000
2016,4,63.00000,57.00000,55.00000,146,132,124,0.00000,0.00000,0.00000
2016,4,64.00000,60.00000,58.00000,132,130,108,0.00000,0.00000,0.00000
2016,4,47.00000,45.00000,41.00000,83,87,84,1.16000,1.46000,1.62000
2016,4,46.00000,44.00000,37.00000,159,148,42,0.26000,0.31000,0.45000
2016,4,46.00000,44.00000,38.00000,82,86,85,0.02000,0.07000,0.27000
2016,4,41.00000,39.00000,35.00000,34,42,50,0.48000,0.72000,1.35000
2016,4,44.00000,42.00000,37.00000,87,85,87,0.04000,0.09000,0.18000
2016,4,43.00000,42.00000,37.00000,108,101,117,0.01000,0.00000,0.09000
2016,4,43.00000,41.00000,37.00000,103,89,84,0.01000,0.02000,0.09000
2016,4,47.00000,45.00000,40.00000,129,121,163,0.00000,0.00000,0.00000
2016,5,48.00000,46.00000,41.00000,162,137,153,0.00000,0.00000,0.00000
2016,5,50.00000,47.00000,43.00000,140,104,79,0.00000,0.00000,0.00000
2016,5,54.00000,49.00000,48.00000,167,141,150,0.00000,0.00000,0.00000
2016,5,63.00000,57.00000,57.00000,168,150,144,0.00000,0.00000,0.01000
2016,5,67.00000,62.00000,60.00000,86,83,65,0.00000,0.00000,0.00000
2016,5,56.00000,54.00000,51.00000,56,71,76,0.25000,0.22000,0.06000
2016,5,47.00000,44.00000,41.00000,40,50,46,0.16000,0.19000,0.09000
2016,5,45.00000,43.00000,40.00000,38,36,33,0.72000,0.94000,1.16000
2016,5,52.00000,50.00000,46.00000,138,142,121,0.27000,0.26000,0.44000
2016,5,43.00000,40.00000,36.00000,172,126,126,0.00000,0.00000,0.02000
2016,5,44.00000,41.00000,38.00000,183,146,148,0.00000,0.00000,0.02000
2016,5,55.00000,49.00000,48.00000,180,152,165,0.00000,0.00000,0.07000
2016,5,63.00000,56.00000,57.00000,177,151,160,0.00000,0.00000,0.06000
2016,5,66.00000,59.00000,61.00000,163,159,142,0.00000,0.00000,0.06000
2016,5,55.00000,52.00000,49.00000,82,66,60,0.21000,0.29000,0.08000
2016,5,50.00000,48.00000,45.00000,112,108,100,0.00000,0.01000,0.04000
2016,5,53.00000,50.00000,47.00000,154,128,119,0.00000,0.00000,0.00000
2016,5,57.00000,51.00000,49.00000,167,135,115,0.00000,0.00000,0.07000
2016,5,58.00000,55.00000,54.00000,184,159,152,0.21000,0.23000,0.06000
2016,5,61.00000,57.00000,54.00000,85,95,76,0.02000,0.02000,0.20000
2016,5,51.00000,48.00000,45.00000,120,99,110,0.36000,0.45000,0.39000
2016,5,45.00000,42.00000,39.00000,70,59,66,0.00000,0.02000,0.00000
2016,5,50.00000,46.00000,45.00000,169,142,145,0.00000,0.00000,0.01000
2016,5,52.00000,48.00000,47.00000,122,121,130,0.00000,0.03000,0.07000
2016,5,50.00000,48.00000,45.00000,124,114,138,0.00000,0.00000,0.01000
2016,5,51.00000,48.00000,44.00000,153,109,91,0.00000,0.00000,0.12000
2016,5,52.00000,49.00000,45.00000,138,110,108,0.02000,0.04000,0.00000
2016,5,55.00000,51.00000,49.00000,205,171,192,0.00000,0.00000,0.00000
2016,5,59.00000,55.00000,54.00000,153,144,142,0.00000,0.00000,0.00000
2016,5,58.00000,55.00000,52.00000,222,203,202,0.03000,0.03000,0.13000
2016,5,57.00000,52.00000,50.00000,196,167,178,0.00000,0.00000,0.00000
2016,6,60.00000,55.00000,54.00000,194,173,181,0.00000,0.00000,0.00000
2016,6,65.00000,59.00000,59.00000,156,146,151,0.00000,0.00000,0.00000
2016,6,64.00000,59.00000,58.00000,192,170,185,0.00000,0.00000,0.00000
2016,6,68.00000,61.00000,61.00000,201,177,184,0.00000,0.00000,0.00000
2016,6,72.00000,63.00000,65.00000,197,182,187,0.00000,0.00000,0.00000
2016,6,75.00000,68.00000,68.00000,138,143,127,0.00000,0.00000,0.00000
2016,6,70.00000,65.00000,63.00000,175,167,168,0.00000,0.00000,0.00000
2016,6,71.00000,64.00000,63.00000,193,177,180,0.00000,0.00000,0.01000
2016,6,73.00000,65.00000,65.00000,165,153,163,0.00000,0.00000,0.00000
2016,6,70.00000,62.00000,61.00000,85,96,93,0.00000,0.00000,0.00000
2016,6,60.00000,56.00000,54.00000,46,56,48,0.20000,0.24000,0.25000
2016,6,59.00000,56.00000,54.00000,202,212,193,0.02000,0.02000,0.02000
2016,6,55.00000,52.00000,49.00000,44,62,59,0.10000,0.13000,0.15000
2016,6,63.00000,57.00000,55.00000,161,187,170,0.00000,0.00000,0.03000
2016,6,71.00000,68.00000,63.00000,190,174,185,0.00000,0.00000,0.00000
2016,6,61.00000,57.00000,54.00000,193,173,183,0.00000,0.00000,0.00000
2016,6,67.00000,60.00000,59.00000,188,178,188,0.00000,0.00000,0.00000
2016,6,70.00000,63.00000,62.00000,161,171,166,0.00000,0.00000,0.00000
2016,6,67.00000,61.00000,59.00000,189,179,189,0.00000,0.00000,0.00000
2016,6,76.00000,67.00000,66.00000,184,185,193,0.00000,0.00000,0.00000
2016,6,75.00000,66.00000,66.00000,178,182,189,0.00000,0.00000,0.00000
2016,6,74.00000,66.00000,65.00000,178,182,190,0.00000,0.00000,0.00000
2016,6,75.00000,67.00000,66.00000,167,171,190,0.00000,0.00000,0.00000
2016,6,70.00000,63.00000,61.00000,174,174,185,0.00000,0.00000,0.00000
2016,6,61.00000,55.00000,53.00000,176,169,179,0.00000,0.00000,0.00000
2016,6,68.00000,60.00000,58.00000,171,173,183,0.00000,0.00000,0.00000
2016,6,78.00000,66.00000,65.00000,161,173,184,0.00000,0.00000,0.00000
2016,6,80.00000,71.00000,69.00000,162,185,184,0.00000,0.00000,0.00000
2016,6,76.00000,69.00000,66.00000,116,135,127,0.00000,0.00000,0.00000
2016,6,72.00000,67.00000,63.00000,122,116,116,0.00000,0.00000,0.00000
2016,7,69.00000,64.00000,61.00000,149,164,152,0.00000,0.00000,0.00000
2016,7,70.00000,64.00000,61.00000,162,173,170,0.00000,0.00000,0.00000
2016,7,73.00000,66.00000,64.000,163,158,161,0.00000,0.00000,0.00000
2016,7,75.00000,68.00000,65.000,137,161,158,0.00000,0.00000,0.00000
2016,7,73.00000,66.00000,63.000,162,162,178,0.00000,0.00000,0.00000
2016,7,70.00000,63.00000,61.000,165,164,177,0.00000,0.00000,0.00000
2016,7,69.00000,63.00000,60.000,163,163,179,0.00000,0.00000,0.00000
2016,7,76.00000,68.00000,65.000,141,158,166,0.00000,0.00000,0.00000
2016,7,78.00000,73.00000,70.000,137,136,158,0.00000,0.00000,0.00000
2016,7,70.00000,67.00000,65.0000,126,137,134,0.00000,0.00000,0.00000
2016,7,56.00000,51.00000,49.0000,161,150,172,0.00000,0.00000,0.00000
2016,7,66.00000,58.00000,56.0000,151,151,176,0.00000,0.00000,0.00000
2016,7,68.00000,61.00000,58.0000,153,151,179,0.00000,0.00000,0.00000
2016,7,72.00000,64.00000,61.00000,148,150,180,0.00000,0.00000,0.00000
2016,7,75.00000,66.00000,64.00000,116,146,150,0.00000,0.00000,0.00000
2016,7,74.00000,66.00000,63.00000,150,155,192,0.00000,0.00000,0.00000
2016,7,76.00000,67.00000,63.00000,119,140,157,0.00000,0.00000,0.00000
2016,7,78.00000,71.00000,67.00000,130,131,143,0.00000,0.00000,0.00000
2016,7,78.00000,71.00000,68.00000,149,152,188,0.00000,0.00000,0.00000
2016,7,79.00000,71.00000,67.00000,147,146,178,0.00000,0.00000,0.00000
2016,7,81.00000,72.00000,69.00000,143,150,186,0.00000,0.00000,0.00000
2016,7,80.00000,71.00000,68.00000,99,101,140,0.00000,0.00000,0.00000
2016,7,73.00000,65.00000,63.00000,136,139,176,0.00000,0.00000,0.00000
2016,7,74.00000,65.00000,63.00000,134,138,177,0.00000,0.00000,0.00000
2016,7,79.00000,70.00000,68.00000,125,137,176,0.00000,0.00000,0.00000
2016,7,79.00000,70.00000,68.00000,102,106,151,0.00000,0.00000,0.00000
2016,7,78.00000,69.00000,68.00000,126,133,175,0.00000,0.00000,0.00000
2016,7,79.00000,70.00000,69.00000,120,128,167,0.00000,0.00000,0.00000
2016,7,79.00000,70.00000,69.00000,125,131,171,0.00000,0.00000,0.00000
2016,7,78.00000,70.00000,68.00000,76,86,118,0.00000,0.00000,0.00000
2016,7,76.00000,69.00000,67.00000,133,136,164,0.00000,0.00000,0.00000
2016,8,77.00000,70.00000,68.00000,125,132,167,0.00000,0.00000,0.00000
2016,8,80.00000,71.00000,70.0000,121,140,95,0.00000,0.00000,0.00000
2016,8,76.00000,69.00000,68.0000,126,127,135,0.00000,0.00000,0.00000
2016,8,71.00000,64.00000,63.00000,110,117,155,0.00000,0.00000,0.00000
2016,8,72.00000,65.00000,63.00000,73,90,88,0.00000,0.00000,0.00000
2016,8,73.00000,66.00000,64.00000,87,94,120,0.00000,0.00000,0.00000
2016,8,75.00000,69.00000,66.00000,73,94,103,0.00000,0.00000,0.00000
2016,8,75.00000,68.00000,66.00000,114,123,159,0.00000,0.00000,0.00000
2016,8,79.00000,75.00000,70.00000,107,106,154,0.00000,0.00000,0.00000
2016,8,67.00000,61.00000,59.00000,66,80,91,0.17000,0.19000,0.13000
2016,8,67.00000,61.00000,58.00000,132,134,174,0.00000,0.00000,0.01000
2016,8,69.00000,61.00000,60.00000,119,114,151,0.00000,0.00000,0.00000
2016,8,71.00000,63.00000,61.00000,104,108,144,0.00000,0.00000,0.00000
2016,8,74.00000,65.00000,65.00000,104,111,149,0.00000,0.00000,0.00000
2016,8,75.00000,64.00000,64.00000,1,26,36,0.00000,0.00000,0.00000
2016,8,75.00000,67.00000,66.00000,99,118,144,0.00000,0.00000,0.00000
2016,8,75.00000,66.00000,66.00000,74,85,112,0.00000,0.00000,0.00000
2016,8,73.00000,64.00000,63.00000,61,63,89,0.00000,0.00000,0.00000
2016,8,71.00000,64.00000,63.00000,98,98,132,0.00000,0.00000,0.00000
2016,8,70.00000,61.00000,60.00000,87,90,128,0.00000,0.00000,0.00000
2016,8,73.00000,65.00000,64.00000,95,104,137,0.00000,0.00000,0.00000
2016,8,72.00000,64.00000,64.00000,80,91,123,0.00000,0.00000,0.00000
2016,8,69.00000,62.00000,61.00000,80,85,115,0.00000,0.00000,0.00000
2016,8,64.00000,57.00000,56.00000,95,102,123,0.00000,0.00000,0.00000
2016,8,65.00000,57.00000,56.00000,37,46,61,0.00000,0.00000,0.00000
2016,8,65.00000,58.00000,57.00000,75,76,95,0.00000,0.00000,0.00000
2016,8,66.00000,59.00000,58.00000,90,95,124,0.00000,0.00000,0.00000
2016,8,69.00000,62.00000,61.00000,87,92,122,0.00000,0.00000,0.00000
2016,8,73.00000,65.00000,65.00000,86,93,122,0.00000,0.00000,0.00000
2016,8,77.00000,67.00000,68.00000,79,92,123,0.00000,0.00000,0.00000
2016,8,77.00000,68.00000,68.00000,79,99,120,0.00000,0.00000,0.00000
2016,9,74.00000,68.00000,66.00000,69,88,94,0.00000,0.00000,0.00000
2016,9,73.00000,68.00000,66.00000,93,102,126,0.00000,0.00000,0.02000
2016,9,69.00000,64.00000,64.00000,76,80,100,0.00000,0.00000,0.00000
2016,9,63.00000,58.00000,57.00000,42,63,75,0.00000,0.01000,0.01000
2016,9,56.00000,52.00000,50.00000,92,101,124,0.00000,0.00000,0.01000
2016,9,60.00000,54.00000,53.00000,82,92,115,0.00000,0.00000,0.00000
2016,9,62.00000,56.00000,55.00000,78,88,114,0.00000,0.00000,0.00000
2016,9,63.00000,56.00000,56.00000,77,85,114,0.00000,0.00000,0.00000
2016,9,60.00000,53.00000,52.00000,70,78,108,0.00000,0.00000,0.00000
2016,9,61.00000,53.00000,54.00000,62,77,102,0.00000,0.00000,0.00000
2016,9,71.00000,64.00000,64.00000,66,85,106,0.00000,0.00000,0.00000
2016,9,69.00000,64.00000,62.00000,75,82,98,0.00000,0.01000,0.00000
2016,9,60.00000,57.00000,53.00000,89,113,135,0.21000,0.21000,0.26000
2016,9,54.00000,51.00000,47.00000,75,96,76,0.15000,0.17000,0.15000
2016,9,51.00000,48.00000,45.00000,63,69,54,0.00000,0.00000,0.00000
2016,9,54.00000,49.00000,48.00000,75,82,99,0.00000,0.00000,0.01000
2016,9,58.00000,53.00000,51.00000,70,82,88,0.00000,0.00000,0.00000
2016,9,66.00000,58.00000,58.00000,60,78,83,0.00000,0.00000,0.00000
2016,9,70.00000,61.00000,62.00000,52,74,78,0.00000,0.00000,0.00000
2016,9,69.00000,61.00000,62.00000,42,67,68,0.00000,0.00000,0.00000
2016,9,66.00000,61.00000,60.00000,60,86,84,0.00000,0.00000,0.00000
2016,9,57.00000,55.00000,53.00000,78,93,88,0.93000,1.13000,1.06000
2016,9,43.00000,41.00000,38.00000,16,19,19,0.64000,0.68000,0.78000
2016,9,46.00000,43.00000,40.00000,29,32,51,0.62000,0.75000,1.08000
2016,9,51.00000,46.00000,45.00000,67,74,80,0.00000,0.00000,0.02000
2016,9,55.00000,50.00000,50.00000,63,75,73,0.00000,0.00000,0.00000
2016,9,59.00000,54.00000,53.00000,59,75,69,0.00000,0.00000,0.00000
2016,9,64.00000,58.00000,57.00000,72,97,75,0.03000,0.06000,0.00000
2016,9,63.00000,57.00000,56.00000,73,80,64,0.00000,0.00000,0.02000
2016,9,63.00000,57.00000,56.00000,64,78,68,0.00000,0.00000,0.00000
2016,10,64.00000,59.00000,57.00000,69,94,75,0.00000,0.01000,0.00000
2016,10,64.00000,60.00000,57.00000,69,83,67,0.09000,0.10000,0.08000
2016,10,46.00000,44.00000,38.00000,-16,11,21,0.04000,0.11000,0.41000
2016,10,43.00000,39.00000,35.00000,52,91,68,0.00000,0.00000,0.02000
2016,10,40.00000,37.00000,34.00000,7,42,26,0.12000,0.17000,0.27000
2016,10,41.00000,36.00000,33.00000,35,52,63,0.00000,0.01000,0.04000
2016,10,48.00000,42.00000,39.00000,38,68,61,0.00000,0.00000,0.00000
2016,10,52.00000,46.00000,45.00000,17,48,40,0.00000,0.00000,0.00000
2016,10,57.00000,50.00000,50.00000,33,69,57,0.00000,0.00000,0.00000
2016,10,60.00000,54.00000,54.00000,36,66,51,0.00000,0.00000,0.00000
2016,10,57.00000,52.00000,50.00000,-2,16,8,0.00000,0.00000,0.00000
2016,10,50.00000,45.00000,44.00000,11,44,41,0.00000,0.00000,0.00000
2016,10,57.00000,51.00000,52.00000,30,64,50,0.00000,0.00000,0.00000
2016,10,68.000,63.00000,59.00000,-28,-14,-11,0.00000,0.00000,0.00000
2016,10,64.000,60.00000,57.00000,25,42,33,0.00000,0.00000,0.00000
2016,10,57.000,53.00000,50.00000,6,19,17,0.00000,0.04000,0.00000
2016,10,46.000,41.00000,38.00000,31,37,22,0.34000,0.38000,0.56000
2016,10,43.000,39.00000,36.00000,-2,16,21,0.00000,0.00000,0.01000
2016,10,41.000,37.00000,34.00000,35,68,26,0.12000,0.09000,0.10000
2016,10,42.000,38.00000,37.00000,10,44,22,0.00000,0.00000,0.00000
2016,10,50.000,45.00000,47.00000,12,55,32,0.00000,0.00000,0.00000
2016,10,56.000,52.00000,53.00000,14,53,28,0.00000,0.00000,0.00000
2016,10,61.000,56.00000,56.00000,-6,23,9,0.00000,0.00000,0.00000
2016,10,58.000,54.00000,50.00000,-12,1,15,0.03000,0.09000,0.23000
2016,10,56.000,52.00000,48.00000,35,65,11,0.00000,0.00000,0.00000
2016,10,53.000,49.00000,48.00000,3,45,21,0.00000,0.00000,0.00000
2016,10,63.00000,58.00000,56.00000,3,36,17,0.00000,0.00000,0.00000
2016,10,61.00000,59.00000,56.00000,18,38,46,0.13000,0.19000,0.20000
2016,10,58.00000,55.00000,51.00000,24,52,44,0.00000,0.00000,0.01000
2016,10,64.00000,62.00000,57.00000,-19,-11,-3,0.00000,0.01000,0.01000
2016,10,45.00000,42.00000,38.00000,33,77,52,0.49000,0.57000,0.72000
2016,11,43.00000,39.00000,38.00000,-6,11,27,0.04000,0.05000,0.05000
2016,11,41.00000,37.00000,35.00000,-11,31,39,0.00000,0.00000,0.02000
2016,11,44.00000,39.00000,41.00000,-13,31,6,0.00000,0.00000,0.00000
2016,11,48.00000,43.00000,45.00000,-10,30,10,0.00000,0.00000,0.00000
2016,11,49.00000,43.00000,43.00000,-12,35,6,0.00000,0.00000,0.00000
2016,11,51.00000,45.00000,45.00000,-8,35,6,0.00000,0.00000,0.00000
2016,11,50.00000,44.00000,44.00000,-15,32,2,0.00000,0.00000,0.00000
2016,11,52.00000,45.00000,45.00000,-17,32,3,0.00000,0.00000,0.00000
2016,11,52.00000,45.00000,45.00000,-19,31,2,0.00000,0.00000,0.00000
2016,11,50.00000,44.00000,46.00000,-19,29,1,0.00000,0.00000,0.00000
2016,11,53.00000,45.00000,45.00000,-23,28,-2,0.00000,0.00000,0.00000
2016,11,51.00000,46.00000,46.00000,-18,25,4,0.00000,0.00000,0.00000
2016,11,48.00000,43.00000,42.00000,-20,28,-4,0.00000,0.00000,0.00000
2016,11,51.00000,44.00000,44.00000,-27,24,-7,0.00000,0.00000,0.00000
2016,11,58.00000,51.00000,50.00000,-40,16,-14,0.00000,0.00000,0.00000
2016,11,46.00000,43.00000,42.00000,-11,7,-9,0.06000,0.08000,0.06000
2016,11,29.00000,27.00000,24.00000,1,-26,19,0.12000,0.14000,0.13000
2016,11,31.00000,26.00000,23.00000,-26,2,10,0.00000,0.00000,0.02000
2016,11,46.00000,43.00000,42.00000,-17,21,-11,0.00000,0.00000,0.00000
2016,11,54.00000,51.00000,48.00000,-15,-1,3,0.01000,0.02000,0.05000
2016,11,42.00000,40.00000,37.00000,15,23,17,1.03000,1.13000,1.00000
2016,11,35.00000,32.00000,29.00000,23,48,-33,0.02000,0.03000,0.08000
2016,11,37.00000,34.00000,30.00000,10,29,0,0.44000,0.82000,0.89000
2016,11,29.00000,26.00000,24.00000,-38,-3,-16,0.06000,0.02000,0.02000
2016,11,36.00000,29.00000,29.00000,-56,-19,-44,0.00000,0.00000,0.00000
2016,11,43.00000,39.00000,36.00000,-21,-15,-28,0.00000,0.00000,0.00000
2016,11,34.00000,32.00000,29.00000,8,-7,-9,0.14000,0.35000,0.79000
2016,11,28.00000,27.00000,24.00000,0,-2,0,0.78000,1.35000,1.62000
2016,11,24.00000,21.00000,18.00000,-35,-7,5,0.00000,0.00000,0.01000
2016,11,24.00000,21.00000,20.00000,-30,-14,7,0.00000,0.00000,0.00000
2016,12,26.00000,24.00000,21.00000,-5,-11,-3,0.02000,0.03000,0.03000
2016,12,22.00000,18.00000,17.00000,-72,12,41,0.00000,0.00000,0.02000
2016,12,25.00000,22.00000,20.00000,-10,3,3,0.00000,0.00000,0.00000
2016,12,32.00000,28.00000,28.00000,-22,14,2,0.00000,0.00000,0.00000
2016,12,26.00000,24.00000,19.00000,-48,-12,-21,0.03000,0.04000,0.06000
2016,12,19.00000,15.00000,14.00000,-32,-5,-2,0.02000,0.03000,0.05000
2016,12,16.00000,12.00000,10.00000,-33,4,7,0.02000,0.04000,0.05000
2016,12,22.00000,19.00000,19.00000,-7,3,2,0.00000,0.00000,0.05000
2016,12,38.00000,35.00000,34.00000,4,9,-3,0.02000,0.03000,0.11000
2016,12,39.00000,36.00000,34.00000,9,9,1,0.78000,1.09000,1.47000
2016,12,31.00000,30.00000,26.00000,-42,-23,-7,0.15000,0.13000,0.12000
2016,12,28.00000,25.00000,22.00000,-67,-21,16,0.00000,0.01000,0.02000
2016,12,28.00000,25.00000,22.00000,-22,-13,-11,0.00000,0.00000,0.00000
2016,12,34.00000,32.00000,31.00000,9,9,-2,0.06000,0.07000,0.20000
2016,12,48.00000,44.00000,41.00000,0,11,5,0.01000,0.00000,0.01000
2016,12,37.00000,36.00000,32.00000,-5,12,8,0.35000,0.72000,1.42000
2016,12,14.00000,13.00000,10.00000,-24,-18,-3,0.02000,0.06000,0.07000
2016,12,10.00000,7.00000,6.00000,-71,-22,13,0.01000,0.00000,0.02000
2016,12,16.00000,13.00000,15.00000,-47,-21,16,0.03000,0.00000,0.00000
2016,12,27.00000,27.00000,31.00000,-19,3,4,0.00000,0.00000,0.00000
2016,12,29.00000,28.00000,28.00000,4,5,6,0.03000,0.02000,0.00000
2016,12,26.00000,25.00000,26.00000,13,25,21,0.00000,0.00000,0.00000
2016,12,31.00000,29.00000,29.00000,-15,23,2,0.02000,0.04000,0.06000
2016,12,37.00000,35.00000,33.00000,19,19,12,0.26000,0.25000,0.22000
2016,12,20.00000,18.00000,16.00000,4,-11,-11,0.58000,1.07000,0.96000
2016,12,14.00000,11.00000,11.00000,18,3,1,0.02000,0.02000,0.02000
2016,12,20.00000,17.00000,20.00000,16,-10,-11,0.00000,0.00000,0.00000
2016,12,27.00000,25.00000,25.00000,-44,-15,-9,0.02000,0.00000,0.00000
2016,12,25.00000,20.00000,23.00000,-69,-13,24,0.00000,0.00000,0.00000
2016,12,25.00000,24.00000,30.00000,-60,-24,-9,0.00000,0.00000,0.00000
2016,12,16.00000,16.00000,21.00000,-12,-12,-38,0.00000,0.00000,0.00000
2017,1,19.00000,20.00000,25.00000,-17,8,-30,0.00000,0.00000,0.01000
2017,1,22.00000,21.00000,19.00000,1,-14,-8,0.53000,0.66000,0.65000
2017,1,26.00000,25.00000,23.00000,-22,-21,-16,0.05000,0.05000,0.06000
2017,1,34.00000,33.00000,30.00000,0,1,-1,0.28000,0.46000,0.76000
2017,1,12.00000,11.00000,10.00000,-19,-26,-16,0.16000,0.18000,0.17000
2017,1,5.00000,0.00000,1.00000,-45,-25,14,0.00000,0.00000,0.02000
2017,1,16.00000,15.00000,21.00000,14,-20,-10,0.02000,0.03000,0.02000
2017,1,37.00000,36.00000,35.00000,13,10,7,0.11000,0.18000,0.41000
2017,1,42.00000,40.00000,36.00000,6,7,8,0.14000,0.18000,0.33000
2017,1,38.00000,36.00000,32.00000,-7,0,3,0.00000,0.00000,0.05000
2017,1,35.00000,34.00000,31.00000,2,-8,-5,0.34000,0.55000,0.80000
2017,1,30.00000,29.00000,27.00000,6,-6,-13,0.06000,0.07000,0.11000
2017,1,29.00000,29.00000,28.00000,5,16,-2,0.00000,0.00000,0.00000
2017,1,26.00000,25.00000,25.00000,-11,3,-31,0.00000,0.00000,0.02000
2017,1,22.00000,20.00000,19.00000,-13,-12,-23,0.00000,0.01000,0.01000
2017,1,19.00000,17.00000,12.00000,-29,-13,-17,0.00000,0.00000,0.01000
2017,1,19.00000,16.00000,16.00000,-58,-7,-19,0.00000,0.00000,0.00000
2017,1,23.00000,21.00000,25.00000,-50,-15,-30,0.00000,0.00000,0.00000
2017,1,32.00000,31.00000,29.00000,-10,-12,-9,0.34000,0.46000,0.48000
2017,1,30.00000,28.00000,26.00000,-1,-8,-2,0.01000,0.01000,0.04000
2017,1,29.00000,28.00000,25.00000,-7,-12,-4,0.66000,0.94000,0.87000
2017,1,29.00000,26.00000,24.00000,-22,-6,11,0.06000,0.09000,0.24000
2017,1,33.00000,32.00000,28.00000,-6,0,-1,0.20000,0.43000,0.76000
2017,1,24.00000,22.00000,19.00000,-6,-12,-5,0.05000,0.09000,0.13000
2017,1,21.00000,19.00000,16.00000,0,-29,-19,0.17000,0.27000,0.30000
2017,1,20.00000,18.00000,15.00000,-15,-33,-17,0.11000,0.11000,0.28000
2017,1,14.00000,9.00000,8.00000,-71,-27,9,0.00000,0.00000,0.02000
2017,1,15.00000,11.00000,10.00000,-54,-9,7,0.00000,0.00000,0.00000
2017,1,17.00000,14.00000,19.00000,-50,18,-13,0.00000,0.00000,0.00000
2017,1,18.00000,18.00000,26.00000,-25,15,-33,0.00000,0.00000,0.00000
2017,1,22.00000,23.00000,32.00000,0,2,-12,0.00000,0.00000,0.00000
2017,2,35.00000,34.00000,35.00000,-28,-11,-19,0.00000,0.00000,0.00000
2017,2,35.00000,32.00000,32.00000,-2,3,-4,0.03000,0.05000,0.17000
2017,2,40.00000,37.00000,35.00000,-5,29,10,0.00000,0.00000,0.01000
2017,2,42.00000,39.00000,37.00000,-8,7,-10,0.01000,0.02000,0.03000
2017,2,42.00000,38.00000,38.00000,-14,1,-14,0.00000,0.00000,0.00000
2017,2,45.00000,43.00000,39.00000,0,0,-3,0.00000,0.00000,0.01000
2017,2,45.00000,43.00000,38.00000,2,4,8,0.00000,0.02000,0.22000
2017,2,46.00000,43.00000,40.00000,34,21,8,0.00000,0.00000,0.02000
2017,2,53.00000,47.00000,44.00000,18,32,31,0.00000,0.00000,0.01000
2017,2,49.00000,47.00000,41.00000,-5,21,16,0.44000,0.52000,0.74000
2017,2,35.00000,33.00000,31.00000,20,-20,-24,0.39000,0.40000,0.42000
2017,2,31.00000,29.00000,25.00000,9,-26,-47,0.00000,0.01000,0.01000
2017,2,28.00000,25.00000,25.00000,7,-20,-38,0.00000,0.00000,0.00000
2017,2,33.00000,29.00000,28.00000,15,-7,-29,0.00000,0.00000,0.00000
2017,2,37.00000,33.00000,33.00000,17,1,-25,0.00000,0.00000,0.00000
2017,2,44.00000,39.00000,38.00000,3,5,-7,0.00000,0.00000,0.00000
2017,2,42.00000,38.00000,36.00000,4,11,-5,0.02000,0.05000,0.04000
2017,2,45.00000,41.00000,38.00000,17,18,19,0.00000,0.00000,0.00000
2017,2,41.00000,38.00000,35.00000,21,35,19,0.15000,0.23000,0.49000
2017,2,44.00000,41.00000,38.00000,8,17,32,0.00000,0.00000,0.02000
2017,2,47.00000,45.00000,41.00000,34,47,12,0.31000,0.40000,0.48000
2017,2,31.00000,30.00000,27.00000,-2,-15,-30,0.32000,0.44000,0.58000
2017,2,24.00000,22.00000,20.00000,1,-8,-14,0.56000,0.98000,1.20000
2017,2,20.00000,18.00000,15.00000,-14,-37,-41,0.17000,0.31000,0.46000
2017,2,19.00000,15.00000,14.00000,-31,-27,-50,0.01000,0.03000,0.02000
2017,2,25.00000,21.00000,19.00000,-43,41,17,0.00000,0.00000,0.02000
2017,2,27.00000,26.00000,22.00000,-21,-18,-12,0.29000,0.38000,0.61000
2017,2,23.00000,20.00000,18.00000,3,-45,-40,0.03000,0.08000,0.11000
2017,3,27.00000,25.00000,21.00000,-26,-31,-34,0.00000,0.00000,0.01000
2017,3,32.00000,26.00000,24.00000,-45,-14,-24,0.00000,0.00000,0.00000
2017,3,40.00000,34.00000,32.00000,-15,-1,-14,0.00000,0.00000,0.00000
2017,3,49.00000,46.00000,43.00000,26,14,6,0.00000,0.00000,0.00000
2017,3,44.00000,43.00000,38.00000,71,26,13,0.30000,0.74000,0.98000
2017,3,26.00000,24.00000,20.00000,-13,22,0,0.00000,0.00000,0.02000
2017,3,34.00000,32.00000,28.00000,-6,15,-7,0.00000,0.00000,0.00000
2017,3,44.00000,40.00000,38.00000,58,22,14,0.00000,0.00000,0.00000
2017,3,47.00000,41.00000,40.00000,68,36,9,0.00000,0.00000,0.00000
2017,3,49.00000,44.00000,41.00000,52,50,25,0.00000,0.00000,0.00000
2017,3,45.00000,41.00000,38.00000,61,59,14,0.00000,0.00000,0.00000
2017,3,45.00000,41.00000,39.00000,63,58,8,0.00000,0.00000,0.00000
2017,3,48.00000,42.00000,39.00000,68,79,18,0.00000,0.00000,0.00000
2017,3,55.00000,48.00000,44.00000,66,77,26,0.00000,0.00000,0.00000
2017,3,58.00000,52.00000,45.00000,68,76,35,0.00000,0.00000,0.00000
2017,3,56.00000,52.00000,45.00000,66,71,39,0.00000,0.00000,0.00000
2017,3,55.00000,49.00000,44.00000,71,76,38,0.00000,0.00000,0.00000
2017,3,62.00000,57.00000,50.00000,77,90,59,0.00000,0.00000,0.00000
2017,3,56.00000,54.00000,47.00000,55,59,42,0.00000,0.00000,0.00000
2017,3,58.00000,54.00000,47.00000,38,44,42,0.00000,0.00000,0.00000
2017,3,62.00000,61.00000,52.00000,65,63,57,0.00000,0.00000,0.00000
2017,3,51.00000,48.00000,42.00000,38,42,50,0.13000,0.19000,0.25000
2017,3,35.00000,34.00000,32.00000,18,-2,-29,1.30000,1.43000,1.10000
2017,3,41.00000,37.00000,32.00000,114,88,43,0.00000,0.02000,0.03000
2017,3,39.00000,37.00000,34.00000,27,27,4,0.51000,0.59000,0.41000
2017,3,40.00000,37.00000,32.00000,117,117,43,0.00000,0.01000,0.03000
2017,3,39.00000,37.00000,34.00000,25,30,13,0.41000,0.46000,0.41000
2017,3,39.00000,37.00000,34.00000,102,103,34,0.00000,0.01000,0.02000
2017,3,42.00000,39.00000,35.00000,109,99,38,0.00000,0.00000,0.00000
2017,3,45.00000,43.00000,39.00000,37,50,37,0.18000,0.18000,0.20000
2017,3,44.00000,42.00000,39.00000,49,57,55,0.02000,0.03000,0.03000
2017,4,47.00000,45.00000,40.00000,113,98,70,0.00000,0.00000,0.01000
2017,4,41.00000,38.00000,35.00000,30,25,27,0.24000,0.37000,0.54000
2017,4,38.00000,35.00000,32.00000,97,128,92,0.00000,0.01000,0.02000
2017,4,34.00000,31.00000,28.00000,94,77,56,0.00000,0.00000,0.00000
2017,4,41.00000,37.00000,35.00000,116,97,93,0.00000,0.00000,0.00000
2017,4,56.00000,52.00000,49.00000,94,98,107,0.00000,0.00000,0.00000
2017,4,60.00000,58.00000,53.00000,-9,-4,12,0.00000,0.00000,0.00000
2017,4,40.00000,39.00000,35.00000,83,80,25,0.76000,1.00000,1.28000
2017,4,31.00000,29.00000,25.00000,-30,-66,-20,0.28000,0.43000,0.39000
2017,4,39.00000,34.00000,31.00000,75,42,16,0.00000,0.00000,0.01000
2017,4,48.00000,43.00000,39.00000,62,64,20,0.00000,0.00000,0.00000
2017,4,55.00000,49.00000,45.00000,128,120,97,0.00000,0.00000,0.00000
2017,4,58.00000,55.00000,52.00000,147,137,122,0.00000,0.00000,0.00000
2017,4,42.00000,41.00000,36.00000,-3,87,77,0.00000,0.00000,0.00000
2017,4,40.00000,37.00000,34.00000,0,120,112,0.00000,0.00000,0.00000
2017,4,52.00000,48.00000,47.00000,0,135,114,0.00000,0.00000,0.00000
2017,4,58.00000,56.00000,52.00000,0,119,107,0.00000,0.00000,0.00000
2017,4,49.00000,47.00000,44.00000,0,51,47,0.50000,0.67000,0.59000
2017,4,45.00000,42.00000,39.00000,0,130,138,0.08000,0.10000,0.11000
2017,4,44.00000,40.00000,38.00000,0,83,66,0.33000,0.38000,0.37000
2017,4,39.00000,37.00000,33.00000,0,120,70,0.23000,0.24000,0.19000
2017,4,45.00000,42.00000,38.00000,0,136,136,0.00000,0.00000,0.02000
2017,4,52.00000,48.00000,47.00000,0,107,91,0.00000,0.00000,0.00000
2017,4,42.00000,39.00000,37.00000,0,17,16,0.41000,0.54000,0.74000
2017,4,38.00000,35.00000,33.00000,0,76,4,0.62000,0.89000,0.94000
2017,4,42.00000,39.00000,35.00000,0,77,37,0.13000,0.15000,0.26000
2017,4,38.00000,37.00000,32.00000,0,87,27,0.25000,0.38000,0.63000
2017,4,33.00000,32.00000,28.00000,0,81,29,0.17000,0.26000,0.28000
2017,4,40.00000,37.00000,33.00000,0,169,66,0.00000,0.00000,0.00000
2017,4,46.000,43.00000,38.00000,0,120,86,0.01000,0.00000,0.00000
2017,5,49.000,45.00000,41.00000,0,122,152,0.01000,0.00000,0.01000
2017,5,49.000,46.00000,42.00000,0,88,109,0.01000,0.05000,0.08000
2017,5,50.00000,46.00000,44.00000,0,143,150,0.00000,0.00000,0.00000
2017,5,57.00000,52.00000,50.00000,0,148,154,0.00000,0.00000,0.00000
2017,5,66.00000,60.00000,60.00000,104,159,148,0.00000,0.00000,0.00000
2017,5,65.00000,61.00000,58.00000,93,80,43,0.01000,0.00000,0.00000
2017,5,62.00000,59.00000,56.00000,179,169,109,0.00000,0.00000,0.00000
2017,5,56.00000,53.00000,51.00000,118,117,80,0.04000,0.05000,0.00000
2017,5,58.00000,54.00000,52.00000,175,158,150,0.00000,0.00000,0.01000
2017,5,59.00000,55.00000,54.00000,110,123,138,0.00000,0.00000,0.00000
2017,5,62.00000,55.00000,55.00000,169,154,152,0.00000,0.00000,0.00000
2017,5,66.00000,62.00000,61.00000,164,146,146,0.00000,0.00000,0.00000
2017,5,43.00000,41.00000,38.00000,-7,91,115,0.00000,0.00000,0.00000
2017,5,49.00000,45.00000,45.00000,0,152,132,0.00000,0.00000,0.00000
2017,5,53.00000,50.00000,49.00000,0,140,114,0.00000,0.00000,0.00000
2017,5,49.00000,47.00000,44.00000,0,123,123,0.05000,0.08000,0.09000
2017,5,34.00000,33.00000,29.00000,0,57,9,0.56000,0.85000,1.09000
2017,5,36.00000,34.00000,30.00000,0,124,34,0.00000,0.02000,0.07000
2017,5,44.00000,41.00000,36.00000,0,93,98,0.00000,0.00000,0.00000
2017,5,50.00000,45.00000,43.00000,0,140,111,0.00000,0.00000,0.01000
2017,5,51.00000,48.00000,45.00000,0,92,89,0.19000,0.17000,0.09000
2017,5,55.00000,50.00000,49.00000,0,143,147,0.00000,0.00000,0.02000
2017,5,61.00000,54.00000,54.00000,0,162,167,0.00000,0.00000,0.00000
2017,5,65.00000,59.00000,58.00000,0,138,124,0.00000,0.00000,0.00000
2017,5,55.00000,51.00000,49.00000,0,114,123,0.00000,0.01000,0.02000
2017,5,53.00000,48.00000,47.00000,0,72,86,0.00000,0.00000,0.00000
2017,5,50.00000,46.00000,45.00000,0,160,148,0.00000,0.00000,0.01000
2017,5,59.00000,52.00000,53.00000,0,166,169,0.00000,0.00000,0.00000
2017,5,64.00000,56.00000,59.00000,0,176,175,0.00000,0.00000,0.00000
2017,5,67.00000,59.00000,60.00000,97,178,164,0.00000,0.00000,0.00000
2017,5,70.00000,62.00000,63.00000,179,171,154,0.00000,0.00000,0.00000
2017,6,64.00000,59.00000,58.00000,88,110,99,0.05000,0.11000,0.13000
2017,6,61.00000,55.00000,53.00000,189,193,201,0.00000,0.00000,0.02000
2017,6,69.00000,60.00000,62.00000,180,180,176,0.00000,0.00000,0.00000
2017,6,75.00000,66.00000,67.00000,157,180,160,0.00000,0.00000,0.00000
2017,6,67.00000,62.00000,61.00000,184,176,178,0.00000,0.00000,0.00000
2017,6,73.00000,64.00000,65.00000,178,177,180,0.00000,0.00000,0.00000
2017,6,77.00000,68.00000,68.00000,177,176,181,0.00000,0.00000,0.00000
2017,6,75.00000,69.00000,68.00000,154,148,158,0.00000,0.00000,0.00000
2017,6,66.00000,63.00000,62.00000,184,176,182,0.00000,0.00000,0.00000
2017,6,60.00000,56.00000,54.00000,177,170,183,0.00000,0.00000,0.00000
2017,6,69.00000,63.00000,61.00000,174,169,179,0.00000,0.00000,0.00000
2017,6,56.00000,53.00000,49.00000,78,71,62,0.00000,0.00000,0.00000
2017,6,48.00000,45.00000,42.00000,96,66,71,0.59000,0.81000,1.08000
2017,6,58.00000,53.00000,51.00000,191,181,202,0.00000,0.00000,0.01000
2017,6,65.00000,59.00000,58.00000,166,176,180,0.00000,0.00000,0.00000
2017,6,69.00000,62.00000,61.00000,187,186,200,0.00000,0.00000,0.00000
2017,6,65.00000,59.00000,57.00000,158,161,172,0.00000,0.00000,0.00000
2017,6,66.00000,59.00000,57.00000,188,183,197,0.00000,0.00000,0.00000
2017,6,72.00000,64.00000,63.00000,180,183,198,0.00000,0.00000,0.00000
2017,6,78.00000,69.00000,67.00000,168,194,193,0.00000,0.00000,0.00000
2017,6,78.00000,68.00000,67.00000,170,175,187,0.00000,0.00000,0.00000
2017,6,68.00000,61.00000,59.00000,176,175,190,0.00000,0.00000,0.00000
2017,6,66.00000,58.00000,57.00000,172,175,187,0.00000,0.00000,0.00000
2017,6,68.00000,59.00000,59.00000,171,175,187,0.00000,0.00000,0.00000
2017,6,74.00000,63.00000,63.00000,170,179,188,0.00000,0.00000,0.00000
2017,6,79.00000,67.00000,65.00000,156,166,179,0.00000,0.00000,0.00000
2017,6,73.00000,65.00000,62.00000,161,166,184,0.00000,0.00000,0.00000
2017,6,70.00000,62.00000,60.00000,165,170,181,0.00000,0.00000,0.00000
2017,6,67.00000,59.00000,57.00000,163,169,179,0.00000,0.00000,0.00000
2017,6,68.00000,59.00000,58.00000,159,164,175,0.00000,0.00000,0.00000
2017,7,72.00000,63.00000,61.00000,155,175,182,0.00000,0.00000,0.00000
2017,7,78.00000,67.00000,65.00000,147,162,186,0.00000,0.00000,0.00000
2017,7,77.00000,67.00000,65.00000,150,165,186,0.00000,0.00000,0.00000
2017,7,80.00000,68.00000,66.00000,152,166,184,0.00000,0.00000,0.00000
2017,7,83.00000,71.00000,68.00000,142,153,175,0.00000,0.00000,0.00000
2017,7,82.00000,69.00000,68.00000,140,157,177,0.00000,0.00000,0.00000
2017,7,82.00000,71.00000,69.00000,143,158,190,0.00000,0.00000,0.00000
2017,7,82.00000,73.00000,68.00000,157,170,164,0.00000,0.00000,0.00000
2017,7,79.00000,71.00000,67.00000,131,145,171,0.00000,0.00000,0.00000
2017,7,77.00000,69.00000,65.00000,108,124,127,0.00000,0.00000,0.00000
2017,7,74.00000,67.00000,64.00000,109,116,116,0.00000,0.00000,0.00000
2017,7,74.00000,67.00000,64.00000,135,144,166,0.00000,0.00000,0.00000
2017,7,75.00000,68.00000,65.00000,142,162,180,0.00000,0.00000,0.00000
2017,7,77.00000,70.00000,66.00000,126,141,156,0.00000,0.00000,0.00000
2017,7,79.00000,70.00000,66.00000,143,150,186,0.00000,0.00000,0.00000
2017,7,79.00000,71.00000,68.00000,145,154,194,0.00000,0.00000,0.00000
2017,7,76.00000,69.00000,66.00000,119,142,167,0.00000,0.00000,0.00000
2017,7,79.00000,70.00000,67.00000,150,157,187,0.00000,0.00000,0.01000
2017,7,77.00000,71.00000,67.00000,62,84,102,0.00000,0.00000,0.03000
2017,7,77.00000,70.00000,67.00000,108,109,143,0.00000,0.00000,0.01000
2017,7,76.00000,70.00000,66.00000,153,159,200,0.00000,0.01000,0.07000
2017,7,77.00000,69.00000,66.00000,115,150,166,0.00000,0.00000,0.00000
2017,7,77.00000,69.00000,66.00000,120,153,168,0.00000,0.00000,0.00000
2017,7,76.00000,70.00000,66.00000,112,134,168,0.00000,0.03000,0.08000
2017,7,67.00000,63.00000,60.00000,110,120,104,0.19000,0.21000,0.26000
2017,7,69.00000,65.00000,62.00000,192,185,192,1.33000,1.32000,0.78000
2017,7,70.00000,64.00000,61.00000,160,186,212,0.00000,0.00000,0.01000
2017,7,71.00000,64.00000,61.00000,101,99,122,0.00000,0.00000,0.00000
2017,7,72.00000,66.00000,63.00000,143,158,178,0.00000,0.00000,0.00000
2017,7,75.00000,67.00000,64.00000,144,163,164,0.00000,0.00000,0.00000
2017,7,78.00000,68.00000,67.00000,139,164,154,0.00000,0.00000,0.00000
2017,8,79.00000,68.00000,66.00000,122,139,163,0.00000,0.00000,0.00000
2017,8,77.00000,67.00000,65.00000,110,135,155,0.00000,0.00000,0.00000
2017,8,78.00000,68.00000,66.00000,120,152,168,0.00000,0.00000,0.00000
2017,8,75.00000,67.00000,65.00000,111,134,151,0.00000,0.00000,0.00000
2017,8,73.00000,66.00000,64.00000,121,142,164,0.00000,0.00000,0.00000
2017,8,71.00000,64.00000,62.00000,88,115,123,0.00000,0.00000,0.00000
2017,8,70.00000,64.00000,62.00000,89,104,124,0.06000,0.04000,0.00000
2017,8,67.00000,62.00000,61.00000,88,107,111,0.00000,0.01000,0.00000
2017,8,69.00000,64.00000,61.00000,119,141,148,0.00000,0.01000,0.00000
2017,8,70.00000,64.00000,60.00000,122,145,169,0.00000,0.00000,0.02000
2017,8,75.00000,67.00000,64.00000,113,135,160,0.00000,0.01000,0.00000
2017,8,75.00000,68.00000,65.00000,121,142,169,0.00000,0.00000,0.00000
2017,8,74.00000,67.00000,64.00000,102,120,149,0.01000,0.01000,0.03000
2017,8,67.00000,62.00000,60.00000,71,107,106,0.02000,0.02000,0.00000
2017,8,63.00000,59.00000,55.00000,117,131,158,0.00000,0.01000,0.02000
2017,8,67.00000,60.00000,57.00000,98,119,145,0.00000,0.00000,0.00000
2017,8,70.00000,63.00000,60.00000,107,129,153,0.00000,0.00000,0.00000
2017,8,71.00000,63.00000,61.00000,101,126,151,0.00000,0.00000,0.00000
2017,8,74.00000,65.00000,64.00000,99,134,157,0.00000,0.00000,0.00000
2017,8,74.00000,66.00000,64.00000,98,119,146,0.00000,0.00000,0.00000
2017,8,72.00000,64.00000,63.00000,74,97,120,0.00000,0.00000,0.00000
2017,8,71.00000,65.00000,63.00000,80,118,116,0.00000,0.00000,0.00000
2017,8,70.00000,63.00000,62.00000,61,93,98,0.00000,0.00000,0.00000
2017,8,71.00000,63.00000,61.00000,101,127,146,0.00000,0.00000,0.00000
2017,8,73.00000,65.00000,64.00000,83,115,124,0.00000,0.00000,0.00000
2017,8,76.00000,67.00000,67.00000,96,119,139,0.00000,0.00000,0.00000
2017,8,76.00000,67.00000,67.00000,85,112,136,0.00000,0.00000,0.00000
2017,8,76.00000,67.00000,67.00000,82,116,140,0.00000,0.00000,0.00000
2017,8,78.00000,68.00000,68.00000,64,94,117,0.00000,0.00000,0.00000
2017,8,75.00000,68.00000,67.00000,94,120,133,0.00000,0.00000,0.00000
2017,8,69.00000,64.00000,61.00000,63,79,68,0.00000,0.00000,0.00000
2017,9,70.00000,63.00000,61.00000,80,103,125,0.00000,0.00000,0.00000
2017,9,74.00000,65.00000,65.00000,76,105,126,0.00000,0.00000,0.00000
2017,9,76.00000,67.00000,67.00000,70,100,121,0.00000,0.00000,0.00000
2017,9,76.00000,67.00000,67.00000,66,100,120,0.00000,0.00000,0.00000
2017,9,76.00000,69.00000,69.00000,53,85,103,0.00000,0.00000,0.00000
2017,9,73.00000,64.00000,64.00000,37,73,89,0.00000,0.00000,0.00000
2017,9,72.00000,65.00000,65.00000,51,86,97,0.00000,0.00000,0.00000
2017,9,69.00000,63.00000,63.00000,61,93,90,0.00000,0.02000,0.00000
2017,9,65.00000,59.00000,59.00000,31,49,63,0.00000,0.02000,0.00000
2017,9,67.00000,61.00000,59.00000,76,100,115,0.00000,0.00000,0.02000
2017,9,72.00000,63.00000,64.00000,70,100,110,0.00000,0.00000,0.00000
2017,9,70.00000,63.00000,62.00000,65,95,104,0.00000,0.00000,0.00000
2017,9,68.00000,61.00000,61.00000,43,69,79,0.00000,0.01000,0.00000
2017,9,61.00000,57.00000,55.00000,16,28,28,0.05000,0.06000,0.02000
2017,9,51.00000,48.00000,45.00000,46,35,43,1.24000,1.44000,1.48000
2017,9,49.00000,45.00000,43.00000,61,111,118,0.01000,0.01000,0.04000
2017,9,56.00000,50.00000,49.00000,59,90,84,0.00000,0.00000,0.00000
2017,9,64.00000,59.00000,57.00000,70,88,91,0.00000,0.00000,0.00000
2017,9,49.00000,45.00000,43.00000,34,32,30,0.14000,0.17000,0.20000
2017,9,55.00000,51.00000,49.00000,66,92,100,0.00000,0.00000,0.00000
2017,9,44.00000,43.00000,42.00000,39,75,93,0.44000,0.43000,0.33000
2017,9,40.00000,37.00000,35.00000,63,81,70,0.13000,0.20000,0.28000
2017,9,39.00000,36.00000,35.00000,-1,41,47,0.29000,0.27000,0.27000
2017,9,40.00000,36.00000,33.00000,24,27,24,0.71000,0.69000,0.58000
2017,9,43.00000,39.00000,36.00000,71,80,62,0.00000,0.00000,0.02000
2017,9,50.00000,43.00000,42.00000,58,78,57,0.00000,0.00000,0.00000
2017,9,54.00000,47.00000,47.00000,53,82,70,0.00000,0.00000,0.00000
2017,9,55.00000,51.00000,50.00000,23,45,36,0.00000,0.00000,0.00000
2017,9,55.00000,50.00000,47.00000,51,73,61,0.00000,0.00000,0.00000
2017,9,53.00000,48.00000,46.00000,17,37,36,0.03000,0.07000,0.10000
