﻿Year,Water_Year_Day,ARBRC_Temperature,TMC_Temperature,KFC_Temperature,ARBRC_Radiation,TMC_Radiation,KFC_Radiation,ARBRC_Precipitation,TMC_Precipitation,KFC_Precipitation
2016,187,33.57451,31.12807,27.67031,94.15166667,77.00853125,55.67416667,0,0,0
2016,188,40.88261,37.00535,34.52240,116.4543958,96.73102083,93.34402083,0,0,0
2016,197,42.32343,40.56073,36.49391,-2.721770833,87.479625,77.06595833,0,0,0
2016,198,39.84266,36.94629,34.06923,0,119.6021875,112.2853125,0,0,0.01
2016,199,52.18379,48.20478,46.61214,0,134.7492708,113.6276979,0,0,0
2016,200,57.59563,55.62446,51.64458,0,118.9992396,106.5875833,0,0,0
2016,201,49.41937,46.78640,44.02205,0,50.59663542,46.67780208,1.28,1.71,1.5
2016,202,44.73585,42.26954,38.61909,0,130.4626771,137.5600417,0.2,0.25,0.27
2016,203,43.75522,40.16041,37.98088,0,82.94265625,65.53640625,0.84,0.97,0.95
2016,204,38.76397,36.57999,32.89012,0,120.3203438,69.60386458,0.59,0.6,0.49
2016,205,45.34739,41.63831,38.47734,0,135.6918542,136.0355208,0,0.01,0.04
2016,206,51.77735,47.67464,47.26303,0,106.5701042,91.36341667,0,0,0
2016,207,42.31767,38.96983,36.61033,0,17.3449375,16.12155208,1.05,1.36,1.89
2016,208,37.58624,35.08190,32.70082,0,76.27509375,3.698447917,1.58,2.25,2.38
2016,209,41.65919,39.17896,34.67983,0,76.97780208,36.67040625,0.34,0.39,0.65
2016,210,38.38361,36.55156,32.36396,0,86.74441667,26.5264375,0.64,0.97,1.59
2016,211,32.99443,31.56483,28.47373,0,81.314625,29.20009375,0.43,0.66,0.71
2016,212,40.15389,37.47434,32.86749,0,168.8262813,66.18911458,0,0,0
2016,213,50.17083,42.51733,37.69588,0,119.729375,86.2695,0,0,0
2016,214,50.17083,45.24329,41.31084,0,122.1074688,152.0004271,0,0,0.03
2016,215,50.17083,45.53986,42.10423,0,87.67648958,108.6513854,0.11,0.13,0.21
2016,216,50.17083,45.70177,43.74733,0,142.7103125,150.2601146,0.01,0.01,0.01
2016,217,57.34687,51.62401,50.12396,0,148.4452813,153.6490729,0,0,0
2016,218,66.20300,59.79916,59.69774,103.7090104,159.1414479,148.0550625,0,0,0
2016,219,65.42375,60.56881,58.45400,93.35658333,80.15182292,42.58390625,0.02,0.01,0
2016,222,58.29331,53.52502,51.61550,175.1457083,157.7353646,149.8421667,0,0.01,0.02
2016,226,43.30237,40.72224,38.48009,-7.090625,90.51811458,115.2661771,0,0,0
2016,227,49.00619,45.29073,44.93645,0,151.8978854,132.4593438,0,0.01,0
2016,228,53.29968,49.79066,49.24363,0,140.3239583,113.89375,0,0,0
2016,229,49.38217,46.80744,43.63220,0,123.4231979,123.3872917,0.13,0.2,0.22
2016,230,34.41684,32.84587,29.27606,0,56.69966667,8.60146875,1.43,2.15,2.78
2016,231,35.79155,33.97301,29.67296,0,123.5569271,33.89944792,0,0.04,0.19
2016,232,43.52244,41.01410,36.43822,0,92.78422917,98.05611458,0,0,0.01
2016,233,49.98048,45.38508,42.58882,0,140.2489583,110.9311354,0,0,0.03
2016,234,50.78744,47.59003,45.03359,0,91.55767708,88.85614583,0.48,0.43,0.22
2016,235,55.05354,50.17201,48.52807,0,142.7769167,147.1880104,0.01,0.01,0.04
2016,236,60.97606,54.42864,54.01867,0,161.6373958,167.0555208,0,0,0
2016,237,65.27656,59.42906,58.04334,0,137.6002708,124.4753021,0,0,0
2016,238,55.02425,51.41780,48.72191,0,114.2109271,123.32,0.01,0.03,0.06
2016,239,53.01406,48.34711,46.68892,0,72.21971875,85.69927083,0,0.01,0
2016,240,49.72955,46.27079,44.75467,0,160.18375,148.1822917,0,0.01,0.02
2016,241,58.94638,52.09473,53.26918,0,166.0175,169.3074271,0,0,0
2016,242,63.83656,56.46423,58.61489,0,176.2624792,175.1006458,0,0,0
2016,243,66.94747,58.87102,60.01567,97.08734375,177.9180521,164.3419063,0,0,0
