Year,Water_Year_Date,Julian_Date,ARBRC_Temperature,TMC_Temperature,KFC_Temperature,ARBRC_Radiation,TMC_Radiation,KFC_Radiation,ARBRC_Precipitation,TMc_Precipitation,KFC_Precipitation,ARBRC_Temperature_Before,TMC_Temperature_Before,KFC_Temperature_Before,ARBRC_Radiation_Before,TMC_Radiation_Before,KFC_Radiation_Before,ARBRC_Precipitation_Before,TMC_Precipitation_Before,KFC_Precipitation_Before,ARBRC_Temperature_After,TMC_Temperature_After,KFC_Temperature_After,ARBRC_Radiation_After,TMC_Radiation_After,KFC_Radiation_After,ARBRC_Precipitation_After,TMC_Precipitation_After,KFC_Precipitation_After
2015,77,350,21.50679,20.12746,16.09606485,8.72346875,-23.520625,4.987134488,0.49,0.84,0.548086957,22.71440,21.05293,18.48412,-9.344479167,-15.26813542,-20.46463542,0.23,0.42,0.47,21.29154,18.16537,17.44924483,-32.6354375,-14.76178125,4.876172748,0.01,0.01,0.567652174
2015,78,351,21.29154,18.16537,17.44924483,-32.6354375,-14.76178125,4.876172748,0.01,0.01,0.567652174,21.50679,20.12746,16.09606485,8.72346875,-23.520625,4.987134488,0.49,0.84,0.548086957,35.44886,32.33433,34.96668839,-47.80297917,-6.338458333,5.185925183,0,0,0.25426087
2015,79,352,35.44886,32.33433,34.96668839,-47.80297917,-6.338458333,5.185925183,0,0,0.25426087,21.29154,18.16537,17.44924483,-32.6354375,-14.76178125,4.876172748,0.01,0.01,0.567652174,41.11598,38.14475,40.26297463,-56.12270833,-29.49790625,4.830388405,0,0,0
2015,80,353,41.11598,38.14475,40.26297463,-56.12270833,-29.49790625,4.830388405,0,0,0,35.44886,32.33433,34.96668839,-47.80297917,-6.338458333,5.185925183,0,0,0.25426087,32.25189,30.57009,27.71510928,-11.79009375,-7.24128125,4.620600708,0.82,1.22,1.535342466
2015,81,354,32.25189,30.57009,27.71510928,-11.79009375,-7.24128125,4.620600708,0.82,1.22,1.535342466,41.11598,38.14475,40.26297463,-56.12270833,-29.49790625,4.830388405,0,0,0,33.62152,31.97639,29.44351244,2.2323125,-6.486791667,4.401564122,0,0.03,1.578082192
2015,82,355,33.62152,31.97639,29.44351244,2.2323125,-6.486791667,4.401564122,0,0.03,1.578082192,32.25189,30.57009,27.71510928,-11.79009375,-7.24128125,4.620600708,0.82,1.22,1.535342466,30.70670,29.79650,23.66290176,-8.923270833,-16.17038542,4.08671956,2.06,3.75,1.578082192
2015,83,356,30.70670,29.79650,23.66290176,-8.923270833,-16.17038542,4.08671956,2.06,3.75,1.578082192,33.62152,31.97639,29.44351244,2.2323125,-6.486791667,4.401564122,0,0.03,1.578082192,25.22966,23.60613,19.59641155,-10.10227083,-25.90551042,3.770447652,0.22,0.61,1.578082192
2015,84,357,25.22966,23.60613,19.59641155,-10.10227083,-25.90551042,3.770447652,0.22,0.61,1.578082192,30.70670,29.79650,23.66290176,-8.923270833,-16.17038542,4.08671956,2.06,3.75,1.578082192,23.73230,21.29504,18.82035232,-37.24208333,-10.5671875,3.546755899,0.35,0,0.741134819
2015,85,358,23.73230,21.29504,18.82035232,-37.24208333,-10.5671875,3.546755899,0.35,0,0.741134819,25.22966,23.60613,19.59641155,-10.10227083,-25.90551042,3.770447652,0.22,0.61,1.578082192,19.99951,17.96833,14.80549223,-19.57239583,-10.48960417,3.22710011,0.16,0.22,0.113243968
2015,86,359,19.99951,17.96833,14.80549223,-19.57239583,-10.48960417,3.22710011,0.16,0.22,0.113243968,23.73230,21.29504,18.82035232,-37.24208333,-10.5671875,3.546755899,0.35,0,0.741134819,11.65346,6.50750,10.07648754,-82.52854167,36.87977083,2.866217006,0,0,0.113243968
2015,87,360,11.65346,6.50750,10.07648754,-82.52854167,36.87977083,2.866217006,0,0,0.113243968,19.99951,17.96833,14.80549223,-19.57239583,-10.48960417,3.22710011,0.16,0.22,0.113243968,11.27999,5.66602,8.885368909,-69.00947917,41.23604167,2.64977374,0,0,0.113243968
2015,88,361,11.27999,5.66602,8.885368909,-69.00947917,41.23604167,2.64977374,0,0,0.113243968,11.65346,6.50750,10.07648754,-82.52854167,36.87977083,2.866217006,0,0,0.113243968,14.25746,12.48266,9.761795074,-9.3926875,-9.764135417,2.519092724,0.04,0.03,0.091375222
2015,89,362,14.25746,12.48266,9.761795074,-9.3926875,-9.764135417,2.519092724,0.04,0.03,0.091375222,11.27999,5.66602,8.885368909,-69.00947917,41.23604167,2.64977374,0,0,0.113243968,14.96096,13.22713,9.971059222,13.6088125,-15.70257292,2.35971817,0.18,0.17,0.174910587
2015,90,363,14.96096,13.22713,9.971059222,13.6088125,-15.70257292,2.35971817,0.18,0.17,0.174910587,14.25746,12.48266,9.761795074,-9.3926875,-9.764135417,2.519092724,0.04,0.03,0.091375222,16.10660,13.40921,10.81390202,3.136645833,-8.56025,2.217379401,0.09,0.1,0.133258427
2015,91,364,16.10660,13.40921,10.81390202,3.136645833,-8.56025,2.217379401,0.09,0.1,0.133258427,14.96096,13.22713,9.971059222,13.6088125,-15.70257292,2.35971817,0.18,0.17,0.174910587,11.15859,6.79083,10.14258142,-52.271875,23.122625,2.031210561,0,0,0.04
2015,92,365,11.15859,6.79083,10.14258142,-52.271875,23.122625,2.031210561,0,0,0.04,16.10660,13.40921,10.81390202,3.136645833,-8.56025,2.217379401,0.09,0.1,0.133258427,18.23579,17.00763,18.87580051,-91.04302083,62.20546875,12.67723361,0,0,0
2016,98,6,35.14715,33.24091,30.64393369,-2.027541667,-1.111895833,24.43701493,0.56,0.62,0.508599034,36.11885,34.20388,33.66613,15.408625,13.54367708,2.696875,0.05,0.08,0.08,30.87796,29.76213,25.6962725,16.30625,33.40735417,15.50788731,0.33,0.53,0.51942029
2016,99,7,30.87796,29.76213,25.6962725,16.30625,33.40735417,15.50788731,0.33,0.53,0.51942029,35.14715,33.24091,30.64393369,-2.027541667,-1.111895833,24.43701493,0.56,0.62,0.508599034,28.20093,27.28783,24.93608302,-10.01219792,-2.725885417,13.07600885,0.24,0.28,0.51942029
2016,100,8,28.20093,27.28783,24.93608302,-10.01219792,-2.725885417,13.07600885,0.24,0.28,0.51942029,30.87796,29.76213,25.6962725,16.30625,33.40735417,15.50788731,0.33,0.53,0.51942029,26.90465,25.47725,25.5932629,-19.88364583,-10.57366667,12.90279425,0.01,0.01,0.51942029
2016,101,9,26.90465,25.47725,25.5932629,-19.88364583,-10.57366667,12.90279425,0.01,0.01,0.51942029,28.20093,27.28783,24.93608302,-10.01219792,-2.725885417,13.07600885,0.24,0.28,0.51942029,22.08592,19.44907,17.62936185,-4.978979167,-3.029197917,-1.191286159,0.05,0.09,0.51942029
2016,102,10,22.08592,19.44907,17.62936185,-4.978979167,-3.029197917,-1.191286159,0.05,0.09,0.51942029,26.90465,25.47725,25.5932629,-19.88364583,-10.57366667,12.90279425,0.01,0.01,0.51942029,17.13037,12.79914,16.02048123,-72.03614583,-8.30403125,-5.104655137,0.01,0,0.51942029
2016,103,11,17.13037,12.79914,16.02048123,-72.03614583,-8.30403125,-5.104655137,0.01,0,0.51942029,22.08592,19.44907,17.62936185,-4.978979167,-3.029197917,-1.191286159,0.05,0.09,0.51942029,20.13665,15.95203,18.80624175,-61.80210417,-1.826291667,-1.774465772,0,0,0.51942029
2016,104,12,20.13665,15.95203,18.80624175,-61.80210417,-1.826291667,-1.774465772,0,0,0.51942029,17.13037,12.79914,16.02048123,-72.03614583,-8.30403125,-5.104655137,0.01,0,0.51942029,23.71070,22.44965,24.36587557,-39.31064583,-0.960979167,6.159041567,0,0,0.51942029
2016,105,13,23.71070,22.44965,24.36587557,-39.31064583,-0.960979167,6.159041567,0,0,0.51942029,20.13665,15.95203,18.80624175,-61.80210417,-1.826291667,-1.774465772,0,0,0.51942029,27.13528,24.59280,22.56919436,-22.22079167,-15.26777083,2.029028737,0.16,0.29,0.51942029
2016,106,14,27.13528,24.59280,22.56919436,-22.22079167,-15.26777083,2.029028737,0.16,0.29,0.51942029,23.71070,22.44965,24.36587557,-39.31064583,-0.960979167,6.159041567,0,0,0.51942029,27.83212,26.64978,23.55449019,-0.776427083,-5.277677083,2.503162283,0.65,0.91,0.51942029
2016,107,15,27.83212,26.64978,23.55449019,-0.776427083,-5.277677083,2.503162283,0.65,0.91,0.51942029,27.13528,24.59280,22.56919436,-22.22079167,-15.26777083,2.029028737,0.16,0.29,0.51942029,29.64013,27.94715,25.22011451,-4.1435,-7.930802083,4.143227234,0.4,0.58,0.51942029
2016,108,16,29.64013,27.94715,25.22011451,-4.1435,-7.930802083,4.143227234,0.4,0.58,0.51942029,27.83212,26.64978,23.55449019,-0.776427083,-5.277677083,2.503162283,0.65,0.91,0.51942029,33.85942,30.79233,28.75128074,-30.73373958,-18.69333333,8.935192391,0.07,0.12,0.51942029
2016,109,17,33.85942,30.79233,28.75128074,-30.73373958,-18.69333333,8.935192391,0.07,0.12,0.51942029,29.64013,27.94715,25.22011451,-4.1435,-7.930802083,4.143227234,0.4,0.58,0.51942029,34.08562,32.26175,29.22795344,2.279166667,2.073427083,8.676791328,1.56,1.81,0.51942029
2016,110,18,34.08562,32.26175,29.22795344,2.279166667,2.073427083,8.676791328,1.56,1.81,0.51942029,33.85942,30.79233,28.75128074,-30.73373958,-18.69333333,8.935192391,0.07,0.12,0.51942029,29.58296,27.79865,24.98570771,2.460739583,0.809302083,0.470067318,0.04,0.16,0.51942029
2016,111,19,29.58296,27.79865,24.98570771,2.460739583,0.809302083,0.470067318,0.04,0.16,0.51942029,34.08562,32.26175,29.22795344,2.279166667,2.073427083,8.676791328,1.56,1.81,0.51942029,30.14083,28.09114,24.35153969,-20.92883333,-6.215276042,-1.673835752,0.37,0.82,0.51942029
2016,112,20,30.14083,28.09114,24.35153969,-20.92883333,-6.215276042,-1.673835752,0.37,0.82,0.51942029,29.58296,27.79865,24.98570771,2.460739583,0.809302083,0.470067318,0.04,0.16,0.51942029,26.12263,21.17744,25.06705677,-64.23578125,-27.81813542,-1.495041602,0,0,0.51942029
2016,113,21,26.12263,21.17744,25.06705677,-64.23578125,-27.81813542,-1.495041602,0,0,0.51942029,30.14083,28.09114,24.35153969,-20.92883333,-6.215276042,-1.673835752,0.37,0.82,0.51942029,31.96308,28.13083,31.42332147,-44.32588542,-25.04691667,1.29923318,0,0,0.51942029
2016,114,22,31.96308,28.13083,31.42332147,-44.32588542,-25.04691667,1.29923318,0,0,0.51942029,26.12263,21.17744,25.06705677,-64.23578125,-27.81813542,-1.495041602,0,0,0.51942029,35.03499,32.27146,33.40524,-10.17972917,-4.4498125,0,0.89,1.2,0.51942029
2016,115,23,35.03499,32.27146,33.40524,-10.17972917,-4.4498125,0,0.89,1.2,0.51942029,31.96308,28.13083,31.42332147,-44.32588542,-25.04691667,1.29923318,0,0,0.51942029,29.52374,28.66066,26.65700,-10.65041667,-8.71375,0,0.53,0.78,0.51942029
2016,116,24,29.52374,28.66066,26.65700,-10.65041667,-8.71375,0,0.53,0.78,0.51942029,35.03499,32.27146,33.40524,-10.17972917,-4.4498125,0,0.89,1.2,0.51942029,25.06304,23.62925,21.59161,-26.21835417,-27.00109375,0,0.26,0.2,0.51942029
2016,117,25,25.06304,23.62925,21.59161,-26.21835417,-27.00109375,0,0.26,0.2,0.51942029,29.52374,28.66066,26.65700,-10.65041667,-8.71375,0,0.53,0.78,0.51942029,21.95699,18.40248,16.45627,-45.52871875,-0.559260417,0,0,0,0.51942029
2016,118,26,21.95699,18.40248,16.45627,-45.52871875,-0.559260417,0,0,0,0.51942029,25.06304,23.62925,21.59161,-26.21835417,-27.00109375,0,0.26,0.2,0.51942029,23.15851,19.53541,19.95504,-62.34648958,-11.95207292,-18.40697917,0,0,0.302995169
2016,119,27,23.15851,19.53541,19.95504,-62.34648958,-11.95207292,-18.40697917,0,0,0.302995169,21.95699,18.40248,16.45627,-45.52871875,-0.559260417,0,0,0,0.51942029,28.10392,25.16531,26.69930,-46.45759375,-10.69686458,-10.08045833,0,0,0.04
2016,128,36,26.12999,24.38529,25.82665,-31.93619792,-6.852916667,-45.76186884,0.24,0.26,0.36,21.60011,19.43600,18.21729,-1.99684375,-8.464822917,-7.399802083,0.1,0.13,0.19,27.80416,24.05473,23.83511,-51.241875,-17.51802083,25.83780208,0,0,0
2016,195,103,54.97162,50.35417,47.80355,113.48875,124.4307083,125.4967708,0,0,0.353742574,52.15897,47.99229,44.64046,142.2528125,117.4051458,109.4353125,0,0,0,50.22024,47.79238,44.18448,88.04908333,90.21027083,61.44077083,0.68,0.9,0.606415842
2016,196,104,50.22024,47.79238,44.18448,88.04908333,90.21027083,61.44077083,0.68,0.9,0.606415842,54.97162,50.35417,47.80355,113.48875,124.4307083,125.4967708,0,0,0.353742574,41.70039,39.51088,36.04445,14.51578125,20.8426875,14.9390625,1.218,1.452,0.606415842
2016,197,105,41.70039,39.51088,36.04445,14.51578125,20.8426875,14.9390625,1.218,1.452,0.606415842,50.22024,47.79238,44.18448,88.04908333,90.21027083,61.44077083,0.68,0.9,0.606415842,36.50341,34.15766,30.05836,90.78166667,95.42832292,22.46170833,0.37,0.4,0.606415842
2016,198,106,36.50341,34.15766,30.05836,90.78166667,95.42832292,22.46170833,0.37,0.4,0.606415842,41.70039,39.51088,36.04445,14.51578125,20.8426875,14.9390625,1.218,1.452,0.606415842,41.73021,39.06239,36.45198,128.8159375,125.9542604,115.6744479,0,0,0.606415842
2016,199,107,41.73021,39.06239,36.45198,128.8159375,125.9542604,115.6744479,0,0,0.606415842,36.50341,34.15766,30.05836,90.78166667,95.42832292,22.46170833,0.37,0.4,0.606415842,44.90324,43.12753,38.17658,141.5829167,131.5519792,128.4854792,0,0,0.606415842
2016,200,108,44.90324,43.12753,38.17658,141.5829167,131.5519792,128.4854792,0,0,0.606415842,41.73021,39.06239,36.45198,128.8159375,125.9542604,115.6744479,0,0,0.606415842,44.89668,42.86101,38.76523,126.1659479,112.0953854,92.38213542,0,0,0.606415842
2016,201,109,44.89668,42.86101,38.76523,126.1659479,112.0953854,92.38213542,0,0,0.606415842,44.90324,43.12753,38.17658,141.5829167,131.5519792,128.4854792,0,0,0.606415842,49.18053,46.15389,43.16171,155.7822188,139.5942708,135.6839583,0,0,0.606415842
2016,202,110,49.18053,46.15389,43.16171,155.7822188,139.5942708,135.6839583,0,0,0.606415842,44.89668,42.86101,38.76523,126.1659479,112.0953854,92.38213542,0,0,0.606415842,55.78374,50.38859,48.40012,147.7144792,138.7033333,119.9067708,0,0,0.606415842
2016,203,111,55.78374,50.38859,48.40012,147.7144792,138.7033333,119.9067708,0,0,0.606415842,49.18053,46.15389,43.16171,155.7822188,139.5942708,135.6839583,0,0,0.606415842,63.44150,56.68248,54.74405,146.2909479,132.1526146,124.3352604,0,0,0.606415842
2016,204,112,63.44150,56.68248,54.74405,146.2909479,132.1526146,124.3352604,0,0,0.606415842,55.78374,50.38859,48.40012,147.7144792,138.7033333,119.9067708,0,0,0.606415842,64.37375,59.64344,57.62158,132.0994792,129.568625,108.4302813,0,0,0.606415842
2016,205,113,64.37375,59.64344,57.62158,132.0994792,129.568625,108.4302813,0,0,0.606415842,63.44150,56.68248,54.74405,146.2909479,132.1526146,124.3352604,0,0,0.606415842,46.84381,45.35564,41.23301,83.26445833,86.97602083,83.54003125,2.95,3.7,0.606415842
2016,206,114,46.84381,45.35564,41.23301,83.26445833,86.97602083,83.54003125,2.95,3.7,0.606415842,64.37375,59.64344,57.62158,132.0994792,129.568625,108.4302813,0,0,0.606415842,45.53681,43.53869,36.59819,159.1485313,147.6751354,42.0906875,0.65,0.78,0.606415842
2016,207,115,45.53681,43.53869,36.59819,159.1485313,147.6751354,42.0906875,0.65,0.78,0.606415842,46.84381,45.35564,41.23301,83.26445833,86.97602083,83.54003125,2.95,3.7,0.606415842,45.57481,43.67690,38.01376,82.48659375,85.5623125,85.30103125,0.05,0.18,0.606415842
2016,208,116,45.57481,43.67690,38.01376,82.48659375,85.5623125,85.30103125,0.05,0.18,0.606415842,45.53681,43.53869,36.59819,159.1485313,147.6751354,42.0906875,0.65,0.78,0.606415842,41.46243,39.47921,35.32108,33.61767708,41.68869792,49.86119792,1.22,1.83,0.606415842
2016,209,117,41.46243,39.47921,35.32108,33.61767708,41.68869792,49.86119792,1.22,1.83,0.606415842,45.57481,43.67690,38.01376,82.48659375,85.5623125,85.30103125,0.05,0.18,0.606415842,44.39803,42.46816,36.69815,86.86863542,85.10166667,86.64286458,0.11,0.22,0.606415842
2016,210,118,44.39803,42.46816,36.69815,86.86863542,85.10166667,86.64286458,0.11,0.22,0.606415842,41.46243,39.47921,35.32108,33.61767708,41.68869792,49.86119792,1.22,1.83,0.606415842,42.84575,41.83211,36.64006,107.8310521,100.6547917,116.66025,0.03,0.01,0.606415842
2016,211,119,42.84575,41.83211,36.64006,107.8310521,100.6547917,116.66025,0.03,0.01,0.606415842,44.39803,42.46816,36.69815,86.86863542,85.10166667,86.64286458,0.11,0.22,0.606415842,42.80913,41.03214,36.71981,103.3205208,89.07072917,84.17182292,0.02,0.05,0.606415842
2016,212,120,42.80913,41.03214,36.71981,103.3205208,89.07072917,84.17182292,0.02,0.05,0.606415842,42.84575,41.83211,36.64006,107.8310521,100.6547917,116.66025,0.03,0.01,0.606415842,46.97701,44.80567,40.44838,128.8343229,120.9422604,162.91125,0,0,0.606415842
2016,213,121,46.97701,44.80567,40.44838,128.8343229,120.9422604,162.91125,0,0,0.606415842,42.80913,41.03214,36.71981,103.3205208,89.07072917,84.17182292,0.02,0.05,0.606415842,47.65873,45.94319,40.72751,162.2448958,137.1707188,152.5962708,0,0,0.606415842
2016,214,122,47.65873,45.94319,40.72751,162.2448958,137.1707188,152.5962708,0,0,0.606415842,46.97701,44.80567,40.44838,128.8343229,120.9422604,162.91125,0,0,0.606415842,50.28449,46.72396,43.31383,140.0926667,104.1148958,79.09642708,0,0,0.606415842
2016,215,123,50.28449,46.72396,43.31383,140.0926667,104.1148958,79.09642708,0,0,0.606415842,47.65873,45.94319,40.72751,162.2448958,137.1707188,152.5962708,0,0,0.606415842,54.20615,49.33940,47.51484,167.3582292,140.7557604,150.3952292,0,0,0.507940594
2016,216,124,54.20615,49.33940,47.51484,167.3582292,140.7557604,150.3952292,0,0,0.507940594,50.28449,46.72396,43.31383,140.0926667,104.1148958,79.09642708,0,0,0.606415842,62.71625,56.61151,56.58877,167.7315,149.7933854,143.5725833,0,0,0.02
2016,240,148,52.34718,48.89684,45.06710,137.7447917,109.7820208,108.3690417,0.04,0.11,0,50.99488,47.77121,43.70131,152.7783333,108.6264792,91.34316667,0,0.01,0.3,55.19609,51.45268,49.03618,204.5515938,171.4978125,191.5914583,0,0,0
2016,241,149,55.19609,51.45268,49.03618,204.5515938,171.4978125,191.5914583,0,0,0,52.34718,48.89684,45.06710,137.7447917,109.7820208,108.3690417,0.04,0.11,0,59.22050,55.08854,53.86873,153.0952396,143.748125,142.1300313,0,0.01,0
2016,242,150,59.22050,55.08854,53.86873,153.0952396,143.748125,142.1300313,0,0.01,0,55.19609,51.45268,49.03618,204.5515938,171.4978125,191.5914583,0,0,0,58.15411,54.57941,52.29328,222.0034271,203.1174792,201.7892188,0.08,0.08,0
2016,243,151,58.15411,54.57941,52.29328,222.0034271,203.1174792,201.7892188,0.08,0.08,0,59.22050,55.08854,53.86873,153.0952396,143.748125,142.1300313,0,0.01,0,56.63769,52.07953,50.39707,195.7327396,167.3598958,178.47125,0,0,0
2016,244,152,56.63769,52.07953,50.39707,195.7327396,167.3598958,178.47125,0,0,0,58.15411,54.57941,52.29328,222.0034271,203.1174792,201.7892188,0.08,0.08,0,60.27350,54.57200,53.73442,194.040625,172.7432292,180.9821875,0,0,0
2016,245,153,60.27350,54.57200,53.73442,194.040625,172.7432292,180.9821875,0,0,0,56.63769,52.07953,50.39707,195.7327396,167.3598958,178.47125,0,0,0,65.07388,58.66978,58.92397,155.6025729,146.2864479,151.28,0,0,0
2016,246,154,65.07388,58.66978,58.92397,155.6025729,146.2864479,151.28,0,0,0,60.27350,54.57200,53.73442,194.040625,172.7432292,180.9821875,0,0,0,63.91569,58.61984,57.98544,192.0042396,170.0285417,185.1731354,0,0,0
2016,247,155,63.91569,58.61984,57.98544,192.0042396,170.0285417,185.1731354,0,0,0,65.07388,58.66978,58.92397,155.6025729,146.2864479,151.28,0,0,0,68.28856,61.18719,61.37525,201.1635208,176.9435417,183.8259792,0,0,0
2016,248,156,68.28856,61.18719,61.37525,201.1635208,176.9435417,183.8259792,0,0,0,63.91569,58.61984,57.98544,192.0042396,170.0285417,185.1731354,0,0,0,72.08938,63.23675,64.53463,197.2200938,182.2465625,187.389375,0,0,0
2016,249,157,72.08938,63.23675,64.53463,197.2200938,182.2465625,187.389375,0,0,0,68.28856,61.18719,61.37525,201.1635208,176.9435417,183.8259792,0,0,0,75.24500,68.31556,67.55938,137.6176563,142.9399063,126.9053229,0,0,0
2016,250,158,75.24500,68.31556,67.55938,137.6176563,142.9399063,126.9053229,0,0,0,72.08938,63.23675,64.53463,197.2200938,182.2465625,187.389375,0,0,0,69.85850,64.53125,63.15350,175.1490729,167.2145104,167.6494792,0,0,0.02
2016,251,159,69.85850,64.53125,63.15350,175.1490729,167.2145104,167.6494792,0,0,0.02,75.24500,68.31556,67.55938,137.6176563,142.9399063,126.9053229,0,0,0,70.75438,63.72706,62.98231,193.3777188,177.1645521,180.3080938,0,0,0.03
