"","V1"
"1",-0.00123303296453566
"2",0.163672580175857
"3",0.215941174585291
"4",-0.00290961741054169
"5",0.00356621444603699
"6",0.00147889210996011
"7",0.00308027187629631
"8",0.00556405860014308
"9",-0.0000357937014920539
"10",0.00364879096540104
"11",0.00249812363383472
"12",0.00324798817195745
"13",0.00068285709214328
"14",0.00698725613725893
"15",0.0035873155280513
"16",0.128796824046095
"17",0.204259591350035
"18",0.00268958754265942
"19",0.0680518877579039
"20",0.00407657641353983
"21",0.0604651773095052
"22",0.00429634487829233
"23",0.00280155093036341
"24",0.0083516950494376
"25",0.00717043335726406
"26",0.00774379938091423
"27",0.0905326412339231
"28",0.00987437345798444
"29",-0.000878278758118008
"30",0.00209966181200922
"31",0.00175468854398164
"32",0.0181222084139212
"33",0.0170637262880292
"34",-0.00437923105023154
"35",0.00528588702282812
"36",0.228074029854355
"37",0.0215380818110315
"38",0.00169239518665523
"39",-0.00135790870666494
"40",-0.000647599971582324
"41",0.0267684206473934
"42",0.0093296572551064
"43",0.00553765998061426
"44",0.00454958436214051
"45",0.00299824265770837
"46",-0.000274326725361619
"47",0.025951763015412
"48",0.00996248120259456
"49",0.0745936885436618
"50",0.0126624035246816
"51",0.0389855967368805
"52",0.00568366822111687
"53",0.0063949698125307
"54",-0.0118283145727949
"55",0.00463076994425591
"56",0.0177778525440287
"57",0.0251415989014677
"58",0.0148793918663166
"59",0.00768608724903053
"60",0.137392363801499
"61",0.158256488810487
"62",0.0134253371335008
"63",0.0296290126122787
"64",0.920611278199979
"65",0.0627704006845748
"66",0.03957401616969
"67",0.00703207551390669
"68",0.0166785155725962
"69",0.0061526088468454
"70",0.0374148778174143
"71",0.0354331340410227
"72",0.0380983634970288
"73",0.00195382065252716
"74",-0.0132964996570674
"75",0.0352698130614604
"76",-0.000664505989866088
"77",0.000895537647409125
"78",0.0124341888794683
"79",0.0344050054232248
"80",0.0466104242650561
"81",0.0588193562100744
"82",0.0355317248036076
"83",0.291574803608726
"84",0.0295766835561894
"85",-0.00517747496545974
"86",-0.00354014941455303
"87",0.211539156346037
"88",-0.00835385765980682
"89",0.067668604614074
"90",-0.0026541727665562
"91",-0.00644027537751973
"92",-0.00658723909063696
"93",-0.00610416344377797
"94",-0.00464963171053329
"95",-0.00703006005269941
"96",-0.0060617339463459
"97",-0.00861848045681888
"98",-0.0139447191624413
"99",-0.0121488233464988
"100",-0.0250002075264477
"101",-0.00479137435489845
"102",-0.0189233432818891
"103",-0.0239609203049832
"104",-0.00913794803367983
"105",-0.0164450683055898
"106",0.221094879329179
"107",0.044541576890299
"108",-0.00417177306086178
"109",-0.00644617571531964
"110",-0.0105280725553797
"111",-0.0092935799444957
"112",0.517815648975317
"113",0.0330325774935531
"114",-0.0131391269092225
"115",-0.000226771378911788
"116",-0.0140147666656853
"117",0.380643064027728
"118",0.433564598976586
"119",0.0256809778827563
"120",0.0180598441129699
"121",-0.00425813131058272
"122",-0.00755278247763201
"123",-0.0119838137991765
"124",0.0139136683860555
"125",0.00566974985740103
"126",-0.00596882398782481
"127",0.0041325232109131
"128",-0.0109127836267955
"129",-0.00811899956678259
"130",0.01571867627217
"131",0.00113816662286453
"132",0.142316645198526
"133",0.00692438902584408
"134",0.00566956981539491
"135",0.011647310044673
"136",0.0210808853073745
"137",0.0206444344345513
"138",0.187297454772368
"139",0.00689508982310983
"140",0.0153178990982988
"141",0.351875045781446
"142",-0.0060523183678646
"143",0.014003362192171
"144",0.00361366523028584
"145",0.00720835758823682
"146",-0.00279363765967381
"147",0.016763743658829
"148",0.0135183594167266
"149",0.0000959552081647551
"150",0.18235676162087
"151",0.0224023678312712
"152",0.0865455827869647
"153",0.0034458211514608
"154",0.00631601261095444
"155",0.00873566263349189
"156",0.012654783455092
"157",0.00779085929331656
"158",0.0130028973360299
"159",0.0152901077445837
"160",0.0128955172513872
"161",0.0118702807813399
"162",0.00902248417635661
"163",0.00703565538244401
"164",0.00495515779355632
"165",0.00184342562936288
"166",-0.00716313737556895
"167",-0.00400530429315096
"168",-0.00125748384222547
"169",0.0000454942206338823
"170",-0.00258705271356981
"171",-0.00224917950418024
"172",-0.0122043407366827
"173",-0.00532059669915329
"174",-0.00165447252237497
"175",-0.00258934255248557
"176",-0.00168489179478469
"177",-0.00769396372451271
"178",-0.000582461435671761
"179",-0.00330895823031663
"180",0.00375418696954795
"181",0.00414084727069265
"182",0.00481754781672272
"183",-0.00162363274702391
"184",0.0035660248773015
"185",0.00195675426593812
"186",0.00491224135052041
"187",-0.00181807420903468
"188",-0.000393807091559948
"189",0.00158416877509832
"190",0.163790471668297
"191",0.00389955700124891
"192",0.0047130417429686
"193",0.00232019400814757
"194",-0.00420229104666204
"195",0.0038059658847004
"196",0.00450646983618172
"197",0.0066849667506085
"198",-0.00122280803443931
"199",0.00512014381542463
"200",0.00524455106907333
"201",0.00355146211842157
"202",-0.000291503003504573
"203",0.00593004314935451
"204",0.00888142549802167
"205",0.0053766394586967
"206",0.00618871495671794
"207",0.00102769867695227
"208",0.00261024855180678
"209",0.0130879606582551
"210",0.00992471942110899
"211",0.011634384072236
"212",0.00909214946420953
"213",0.00610822678444337
"214",0.00787641680645052
"215",0.000198386256380198
"216",0.200183949261117
"217",0.00935037754122315
"218",0.00560821787830399
"219",0.00738510291527085
"220",0.00455569386509072
"221",0.908749422479997
"222",0.614118499530317
"223",0.580853559753095
"224",0.0136677902041481
"225",0.00969469339713921
"226",0.0332835877383426
"227",0.0117792492646375
"228",0.0069413314861082
"229",0.0929568858537339
"230",0.096515860028612
"231",0.00208696451540262
"232",0.00354765757319614
"233",0.00981922104068174
"234",0.0101171725386861
"235",0.014629848668664
"236",0.00575996358556024
"237",0.0121321160967724
"238",0.0181099459545027
"239",0.00692602562569831
"240",0.0398303305207719
"241",0.00623147731105599
"242",0.0185430545597729
"243",0.0129467364765983
"244",0.00989775796238731
"245",0.00884210960018901
"246",0.00963792806776958
"247",0.00862644168400824
"248",0.00460671095410173
"249",0.012046388969729
"250",0.00667020349302701
"251",0.00665581540776587
"252",0.0039923836809343
"253",0.0996637689750042
"254",0.0105235986080773
"255",0.0157905263898247
"256",0.959592346032326
"257",0.0169526440820608
"258",0.315436799953525
"259",-0.000591158630283576
"260",0.0908625918245125
"261",-0.00440424234643327
"262",0.00166404711193344
"263",0.0155340090687155
"264",-0.023832725392985
"265",-0.00269894522404852
"266",0.00210984886491731
"267",0.000352282410540225
"268",-0.000494655220694613
"269",0.025649738613243
"270",0.66663820959944
"271",0.11358194125181
"272",0.0542492058643405
"273",0.0143139725162573
"274",0.231798584612807
"275",-0.0241175256002939
"276",0.0275940815764784
"277",0.0167397798337828
"278",0.0191184171197824
"279",0.230248745303862
"280",0.393435945159742
"281",0.0216125519296689
"282",0.0156773383287711
"283",0.00326205150786901
"284",0.0186222290919576
"285",0.0236522179940806
"286",0.0429338187180818
"287",0.503322047934169
"288",0.0404605548757275
"289",0.237378192472578
"290",0.14632577006062
"291",0.063232586185839
"292",0.0986182989757533
"293",0.109956350284497
"294",0.289394861747825
"295",0.0505389587722889
"296",0.0122241061869726
"297",0.00832303775064579
"298",-0.0141648265096238
"299",0.00190618492188477
"300",0.0207606036465289
"301",0.3075684359938
"302",0.00701669231803095
"303",0.609144541614704
"304",0.0458607888302212
"305",0.137626614179062
"306",0.0918739620948454
"307",-0.00484066393387301
"308",-0.000193917038270956
"309",0.0250478287313358
"310",0.0488094769257041
"311",0.0559034444404303
"312",0.0143074705408692
"313",0.0248713224983141
"314",-0.00594157641110868
"315",0.00494567654523846
"316",-0.0145152657829562
"317",-0.0186079469577668
"318",-0.00422371356234787
"319",-0.0184005412155792
"320",0.379756418522893
"321",-0.0036618070646
"322",0.00937720218787353
"323",0.00596570935948537
"324",0.00366635876566472
"325",0.0104983149848284
"326",-0.0116503419364813
"327",0.115678686183915
"328",-0.00888736956484389
"329",0.27834943104047
"330",0.28881360775291
"331",0.461105412935727
"332",-0.00673925987631174
"333",0.246787543632831
"334",0.0237484334819043
"335",-0.00401140836448827
"336",-0.00781783675319115
"337",0.21778565420672
"338",-0.00179175468700671
"339",-0.0050050804354692
"340",0.000603418482443993
"341",0.0000941875843672589
"342",-0.00508535031329628
"343",-0.0122781227058958
"344",-0.0218236034174298
"345",-0.0326125141046914
"346",-0.0252282543818115
"347",-0.0222236317218466
"348",-0.0253566679616137
"349",-0.0300728629103396
"350",-0.0312959551564342
"351",0.095589785696511
"352",1.2696752787206
"353",-0.0161838317004544
"354",-0.0133047181465444
"355",0.00100060765872499
"356",-0.00443351722043837
"357",0.164411892486213
"358",0.210571977931226
"359",0.00252700025429588
"360",-0.00467252755275557
"361",-0.0172587541503046
"362",0.236558538801505
"363",-0.00466210853965397
"364",-0.0106212256274564
"365",-0.00716002247759585
"366",0.00485100273407745
"367",0.00981929355424375
"368",0.0168879285105673
"369",0.0430122951065902
"370",0.0087800739657699
"371",0.0196759480714136
"372",0.0119997887483284
"373",0.0189489812846782
"374",0.0156248994884701
"375",0.00993946772787342
"376",0.0170012096130983
"377",0.0131211782412234
"378",0.0066128830492237
"379",-0.0024607882700641
"380",0.00834475609991192
"381",0.0100667586838998
"382",0.00439203573204299
"383",0.00834461805490945
"384",0.0090377788715393
"385",0.000341291381778632
"386",0.00923883480099869
"387",0.00552246566511282
"388",0.00486750017601117
"389",0.00712526606059102
"390",0.00539708444974825
"391",-0.00129219151726026
"392",-0.00112639130173363
"393",0.000317675526961038
"394",-0.0017357239538286
"395",-0.00338009533790461
"396",-0.00297687567213467
"397",-0.00279779122398748
"398",-0.00548941878880402
"399",-0.0123191661910138
"400",-0.0084185975131787
"401",-0.0115120717168981
"402",-0.00604831233946358
"403",-0.00236395824025192
"404",-0.00590186369847359
"405",-0.00508689348257775
"406",-0.00235368653164923
"407",-0.00732241746951165
"408",-0.00289736095306189
"409",-0.00524788424710478
"410",-0.00320771472947196
"411",-0.00640386867239664
"412",-0.00688830723151268
"413",-0.00942534444267094
"414",1.34551190532775
"415",-0.00338681175246478
"416",-0.00221129946028706
"417",-0.00339509778277047
"418",0.00072579317925179
"419",-0.00346077953955597
"420",-0.000702920974250056
"421",-0.00179389121971294
"422",0.059986834337012
"423",0.000495604716389733
"424",-0.000416674812763868
"425",-0.00198534681559814
"426",0.00559624842235478
"427",0.00578487286077054
"428",-0.000576773705533998
"429",-0.000679589849880918
"430",0.00087059492753307
"431",0.00158664611571733
"432",0.000562538132410466
"433",0.000906798445928452
"434",0.00503605961240185
"435",0.00236014252214732
"436",-0.000266616839216842
"437",0.00504636306376427
"438",0.00622399545064323
"439",0.00494039074854002
"440",0.00394313563542294
"441",0.00322458634263408
"442",0.00171315935546212
"443",0.00446428915894334
"444",0.0101779642949185
"445",0.00702754841608875
"446",0.0118499877361676
"447",0.00931173561126108
"448",0.00833801851582638
"449",0.014378009469791
"450",0.0124196388688808
"451",0.0118235481556218
"452",0.0132138457108424
"453",0.00855207332626126
"454",0.0146496482371754
"455",0.0494525085654035
"456",1.17906796112037
"457",0.0168638072571551
"458",0.0122812923904877
"459",0.00950045812896198
"460",0.130564161232081
"461",0.0143408545649858
"462",0.415625811167081
"463",0.1112960166532
"464",0.0122142382137049
"465",0.0129723318681471
"466",0.0135114355086724
"467",0.0125677007775729
"468",0.00671322349767663
