"","Water_Year","Month","ARBRC_Temperature_F","TMC_Temperature_F","KFC_Temperature_F","ARBRC_Radiation_Wm2","TMC_Radiation_Wm2","KFC_Radiation_Wm2","ARBRC_Precipitation_in_corrected","TMC_Precipitation_in_corrected","KFC_Precipitation_in_corrected"
"1",2015,10,71.17044,64.28844,63.05319,35.38326042,48.36263542,36.703125,0,0,0
"2",2015,10,53.663,51.35953,48.62508,35.71258333,57.67198958,52.77273958,0.1811,0.23622,0.16929
"3",2015,10,52.41425,50.55088,47.0192,48.63890625,68.39940625,58.37383333,0.22835,0.22441,0.26772
"4",2015,10,59.04163,53.7335,50.95123,54.80826042,77.41959375,75.47761458,0,0.00394,0.01181
"5",2015,10,59.10763,54.55441,52.71772,40.56227083,57.24613542,66.80326042,0,0,0.00787
"6",2015,10,56.11644,52.86161,50.08336,35.31488542,41.98957292,39.63377083,0,0.00394,0.0315
"7",2015,10,55.47674,51.13558,48.89966,50.68403125,72.71760417,69.47322917,0,0,0.00394
"8",2015,10,59.16144,54.33753,53.01485,50.039,72.232125,61.39482292,0,0,0
"9",2015,10,66.371,60.31933,58.94411,36.5946875,70.21822917,54.52229167,0,0,0
"10",2015,10,61.2065,56.38739,55.00378,35.03936458,68.09854167,49.981875,0,0,0
"11",2015,10,58.11969,51.58248,50.72356,24.28989583,65.20302083,47.47725,0,0.00394,0
"12",2015,10,62.2295,54.9224,54.66609,22.0378125,65.42833333,48.29791667,0,0,0
"13",2015,10,63.056,55.64921,54.99003,19.97572917,63.22875,44.79696875,0,0,0
"14",2015,10,63.61006,55.82765,56.67907,13.146875,59.1365625,39.35545833,0,0,0
"15",2015,10,66.52906,58.74631,59.16388,6.666770833,57.05484375,35.03191667,0,0,0
"16",2015,10,58.59444,54.09545,53.71775,10.33982292,38.24404167,29.27138542,0.13386,0.16142,0.1378
"17",2015,10,56.43669,53.79982,51.8717,71.63086458,108.7974896,100.5727083,0.21654,0.26772,0.29921
"18",2015,10,52.58525,49.99589,47.09351,36.8309375,62.54823958,55.33163542,0,0.00394,0.02362
"19",2015,10,48.61143,45.05249,43.38397,53.77815625,67.43820833,47.97215625,0.06693,0.0748,0.05512
"20",2015,10,51.92,47.36823,45.80846,1.210291667,22.26414583,15.961125,0,0.00394,0
"21",2015,10,48.70721,44.36356,42.34621,33.19103125,60.2060625,26.63041667,0.07087,0.11811,0
"22",2015,10,46.07866,41.94343,39.63191,34.00209375,97.09290625,45.13160417,0.00394,0.01181,0
"23",2015,10,50.40179,45.14467,43.40368,23.74040625,63.22761458,33.55985417,0,0,0
"24",2015,10,53.35537,47.74882,47.5517,-10.67817708,10.51316667,5.9229375,0,0,0
"25",2015,10,52.0007,46.93661,46.22521,9.709479167,52.57046875,29.70739583,0,0,0
"26",2015,10,43.94904,39.2207,38.46391,-12.7465625,23.1521875,8.781739583,0,0,0
"27",2015,10,42.59628,40.37394,37.66708,10.57601042,22.76348958,20.35791667,0.10236,0.1378,0.12205
"28",2015,10,39.06026,36.4961,34.03927,54.18272917,92.19355208,95.20121875,0.00394,0.01575,0.02362
"29",2015,10,49.61433,45.71456,42.65915,30.2444375,80.62597917,46.63551042,0,0,0.01575
"30",2015,11,56.82084,54.35054,51.12592,-1.35984375,15.45630208,13.0384375,0,0,0
"31",2015,11,47.73425,46.11356,41.74269,15.57598958,27.633875,22.86440625,0.00394,0.02362,0.08268
"32",2015,11,35.02398,33.53551,30.38358,-1.955333333,8.055458333,9.501958333,0.01575,0.01969,0.01575
"33",2015,11,32.07646,30.39406,27.08448,-2.02171875,11.64829167,-3.925,0.01969,0.03543,0.04724
"34",2015,11,33.53189,28.89091,25.70549,-8.774291667,62.60444792,15.92604167,0.00394,0,0.01181
"35",2015,11,40.71611,34.70943,34.05937,-18.95673958,26.40767708,-4.820239583,0,0,0
"36",2015,11,31.93387,30.37492,28.07632,8.442875,4.948572917,-4.000010417,0.26378,0.32283,0.31496
"37",2015,11,31.33814,28.36063,25.17436,19.80677083,2.343447917,-8.77371875,0.01969,0.02362,0.02362
"38",2015,11,33.20259,28.96267,26.02344,-14.79080208,18.083125,-3.959552083,0.00394,0,0.01181
"39",2015,11,35.51664,30.49079,28.49465,-25.69997917,21.7928125,-21.41082292,0,0,0
"40",2015,11,44.48831,39.47776,36.90693,-14.61729167,29.43413542,-2.794697917,0,0,0
"41",2015,11,34.0265,32.35141,29.18491,16.90509375,24.24211458,2.082864583,0.0315,0.07087,0.12205
"42",2015,11,27.03485,25.35989,21.97659,18.75254167,34.8813125,-1.17246875,0.00787,0,0.02362
"43",2015,11,35.47441,32.57797,30.746,-9.78315625,14.35045833,-4.33521875,0,0.01181,0
"44",2015,11,39.79366,36.69054,33.88584,9.165802083,23.70546875,24.84452083,0,0.00787,0.0315
"45",2015,11,36.15269,33.64848,29.71231,-6.311989583,42.3310625,3.369729167,0.01181,0.0315,0.1378
"46",2015,11,28.04696,23.49988,21.8594,-43.84895833,0.844802083,-35.9315625,0.00394,0,0.01181
"47",2015,11,36.66676,32.19856,35.70596,-22.26745833,11.39611458,-7.278958333,0,0,0
"48",2015,11,43.00126,38.49414,37.87522,-40.81484375,-23.78958333,-18.12763542,0,0,0
"49",2015,11,41.05387,39.3437,35.38019,-20.54775,-4.110333333,-3.165645833,0.09055,0.1063,0.1811
"50",2015,11,23.37358,21.51986,17.92689,-7.401385417,41.39436458,-14.95603125,0.02756,0.02362,0.04331
"51",2015,11,20.18388,17.78294,14.40052,14.39313542,22.25572917,-2.214947917,0.05512,0.07087,0.09843
"52",2015,11,18.71491,16.54258,13.50136,-9.561510417,20.3841875,-1.5509375,0.01575,0.01575,0.01575
"53",2015,11,20.0996,17.61643,14.67346,-0.571677083,38.95753125,12.82303125,0.01575,0.01181,0.03937
"54",2015,12,22.39597,17.97202,15.88871,-45.34675,4.745,-3.400135417,0,0,0
"55",2015,12,26.56978,22.45306,22.71129,-36.73570833,-5.37578125,-23.62327083,0,0,0
"56",2015,12,34.30694,29.77906,31.88842,-22.76698958,8.314677083,-17.20876042,0,0,0
"57",2015,12,36.55441,34.42483,36.2417,-14.23989583,-1.552041667,-11.52273958,0,0,0
"58",2015,12,38.08252,32.19054,33.68068,-28.36779167,1.752875,-14.36448958,0,0,0
"59",2015,12,47.96356,42.86161,41.46434,-25.76132292,-8.2489375,-4.50925,0,0,0
"60",2015,12,42.35383,38.84482,37.56581,-2.522260417,13.0098125,-2.216125,0.16142,0.23622,0.38976
"61",2015,12,29.10794,27.50683,24.69862,10.41269792,25.75305208,9.673708333,0.18898,0.1811,0.09843
"62",2015,12,26.64669,24.1538,21.31106,20.13909375,12.87555208,17.49427083,0.00787,0,0.03543
"63",2015,12,31.67866,28.71667,26.70712,-17.2365,-15.21926042,4.620822917,0.0315,0.05118,0.05906
"64",2015,12,26.20762,25.42267,22.90036,2.08878125,-6.963635417,-11.049125,1.10236,1.61811,1.27165
"65",2015,12,22.7144,21.05293,18.48412,-9.344479167,-15.26813542,-20.46463542,0.09055,0.16535,0.18504
"66",2016,1,24.85361,26.27471,32.19489,-20.97398958,-8.719083333,-12.9125,0,0,0
"67",2016,1,33.61951,31.84387,32.96321,-21.76690625,-14.51952083,-12.05661458,0,0,0
"68",2016,1,36.11885,34.20388,33.66613,15.408625,13.54367708,2.696875,0.01969,0.0315,0.0315
"69",2016,1,28.10392,25.16531,26.6993,-46.45759375,-10.69686458,-10.08045833,0,0,0.01575
"70",2016,1,36.24103,32.76084,32.93784,-3.598489583,4.258520833,4.2968125,0.04331,0.05906,0.1063
"71",2016,1,24.07226,22.04433,19.58587,19.49284375,-31.53758333,-11.92265625,0.04331,0.03937,0.06693
"72",2016,2,21.26233,19.9172,16.13321,-12.90830208,-23.50840625,15.8700625,0.05512,0.07087,0.21654
"73",2016,2,14.89844,11.61219,10.33325,-49.65120833,-27.23878125,10.3846875,0.00394,0,0.03937
"74",2016,2,18.53589,16.1768,12.46646,-33.46066667,-37.40494792,-11.67307292,0,0.01575,0.07874
"75",2016,2,21.60011,19.436,18.21729,-1.99684375,-8.464822917,-7.399802083,0.03937,0.05118,0.0748
"76",2016,2,27.80416,24.05473,23.83511,-51.241875,-17.51802083,25.83780208,0,0,0
"77",2016,2,29.48484,26.45296,26.54941,-51.79822917,-19.21195833,-32.82582292,0,0,0
"78",2016,2,30.20893,27.14773,29.56357,-46.06320833,-15.59105208,-31.84396875,0,0,0
"79",2016,2,26.00248,25.94285,31.07669,-25.83065625,-14.86928125,-31.3234375,0,0,0
"80",2016,2,25.97698,26.66623,33.81673,-16.53301042,-7.942072917,-24.33203125,0,0,0
"81",2016,2,25.83072,26.91298,36.28388,-12.53284375,-5.86746875,-26.23951042,0,0,0
"82",2016,2,28.90132,28.67473,34.12213,-22.03815625,-12.33360417,-23.18533333,0,0,0
"83",2016,2,33.91524,31.84638,31.13251,-1.975104167,-3.710302083,-11.44839583,0.31102,0.3937,0.56693
"84",2016,2,41.44642,37.90132,37.15475,32.72136458,34.96635417,25.55885417,0.03543,0.04724,0.09449
"85",2016,2,42.05994,37.52748,37.07919,-4.652302083,4.579322917,-12.94911458,0,0,0.00787
"86",2016,2,47.74916,41.28013,41.58695,8.927291667,5.7993125,2.893979167,0,0,0
"87",2016,2,40.16079,38.73815,34.63619,12.50814583,-4.06546875,5.731802083,0.27559,0.55512,0.63386
"88",2016,2,38.18096,33.50188,31.61448,-21.40761458,-11.74246875,-3.027020833,0.00394,0,0.02756
"89",2016,2,33.14126,30.89184,28.26808,39.64897917,4.314427083,13.45721875,0.07874,0.08661,0.06299
"90",2016,2,30.73882,27.57133,24.83911,40.70802083,-13.50777083,-12.35654167,0.00394,0,0.01969
"91",2016,2,33.8903,29.89807,27.86086,38.61235417,-3.551229167,-23.15998958,0,0,0.00394
"92",2016,2,39.03033,33.72678,32.23505,42.68973958,5.816354167,-16.5926875,0,0,0
"93",2016,2,44.01847,37.18584,36.39031,42.35729167,12.00977083,-7.860427083,0,0,0
"94",2016,2,46.23052,40.12856,39.36028,42.23002083,17.11986458,-3.775239583,0,0,0
"95",2016,2,40.82278,35.6885,33.96442,49.24742708,16.65570833,0.976427083,0,0,0
"96",2016,2,40.38429,35.74781,34.50129,21.09077083,1.391729167,-2.82753125,0,0,0
"97",2016,3,44.60979,38.72103,36.91869,43.2459375,25.71621875,16.50801042,0,0,0
"98",2016,3,49.32699,42.0422,39.80885,41.82371875,28.328375,15.17391667,0,0,0
"99",2016,3,51.34567,44.37234,42.04203,59.41036458,42.66277083,20.49511458,0,0,0
"100",2016,3,53.01388,47.13316,42.88024,6.321041667,13.06416667,8.080770833,0,0,0
"101",2016,3,36.8832,31.89351,28.75875,69.64791667,3.71109375,-14.49734375,0.00394,0,0.01969
"102",2016,3,48.33993,42.20861,37.93762,69.21280208,35.97625,3.941416667,0,0,0.01181
"103",2016,3,52.85066,47.73675,43.43968,9.77653125,18.35585417,-1.28778125,0,0,0
"104",2016,3,48.09294,42.47855,40.27981,60.34975,42.04689583,17.33061458,0,0,0
"105",2016,3,46.5329,42.7199,38.91804,46.57359375,57.86998958,36.77035417,0,0,0
"106",2016,3,37.11933,35.65694,31.74149,22.01171875,9.2784375,-1.788166667,0.27559,0.5,0.6811
"107",2016,3,30.58901,28.86644,25.51631,54.88628125,-11.69778125,-36.65173958,0.05906,0.1063,0.21654
"108",2016,3,35.49361,33.36028,29.53181,115.7721771,44.4345625,-6.02109375,0,0,0.01575
"109",2016,3,39.75626,36.6995,34.06267,72.88038542,65.89525,12.85555208,0,0,0
"110",2016,3,34.79435,31.92224,28.17952,88.49166667,80.95364583,-2.901739583,0,0,0.01575
"111",2016,3,39.93271,35.42761,32.76026,80.2209375,71.6690625,8.59725,0,0,0
"112",2016,3,35.8235,34.49651,31.34536,0.184760417,-24.17273958,-29.92434375,0.54724,0.70472,0.74016
"113",2016,3,33.76063,31.59061,27.92276,10.36696875,9.190135417,-20.83760417,0.05512,0.09843,0.11417
"114",2016,3,37.0121,35.09551,30.81866,69.24695833,66.86730208,0.410291667,0,0.00394,0
"115",2016,3,35.14374,32.85909,29.55479,76.48121875,67.69483333,0.309229167,0.00787,0.00787,0.02362
"116",2016,3,44.5343,41.20788,37.29442,81.78520833,84.2914375,30.73089583,0,0,0
"117",2016,3,35.03529,35.28178,34.12996,4.601625,17.15239583,5.83925,0.38976,0.42913,0.40945
"118",2016,3,34.90388,33.33251,30.00078,82.84161458,14.56489583,-18.50886458,0.43307,0.45276,0.49606
"119",2016,3,34.2872,32.3474,28.59648,35.57502083,52.12739583,22.52390625,0.03937,0.03543,0.05118
"120",2016,3,37.72728,35.48439,32.61238,49.87564583,64.88504167,25.62385417,0.02756,0.02756,0.03937
"121",2016,4,41.37643,37.44137,34.02092,113.9218229,108.1002604,28.04725,0.00394,0,0.02362
"122",2016,4,46.09775,41.27812,38.34466,114.2570729,106.5012813,54.86177083,0,0,0
"123",2016,4,51.94372,46.85034,43.10248,118.0707292,111.3188542,57.11816667,0,0,0
"124",2016,4,52.54708,47.64532,44.00414,50.77883333,57.52811458,36.389125,0.03543,0.05906,0.01181
"125",2016,4,41.35278,38.5553,35.66388,104.3330208,81.29739583,50.63222917,0.00787,0.00394,0.02362
"126",2016,4,45.51659,41.03066,38.11578,120.6524063,110.5902083,69.80895833,0,0,0.02362
"127",2016,4,53.39296,48.04321,47.25579,121.8374583,113.21675,86.25520833,0,0,0
"128",2016,4,55.08013,52.96846,47.80642,135.7046146,135.29325,117.1391458,0,0,0
"129",2016,4,52.75929,50.04896,45.86459,111.450625,101.2761146,99.98911458,0,0,0
"130",2016,5,62.71625,56.61151,56.58877,167.7315,149.7933854,143.5725833,0,0,0.00787
"131",2016,5,66.88681,62.11588,60.40381,85.73095833,82.59388542,64.73065625,0,0,0
"132",2016,5,47.07031,43.69318,41.40721,40.26517708,49.75916667,45.52270833,0.15748,0.18504,0.09449
"133",2016,5,42.79031,39.90721,36.41047,172.3475,125.7125938,125.8594063,0.00394,0,0.01575
"134",2016,5,44.14475,40.643,37.94135,182.9272917,145.9235417,147.7227083,0,0,0.02362
"135",2016,5,54.8522,49.17251,48.2372,180.39875,152.4252708,164.5210417,0,0,0.0748
"136",2016,5,63.28288,56.36814,57.12354,176.5628438,151.2408333,159.6005208,0,0,0.06299
"137",2016,5,65.90075,59.21285,60.61756,163.0914375,159.3218958,142.1392396,0,0,0.05906
"138",2016,5,55.0325,51.90761,48.68234,81.84107292,66.10504167,60.046,0.20866,0.2874,0.08268
"139",2016,5,52.75119,49.99586,46.88339,154.1825,128.4029375,119.1729167,0.00394,0,0.00394
"140",2016,5,60.58288,56.99293,53.70129,85.18938542,94.95675,76.17228125,0.02362,0.01969,0.20472
"141",2016,5,51.13267,48.42127,45.48095,120.3981667,98.72586458,109.6549583,0.3622,0.44882,0.3937
"142",2016,5,45.29549,41.83747,38.94144,70.36213542,58.83822917,66.10213542,0,0.01969,0
"143",2016,5,50.41436,45.91936,44.62614,168.9027083,142.1726146,144.51775,0.00394,0,0.00787
"144",2016,5,52.39344,48.38219,46.6409,121.6276458,121.005125,130.1444271,0.00394,0.02756,0.06693
"145",2016,5,50.48223,48.0185,45.49241,124.4009167,114.3853125,137.7828333,0.00394,0.00394,0.00787
"146",2016,5,50.99488,47.77121,43.70131,152.7783333,108.6264792,91.34316667,0,0.00394,0.11811
"147",2016,6,70.75438,63.72706,62.98231,193.3777188,177.1645521,180.3080938,0,0,0.01181
"148",2016,6,72.83075,65.41756,64.65369,164.6783646,153.2430833,162.5600729,0,0,0
"149",2016,6,69.64813,62.38456,61.47031,85.27520833,96.47761458,93.17396875,0,0,0
"150",2016,6,60.00669,55.65926,53.77149,45.88144792,55.71697917,47.80033333,0.19764,0.24331,0.25197
"151",2016,6,59.05831,56.28875,53.83535,201.8912188,212.0496979,192.8732813,0.01575,0.01969,0.01575
"152",2016,6,54.89469,51.97509,49.49752,44.48652083,61.96883333,59.48920833,0.09843,0.12598,0.14567
"153",2016,6,62.68063,57.44971,55.10225,161.0080208,187.4293125,169.5754792,0.00394,0.00394,0.02756
"154",2016,6,71.00638,67.56969,63.40681,189.5769792,173.5417708,184.7863854,0,0,0
"155",2016,6,60.52269,57.15352,54.38806,192.9229583,173.3377083,182.7027396,0,0,0
"156",2016,6,67.45625,60.30708,59.46007,188.0480729,177.5501042,187.6685104,0,0,0
"157",2016,6,70.45944,63.344,62.42319,161.4112292,170.7688438,165.9785729,0,0,0
"158",2016,6,66.503,60.58076,59.42791,189.1931563,179.0203125,188.6454063,0,0,0
"159",2016,6,76.39625,66.55269,66.48556,184.1905521,185.4044792,193.4970208,0,0,0
"160",2016,6,74.54956,65.98588,65.51338,177.9208333,181.7323958,189.1270625,0,0,0
"161",2016,6,73.52788,65.72038,64.91544,177.5908646,181.7315625,190.3856979,0,0,0
"162",2016,6,75.224,66.875,65.60994,167.400375,171.2669375,189.7966875,0,0,0
"163",2016,6,70.1045,62.99694,61.31975,173.925,173.5869792,184.7898125,0,0,0
"164",2016,6,77.77231,66.26263,65.47588,160.9889271,172.9401042,183.7119375,0,0,0
"165",2016,6,79.84025,71.31144,68.91294,162.2155208,184.5449271,184.4997917,0,0,0
"166",2016,6,75.50619,69.40531,65.82519,116.4019792,134.8407396,127.2069271,0,0,0
"167",2016,6,72.254,66.53394,62.91069,121.7557604,115.6948333,116.30575,0,0,0
"168",2016,7,69.22081,63.90144,60.9725,149.3142708,163.7216667,151.8700208,0,0,0
"169",2016,7,70.31206,64.22075,61.469,161.9186979,172.9113542,170.1731771,0,0,0
"170",2016,7,72.13981,63.74131,61.05969,148.0166458,149.8920833,180.2916667,0,0,0
"171",2016,7,73.733,66.45088,63.23956,150.3685833,154.6197708,192.4199167,0,0,0
"172",2016,7,75.76606,67.16619,63.47844,118.5193646,139.5280208,156.9937604,0,0,0
"173",2016,7,77.81769,70.51681,66.77544,130.4868542,131.223,143.280625,0,0,0
"174",2016,7,78.28775,71.34969,67.60606,149.1686146,151.6304896,187.8743646,0,0,0
"175",2016,7,79.03981,71.07875,67.36794,147.3756667,145.8214583,178.0609583,0,0,0
"176",2016,7,81.02038,72.10044,69.02966,142.9674271,150.465,185.8735417,0,0,0
"177",2016,7,79.93475,71.14044,67.76938,98.68554167,101.1577083,139.6909271,0,0,0
"178",2016,7,79.04488,69.5105,67.65481,125.1481146,137.0285417,175.6022917,0,0,0
"179",2016,7,79.33981,69.80263,67.55431,102.1259063,105.6373125,151.4947396,0,0,0
"180",2016,7,78.40869,69.11394,67.92884,125.9726771,133.4866667,174.9034375,0,0,0
"181",2016,7,79.13525,69.91531,68.86644,119.9956979,128.2637813,166.6913854,0,0,0
"182",2016,7,79.25281,70.18119,69.02825,124.5679583,130.8375,170.7502083,0,0,0
"183",2016,7,78.03556,69.64306,68.22313,75.66469792,86.05682292,118.1058542,0,0,0
"184",2016,7,76.39663,69.47769,67.38613,133.3902604,136.2979688,164.3860208,0,0,0
"185",2016,8,77.25575,69.61831,67.71275,124.9095625,131.8240625,166.7620833,0,0,0
"186",2016,8,70.80931,64.00081,62.79931,110.044625,116.6699375,155.2976771,0,0,0
"187",2016,8,71.60281,65.10575,63.27481,73.47136458,89.51295833,88.1466875,0,0,0
"188",2016,8,72.62863,66.02403,64.09203,86.72141667,94.27158333,120.1933854,0,0,0
"189",2016,8,75.34081,68.05794,66.26694,113.6238438,122.7900417,159.4840521,0,0,0
"190",2016,8,66.68206,61.21494,59.20175,66.2653125,79.59101042,90.6814375,0.17323,0.19291,0.12992
"191",2016,8,66.96875,60.72313,58.06044,131.9798958,133.9972917,173.6531667,0.00394,0.00394,0.01181
"192",2016,8,69.22888,61.26875,60.21744,118.9989688,114.4360417,151.2178125,0,0,0.00394
"193",2016,8,74.41756,65.41363,64.56359,104.4026458,111.1774375,148.5274479,0,0,0
"194",2016,8,74.85847,64.09953,64.42991,1.43521875,25.80139583,35.6394375,0,0,0
"195",2016,8,74.89981,66.57444,66.08919,98.54375,117.5502604,144.0952083,0,0,0
"196",2016,8,74.90244,66.36106,66.3035,74.318875,84.65247917,112.3289896,0,0,0
"197",2016,8,71.34069,63.947,63.40081,98.14440625,98.062,131.69375,0,0,0
"198",2016,8,70.34394,61.38313,60.09125,87.45983333,89.83322917,127.6504167,0,0,0
"199",2016,8,71.85106,64.40319,63.98469,79.70947917,90.536875,123.0531979,0,0,0
"200",2016,8,68.70144,61.89519,61.17969,79.88757292,84.72208333,115.3877083,0,0,0
"201",2016,8,64.10225,57.24393,56.04451,94.52177083,101.9940313,123.3413542,0,0,0
"202",2016,8,64.53875,57.16756,56.09909,36.68553125,45.97596875,60.97401042,0,0,0
"203",2016,8,69.25381,61.88375,61.43206,87.43688542,92.35188542,122.3382292,0,0,0
"204",2016,8,73.18025,65.02475,65.48431,85.68114583,93.264375,122.3551042,0,0,0
"205",2016,8,77.03544,67.39588,67.84138,79.06323958,92.376875,122.5654792,0,0,0
"206",2016,8,76.52863,67.92856,68.31144,79.160375,99.43967708,119.5566667,0,0,0
"207",2016,9,74.06169,67.64675,66.15125,68.95925,88.29066667,93.82532292,0,0.00394,0
"208",2016,9,72.95281,67.67319,65.5565,92.9706875,102.3334688,125.9473646,0,0.00394,0.01575
"209",2016,9,68.71475,63.85775,63.5825,75.62208333,80.257875,100.3173438,0,0,0
"210",2016,9,62.93188,58.41313,57.12969,42.08155208,63.17191667,75.20725,0.00394,0.01181,0.00787
"211",2016,9,56.03675,51.78613,49.51561,91.63738542,100.8955313,123.8552396,0.00394,0,0.01181
"212",2016,9,62.7725,56.37905,55.69336,77.36260417,85.01177083,113.7334375,0,0,0
"213",2016,9,59.82556,53.02957,51.85076,70.10727083,77.98969792,107.7047917,0,0,0
"214",2016,9,70.98463,63.72084,63.65581,66.38854167,84.501125,106.4045938,0,0,0
"215",2016,9,69.28025,64.35256,61.87325,74.85142708,81.63208333,98.43026042,0,0.00787,0
"216",2016,9,59.86513,57.00011,53.42266,88.79713542,113.2984583,135.4248125,0.20866,0.20866,0.25984
"217",2016,9,51.46394,48.05236,45.2618,62.83254167,68.59070833,54.39315625,0.00394,0.00394,0.00394
"218",2016,9,58.22951,52.59954,50.888,69.52815625,82.08460417,88.05990625,0,0,0
"219",2016,9,65.72094,57.61409,57.72496,60.13927083,78.37432292,82.88916667,0,0,0
"220",2016,9,70.12531,61.44275,61.52319,51.68769792,74.00010417,78.0209375,0,0,0
"221",2016,9,56.73365,55.28206,52.92256,77.63872917,92.53151042,88.31179167,0.9252,1.12992,1.05512
"222",2016,9,42.80604,41.41154,38.04328,16.25695833,18.76898958,19.23866667,0.64173,0.67717,0.78346
"223",2016,9,45.88151,43.49364,39.56842,28.72723958,32.37095833,51.43063542,0.62205,0.74803,1.07874
"224",2016,9,55.22094,50.48585,49.94829,63.44745833,74.6846875,73.26322917,0,0,0
"225",2016,9,59.33731,54.10111,53.25643,58.93940625,75.13177083,69.34041667,0,0,0
"226",2016,9,63.53675,58.18794,57.26225,72.4046875,96.57007292,74.94851042,0.0315,0.05906,0
"227",2016,9,62.75863,56.85819,55.88338,73.48610417,79.51828125,63.55741667,0.00394,0,0.01969
"228",2016,9,62.55631,57.39256,56.09825,63.87664583,78.43122917,67.711875,0,0,0.00394
"229",2016,10,63.80075,59.91406,57.45871,69.04053125,83.2095,66.55617708,0.09449,0.09843,0.07874
"230",2016,10,40.37019,36.97151,33.69984,7.453770833,42.02619792,25.77535417,0.12205,0.16535,0.27165
"231",2016,10,40.94028,36.10796,32.8748,34.79570833,52.0361875,62.71704167,0,0.00787,0.03937
"232",2016,10,47.55766,41.62331,39.13679,38.0503125,68.20416667,61.43760417,0,0,0
"233",2016,10,52.10126,45.86617,45.17293,16.5284375,47.54097917,40.34260417,0,0,0
"234",2016,10,57.41563,50.26593,50.01905,33.16010417,68.8596875,57.00052083,0,0,0
"235",2016,10,60.03584,53.77589,54.15444,35.60189583,66.35939583,51.30195833,0,0,0
"236",2016,10,56.66238,51.98101,50.05861,-2.434114583,15.84947917,8.419739583,0,0,0
"237",2016,10,49.56052,44.82959,44.06936,11.45197917,43.83626042,41.21864583,0,0,0
"238",2016,10,56.90806,51.11776,51.99836,30.20403125,64.37479167,49.64173958,0,0,0
"239",2016,10,57.56956,54.70194,51.33103,23.60384375,52.19297917,43.65373958,0.00394,0,0.00787
"240",2016,11,42.63506,38.64076,37.59089,-5.753791667,11.07844792,26.81463542,0.03543,0.04724,0.05118
"241",2016,11,40.97417,36.54731,35.15341,-10.52447917,31.19397917,39.18515625,0,0.00394,0.01575
"242",2016,11,44.17129,38.80985,40.57616,-12.52015625,31.05239583,5.803020833,0,0,0
"243",2016,11,48.63283,43.06499,43.36792,-11.63994792,35.15917708,5.684895833,0,0,0
"244",2016,11,50.80732,45.27148,44.65143,-8.488052083,34.97433333,6.386927083,0,0,0
"245",2016,11,50.07974,44.21576,43.67373,-14.54234375,32.10385417,2.251458333,0,0,0
"246",2016,11,51.94051,45.08961,45.09301,-16.60554167,31.6625,2.763510417,0,0,0
"247",2016,11,51.80898,45.46828,45.12164,-19.13697917,30.74416667,1.509479167,0,0,0
"248",2016,11,53.28163,45.30766,44.71582,-22.75375,27.68427083,-2.1925,0,0,0
"249",2016,11,51.33487,45.56578,45.59371,-18.08005208,24.79280208,3.8675,0,0,0
"250",2016,11,48.37511,42.63804,41.75231,-19.76117708,27.86697917,-3.8378125,0,0,0
"251",2016,11,51.30973,44.41244,44.00705,-27.143125,23.70875,-6.9598125,0,0,0
"252",2016,11,57.84031,51.26527,50.24066,-40.14582292,15.51154167,-14.111875,0,0,0
"253",2016,11,29.05869,27.19989,23.8478,0.877729167,-26.42364583,19.17175,0.11811,0.14173,0.12598
"254",2016,11,46.17464,43.11749,41.97152,-16.86844792,21.31219792,-10.51454167,0,0,0
"255",2016,11,53.50141,50.73142,47.71657,-14.9695625,-1.397989583,3.188885417,0.01181,0.01575,0.04724
"256",2016,11,41.86985,39.98337,36.81597,15.2428125,23.17575,16.7703125,1.02756,1.13386,1.00394
"257",2016,11,34.53192,32.31915,29.31206,22.71558854,47.64088542,-32.78247917,0.01969,0.02756,0.08268
"258",2016,11,36.56577,33.67445,30.02264,10.11791667,28.70584375,0.396927083,0.44094,0.82283,0.88976
"259",2016,11,35.73373,29.34468,28.62311,-56.19932292,-19.19989583,-43.66001042,0,0,0
"260",2016,11,34.10223,32.37993,29.09542,7.647416667,-6.50796875,-8.775260417,0.1378,0.34646,0.79134
"261",2016,11,23.90958,20.61637,17.9963,-35.17142708,-6.722510417,5.49796875,0.00394,0.00394,0.01181
"262",2016,11,24.39111,20.70768,19.72046,-30.36078125,-13.69569271,7.182572917,0,0,0
"263",2016,12,26.32136,23.89351,21.29643,-4.954260417,-10.54945833,-3.285520833,0.01969,0.02756,0.02756
"264",2016,12,22.30918,17.52065,16.73799,-72.43125,11.926625,41.47296875,0,0.00394,0.01969
"265",2016,12,25.36831,22.40049,19.96109,-9.52240625,2.682979167,2.682260417,0,0,0
"266",2016,12,32.19039,28.40879,27.60856,-21.70742708,14.4398125,2.06546875,0,0,0
"267",2016,12,26.19073,23.99242,19.43536,-47.70307292,-12.30761458,-20.5300625,0.02756,0.03937,0.05906
"268",2016,12,19.43379,15.01715,14.13446,-31.73201042,-5.44021875,-2.429239583,0.01575,0.02756,0.05118
"269",2016,12,38.30159,34.94246,33.66296,3.666197917,9.246864583,-2.621458333,0.01969,0.0315,0.1063
"270",2016,12,38.5523,35.63939,33.87871,8.942125,9.264302083,1.439375,0.78346,1.09055,1.4685
"271",2016,12,31.18644,29.55611,26.45041,-41.9061875,-22.89505208,-7.099927083,0.14961,0.13386,0.11811
"272",2016,12,34.37024,32.07701,30.97025,8.9014375,8.536854167,-1.518989583,0.05512,0.07087,0.19685
"273",2016,12,47.67808,43.67135,40.91279,0.41046875,10.73548958,4.797572917,0.00787,0,0.00787
"274",2016,12,37.15229,35.75861,31.90207,-4.71034375,12.10403125,7.95871875,0.35039,0.72047,1.42126
"275",2016,12,10.04696,6.58724,5.62606,-70.7790625,-21.59203125,13.10863542,0.00787,0.00394,0.01575
"276",2016,12,26.99628,26.94037,30.98409,-19.08778125,2.643479167,3.93596875,0.00394,0,0
"277",2016,12,25.56734,24.64619,26.03894,13.13201042,24.85658333,21.09890625,0,0.00394,0.00394
"278",2016,12,31.12329,29.21544,28.56089,-14.88027083,23.22473958,2.47871875,0.02362,0.04331,0.05906
"279",2016,12,36.51425,35.18308,32.92859,19.03465625,18.84355208,11.81683333,0.25984,0.24803,0.21654
"280",2016,12,19.94077,18.4406,16.33312,4.236802083,-10.61459375,-11.0713125,0.57874,1.07087,0.96457
"281",2016,12,19.64778,17.1764,19.83646,16.38114583,-9.834833333,-10.72082292,0,0.00394,0
"282",2016,12,26.65754,24.75508,24.84808,-44.46473958,-15.23838542,-8.6984375,0.01575,0,0
"283",2016,12,24.52726,20.17552,23.13787,-68.70875,-13.37596875,24.28260417,0.00394,0,0
"284",2016,12,24.83598,24.05971,29.58736,-59.64853125,-24.34145833,-8.851229167,0,0,0
"285",2016,12,15.68988,15.50324,20.92316,-12.06827083,-12.446,-37.88447917,0.00394,0,0
"286",2017,1,18.95111,19.89136,25.47061,-16.78603125,7.704677083,-29.99870833,0.00394,0.00394,0.00787
"287",2017,1,21.90828,20.59173,19.31288,1.202,-13.50742708,-7.863192708,0.5315,0.65748,0.65354
"288",2017,1,25.89603,24.80801,22.53166,-21.64811458,-20.69790625,-16.18277083,0.04724,0.04724,0.05512
"289",2017,1,34.0601,33.15371,29.95897,-0.299708333,1.07934375,-1.250333333,0.28346,0.46063,0.75984
"290",2017,1,12.12224,10.50995,9.57954,-19.28777083,-25.6700625,-15.84058333,0.16142,0.1811,0.16929
"291",2017,1,15.55391,14.93189,21.24575,14.04444792,-20.1083125,-9.625135417,0.01969,0.02756,0.01575
"292",2017,1,36.94319,36.24787,35.41687,12.9210625,9.793166667,7.293572917,0.11024,0.1811,0.41339
"293",2017,1,41.86042,40.35639,36.34702,6.128958333,7.488375,8.323260417,0.1378,0.1811,0.33071
"294",2017,1,35.44595,33.75596,30.82544,2.140864583,-7.539739583,-5.264645833,0.33858,0.55118,0.79921
"295",2017,1,29.80514,28.9736,27.34597,5.594708333,-6.190614583,-13.47967708,0.05512,0.07087,0.11417
"296",2017,1,28.7261,28.96306,28.18286,5.04996875,15.60269792,-2.24565625,0.00394,0,0.00394
"297",2017,1,26.38063,24.72354,24.82989,-10.60497917,2.61575,-30.68486458,0,0,0.01575
"298",2017,1,18.65932,17.453,12.45592,-29.09106771,-12.80764583,-17.25783333,0,0,0.01181
"299",2017,1,18.66793,15.82762,15.70668,-58.11083333,-6.522427083,-18.95041667,0,0.00394,0
"300",2017,1,23.33158,21.24515,24.50126,-49.61869792,-15.07182292,-30.15583333,0,0,0
"301",2017,1,31.57149,31.12946,29.07629,-10.2306875,-12.10264583,-9.254208333,0.33858,0.46063,0.48425
"302",2017,1,29.84879,28.16951,25.65245,-0.91046875,-7.522510417,-1.51509375,0.01181,0.00787,0.03543
"303",2017,1,29.31313,27.72196,25.23097,-6.775854167,-12.30203125,-3.995677083,0.66142,0.94094,0.87008
"304",2017,1,29.06765,25.78963,24.32677,-21.57108333,-6.083822917,11.43994792,0.05906,0.09055,0.24016
"305",2017,1,20.77055,19.49555,16.25714,-0.2401875,-28.78471875,-18.65879167,0.16929,0.26772,0.29528
"306",2017,1,19.94579,17.93349,14.50651,-14.79991667,-32.82736458,-16.55973958,0.11024,0.11417,0.27559
"307",2017,1,13.89438,9.2807,8.11394,-71.22354167,-27.06603125,9.1726875,0,0,0.01969
"308",2017,1,14.90653,11.01352,10.46056,-53.978125,-9.365114583,7.127791667,0,0,0
"309",2017,1,16.88488,14.46485,19.48224,-49.86145833,17.83273958,-13.03885417,0,0,0
"310",2017,1,17.90585,17.79327,26.22122,-25.0563125,14.66447396,-32.85835417,0,0,0
"311",2017,1,22.23519,23.43431,31.66186,-0.353979167,2.035083333,-12.0959375,0,0,0
"312",2017,2,35.35801,33.80248,35.04472,-27.82778125,-10.50996875,-18.80276042,0,0,0
"313",2017,2,35.35751,32.40028,31.66402,-2.468697917,3.030541667,-3.613375,0.02756,0.05118,0.17323
"314",2017,2,40.29275,37.17933,35.14914,-4.62290625,28.78598958,9.7565,0,0,0.01181
"315",2017,2,41.92983,38.16541,37.81807,-13.75476042,0.975729167,-13.60628125,0.00394,0,0.00394
"316",2017,2,44.74692,43.33108,38.92606,-0.387359375,-0.241395833,-3.2745625,0,0,0.00787
"317",2017,2,44.82934,43.27427,38.49703,2.328833333,3.82140625,7.999864583,0,0.01575,0.22441
"318",2017,2,46.42127,43.06642,40.24164,34.06858333,20.77,7.605052083,0.00394,0,0.01969
"319",2017,2,53.4956,47.4635,44.36851,18.26691667,32.18886458,31.08865625,0,0.00394,0.01181
"320",2017,2,34.90021,32.67106,30.56347,20.08872917,-20.30723958,-23.70482292,0.38583,0.40157,0.41732
"321",2017,2,30.84262,28.72402,25.23305,9.3171875,-25.50611458,-46.66192708,0.00394,0.00787,0.01181
"322",2017,2,28.28291,25.38237,25.30781,6.734052083,-20.25670833,-38.38039583,0,0,0
"323",2017,2,32.51617,28.7144,28.49328,15.23802083,-7.01875,-29.033125,0,0,0
"324",2017,2,37.44901,32.63879,32.6435,16.5375,0.713552083,-25.11604167,0,0,0
"325",2017,2,41.99911,38.06864,35.9729,4.317708333,10.8496875,-4.743927083,0.02362,0.05118,0.03937
"326",2017,2,44.84137,40.71041,37.76349,17.1416875,18.37104167,19.11433333,0,0,0
"327",2017,2,41.45377,38.12135,35.39964,20.97401042,34.56010417,18.59123958,0.14567,0.23228,0.48819
"328",2017,2,44.19583,41.31961,38.46867,8.3253125,16.59252083,31.85852083,0,0,0.01575
"329",2017,2,46.63826,44.95573,40.89779,34.39716667,47.49772917,11.9730625,0.31102,0.39764,0.47638
"330",2017,2,30.89512,29.75148,27.19948,-1.909645833,-15.21957292,-30.0436875,0.32283,0.44094,0.58268
"331",2017,2,23.78945,22.40135,19.53736,0.625739583,-8.4986875,-14.20223958,0.55512,0.97638,1.20472
"332",2017,2,24.87661,21.43333,19.47999,-42.57233333,41.42463542,17.3785,0,0,0.01575
"333",2017,2,27.3966,25.69925,22.38104,-20.64403125,-17.9160625,-12.35967708,0.2874,0.38189,0.61024
"334",2017,2,22.58619,19.91013,17.81413,2.7254375,-44.79283333,-40.32579167,0.0315,0.07874,0.11417
"335",2017,3,27.40121,24.52961,21.48864,-26.30827083,-31.39563542,-33.88565625,0,0,0.00787
"336",2017,3,40.27349,33.88408,32.18006,-15.22083333,-1.3878125,-13.72842708,0,0,0
"337",2017,3,44.35063,42.54573,38.30889,71.13575,26.27235417,12.95016667,0.29921,0.74409,0.97638
"338",2017,3,25.56962,23.90347,20.35098,-13.48144271,22.00857292,-0.38784375,0.00394,0.00394,0.01969
"339",2017,3,33.53233,31.61126,28.39595,-6.148291667,14.74754167,-7.362739583,0,0.00394,0.00394
"340",2017,3,44.14188,40.06306,38.40296,58.43701563,22.20677083,13.94157292,0,0.00394,0
"341",2017,3,47.06392,41.06495,40.02399,67.99647917,35.88492708,8.86709375,0,0,0
"342",2017,3,45.21104,40.76056,38.43991,60.61936458,59.02294792,14.3495,0,0,0
"343",2017,3,47.70886,42.46809,39.22985,67.51509375,78.98884375,17.84651042,0,0,0
"344",2017,3,54.5078,48.01017,43.56512,66.39651042,77.28471875,26.16411458,0,0,0
"345",2017,3,58.08659,52.09818,45.22816,68.32802083,76.02173958,34.83760417,0,0,0
"346",2017,3,55.56631,51.84635,45.49691,66.2996875,70.94013542,38.866625,0,0,0
"347",2017,3,54.85274,49.38622,44.29029,70.65166667,76.16009375,38.3115,0,0,0
"348",2017,3,56.15673,53.53426,46.79506,55.33848958,59.4899375,42.42669792,0,0,0
"349",2017,3,58.18813,53.86342,47.03931,38.1529375,44.43554167,42.38654688,0,0,0
"350",2017,3,62.2085,60.64306,51.89278,65.17611458,63.347,57.49851042,0,0,0
"351",2017,3,50.55813,47.98499,41.83451,37.59508333,42.15745833,49.74291667,0.13386,0.19291,0.25197
"352",2017,3,35.01183,33.79094,31.84293,17.81559375,-1.84459375,-28.88664583,1.30315,1.42913,1.09843
"353",2017,3,41.28736,37.45696,32.27422,114.4207917,88.0905,43.3658125,0,0.01575,0.02756
"354",2017,3,40.05035,37.41011,32.39566,116.9881458,116.8215833,43.38425,0,0.01181,0.02756
"355",2017,3,39.37366,37.08789,33.92606,102.0476979,102.6162813,33.9531875,0.00394,0.00787,0.01575
"356",2017,3,41.82802,38.57454,35.28701,109.1465417,99.07802083,38.4884375,0,0,0.00394
"357",2017,3,45.03871,42.55265,39.07563,36.88845833,49.80933333,36.69194792,0.1811,0.17717,0.19685
"358",2017,4,40.79831,37.76073,35.09733,30.0083125,24.63965625,27.33734375,0.24409,0.37402,0.54331
"359",2017,4,37.7678,34.97045,31.72398,96.762625,127.618,91.56941667,0.00394,0.00787,0.02362
"360",2017,4,55.88992,52.29956,49.02373,94.46579167,98.24882292,106.5493333,0,0,0
"361",2017,4,59.89456,58.46844,53.14006,-8.90575,-3.63653125,12.22521875,0,0,0
"362",2017,4,31.10881,28.65899,25.49482,-29.65578125,-65.50711458,-19.67947917,0.27953,0.4252,0.38976
"363",2017,4,39.24238,34.40056,31.10761,75.3436875,42.038375,16.49219792,0,0,0.00787
"364",2017,4,47.50293,43.19909,39.30144,61.75004167,64.27715625,20.4404375,0,0,0
"365",2017,4,54.53677,48.59966,45.33551,128.4325,120.4441667,96.76166667,0,0,0
"366",2017,4,58.18981,54.70646,52.4561,146.6440313,137.4627083,122.0206563,0,0,0
"367",2017,5,62.444,58.62506,56.19965,178.6067396,168.7069792,109.1658333,0.00394,0.00394,0
"368",2017,5,66.1835,61.51597,61.03888,164.3290625,145.9629167,146.3531875,0,0,0
"369",2017,6,64.47913,59.08906,58.47275,88.03202083,109.7415833,99.01677083,0.04724,0.1063,0.12598
"370",2017,6,60.61663,55.13379,53.49026,188.5841146,193.3078542,201.0274375,0,0.00394,0.01575
"371",2017,6,69.12913,59.78947,61.69048,179.8871563,179.5671875,176.2247188,0,0.00394,0
"372",2017,6,75.42763,65.74006,66.80225,156.8228542,179.537,160.2272917,0,0,0
"373",2017,6,73.48175,63.96763,65.40838,177.7191667,176.840125,179.9673958,0,0,0
"374",2017,6,76.9235,68.31275,68.47719,176.7012813,176.1870833,181.2279167,0,0,0
"375",2017,6,74.91444,69.05619,67.51156,154.0271875,148.2217708,158.0486563,0,0,0
"376",2017,6,66.47975,63.25644,62.02404,183.7460833,176.2893021,182.1149896,0,0,0
"377",2017,6,59.78113,55.97002,54.37584,176.85,169.6001979,183.2034271,0,0,0
"378",2017,6,69.08563,63.08857,60.99862,173.6836458,168.9586458,178.6696875,0,0,0
"379",2017,6,56.29261,53.03109,49.30548,78.20426042,70.92819792,61.95646875,0,0,0
"380",2017,6,65.26738,59.13425,57.92004,166.3225,176.2979167,180.1107396,0,0,0
"381",2017,6,69.42519,61.61075,60.72144,186.7387292,186.2207292,199.5520833,0,0,0
"382",2017,6,65.0495,58.6775,56.76688,158.4058021,161.1420521,171.8029167,0,0,0
"383",2017,6,65.8355,58.77461,57.29737,188.3614583,183.0682292,197.0317396,0,0,0
"384",2017,6,72.15425,63.62919,62.84281,179.5623958,182.8745729,198.3289063,0,0,0
"385",2017,6,77.82331,68.771,66.92488,167.7979896,193.7143542,193.325,0,0,0
"386",2017,6,77.51722,67.66588,67.23706,169.8102813,174.9739688,186.6658438,0,0,0
"387",2017,6,68.11588,60.77844,59.06469,175.6134375,175.3867708,189.6437396,0,0,0
"388",2017,6,66.338,57.77353,56.59629,171.6155208,174.7953125,187.0268646,0,0,0
"389",2017,6,68.26513,59.46577,58.77123,171.3595833,174.8519792,186.5531771,0,0,0
"390",2017,6,74.02381,63.49344,62.97069,169.9995833,178.7595833,188.0603229,0,0,0
"391",2017,6,78.78088,66.97681,65.46931,156.3639583,165.9966146,179.3140938,0,0,0
"392",2017,6,70.41481,62.25013,59.76425,164.6805208,170.1257292,181.1590313,0,0,0
"393",2017,6,66.59994,58.89772,56.68012,163.0746875,169.2598958,179.2984375,0,0,0
"394",2017,7,72.12959,62.68904,60.75082,155.4935625,175.4131042,181.969,0,0,0
"395",2017,7,77.9885,66.92216,65.07444,147.1465625,162.2484583,185.9294479,0,0,0
"396",2017,7,79.95763,68.16725,66.48163,152.080625,165.9774063,184.4624583,0,0,0
"397",2017,7,81.52588,69.34569,68.03844,139.6535417,157.4089583,177.1774792,0,0,0
"398",2017,7,82.28375,71.01069,68.54713,143.4511458,158.0425417,189.6428854,0,0,0
"399",2017,7,81.86525,72.50169,67.95781,157.16625,170.2689688,164.0560104,0,0,0
"400",2017,7,79.47444,70.742,67.19281,130.5765208,145.4753542,171.121125,0,0,0
"401",2017,7,76.55647,69.30406,65.19425,107.5530729,124.4762083,126.8499792,0,0,0
"402",2017,7,74.30844,67.38538,64.103,108.8461458,116.2887708,115.6222083,0,0,0
"403",2017,7,74.30581,66.53619,63.83206,135.0865417,143.9586458,166.0580729,0,0,0
"404",2017,7,76.70881,69.98113,66.39988,125.7177292,140.8237083,155.9260313,0,0,0
"405",2017,7,78.65075,69.58156,66.41056,142.9143958,149.6025,186.201125,0,0,0
"406",2017,7,78.92731,70.72494,67.7345,145.2480208,154.4605729,194.3477813,0,0,0
"407",2017,7,76.36447,68.92681,65.52725,118.7685104,141.8435938,166.89325,0,0,0
"408",2017,7,78.74619,69.89544,66.98713,150.3476979,157.3522083,186.6221146,0,0,0.01181
"409",2017,7,77.129,69.9605,66.59506,107.9183021,109.3352917,142.6873646,0,0,0.00787
"410",2017,7,76.16956,69.60969,65.99506,152.8476667,158.6845104,199.91975,0,0.00787,0.06693
"411",2017,7,77.17681,68.59681,66.19025,114.9603021,149.7752708,165.7420313,0,0.00394,0
"412",2017,7,76.99438,68.90994,66.00369,120.4948438,152.9089896,167.6681042,0,0,0
"413",2017,7,76.286,69.65469,66.45547,111.9662708,134.3529167,168.2535,0,0.0315,0.08268
"414",2017,7,69.31138,65.0945,62.02194,192.3260104,185.1928646,191.5234167,1.33071,1.32283,0.78346
"415",2017,7,71.4605,64.13188,61.39119,101.3259896,98.55258333,121.8738542,0,0,0
"416",2017,7,72.33931,65.72469,62.60525,143.44625,157.7266354,178.3247813,0,0,0
"417",2017,7,75.05281,67.18344,64.42419,144.4082292,162.6555208,163.9551979,0,0,0
"418",2017,7,77.72806,67.87888,66.86291,139.2455208,163.9106042,154.1374479,0,0,0
"419",2017,8,76.6745,67.39906,65.33825,109.5463333,134.9895208,155.3234167,0,0,0
"420",2017,8,74.96225,67.16,64.99306,111.3138958,133.9426146,151.3723438,0,0,0
"421",2017,8,71.20625,63.94963,61.58075,87.5303125,115.2216667,122.6594896,0,0,0
"422",2017,8,69.56806,64.06869,61.64469,88.61923958,104.2009583,124.0638021,0.05906,0.04331,0
"423",2017,8,69.96744,63.54913,60.0935,121.9623854,145.2359896,168.6208229,0.00394,0.00394,0.01575
"424",2017,8,74.61969,66.68281,63.95563,113.280375,135.4842708,160.2795625,0.00394,0.00787,0
"425",2017,8,75.45613,68.02569,65.306,120.8155833,142.4002604,169.0890208,0,0,0
"426",2017,8,73.6175,67.31038,63.53956,101.5590625,120.2770938,149.2589167,0.01181,0.00787,0.02756
"427",2017,8,63.21838,58.57072,55.25094,117.3551667,131.1651146,157.9028125,0.00394,0.00787,0.01969
"428",2017,8,66.89244,59.51195,57.02857,98.03983333,118.6867396,145.1823438,0,0,0.00394
"429",2017,8,70.25956,62.84281,60.41469,107.3014583,129.295625,153.1548958,0,0,0
"430",2017,8,71.06131,62.94519,61.20106,101.0556979,125.5492604,150.9883333,0,0,0
"431",2017,8,73.68763,65.00113,63.81894,98.642875,133.5632396,157.2907708,0,0,0
"432",2017,8,73.73019,65.62006,63.90125,97.87677083,119.4380208,145.5645833,0,0,0
"433",2017,8,71.20119,64.74369,62.759,79.53802083,117.6005729,116.0529063,0,0,0
"434",2017,8,69.92938,62.85181,61.9865,61.05813542,93.28595833,98.30569792,0,0,0
"435",2017,8,70.62763,62.93338,61.4345,101.4153333,127.3353021,146.0513438,0,0.00394,0
"436",2017,8,73.28769,65.0285,63.50863,82.89354167,115.2513854,123.986125,0,0,0
"437",2017,8,75.85288,67.20406,66.6845,95.65139583,119.3876563,139.2548646,0,0,0
"438",2017,8,75.60481,66.81294,66.70456,85.31542708,112.28,136.1640625,0,0,0
"439",2017,8,76.06288,66.83806,66.76166,81.91466667,115.7814792,139.630625,0,0,0
"440",2017,8,77.69563,68.15956,68.22481,64.10691667,94.2465625,116.8535417,0,0,0
"441",2017,8,75.00988,68.39731,66.75894,94.37197917,119.6185833,133.2721042,0,0,0
"442",2017,8,68.93881,63.53844,61.25506,63.48157292,79.23069792,68.11344792,0,0,0
"443",2017,9,69.63444,62.84844,60.90031,79.94009375,103.0912917,124.7632292,0,0,0
"444",2017,9,74.24188,64.98913,65.43706,75.65359375,105.4748958,125.9832292,0,0,0
"445",2017,9,75.65844,66.794,66.59019,69.99846875,100.2309063,121.198875,0,0,0
"446",2017,9,76.39063,68.57019,69.12013,52.72476042,85.21321875,103.2632813,0,0,0
"447",2017,9,72.88231,63.68638,64.30588,36.96028125,73.378,88.92627083,0,0,0
"448",2017,9,72.30388,65.02831,64.53088,51.3209375,85.70796875,97.44845833,0,0,0
"449",2017,9,69.45575,62.61256,63.36875,60.85760417,93.38066667,89.9158125,0,0.01575,0
"450",2017,9,65.03394,58.94656,58.94469,31.25035417,48.85969792,62.95725,0,0.01575,0
"451",2017,9,66.872,60.9005,59.19088,76.439375,99.80135417,115.0201042,0.00394,0,0.01575
"452",2017,9,71.69563,63.4805,64.10113,69.5501875,100.2936458,109.9090625,0,0,0
"453",2017,9,70.31394,63.00013,62.33,64.64435417,95.48884375,103.8778125,0,0,0
"454",2017,9,67.94563,60.94738,60.91944,43.01197917,68.54717708,78.5826875,0.00394,0.01181,0
"455",2017,9,61.18213,57.49081,55.31863,16.36245833,28.12784375,28.25291667,0.04724,0.05512,0.01969
"456",2017,9,51.15243,48.19361,45.39682,45.7443125,34.95077083,42.92044792,1.23622,1.43701,1.47638
"457",2017,9,48.53739,44.84429,42.5988,61.37419792,110.7930417,117.7603438,0.00787,0.00787,0.03937
"458",2017,9,56.2037,50.35319,49.34424,58.981875,90.139375,84.01303125,0,0,0
"459",2017,9,63.89188,59.34286,57.34513,69.83348958,87.61626042,90.72378125,0,0,0
"460",2017,9,48.71338,45.44733,42.57948,34.40991667,32.085,30.20969792,0.14173,0.16535,0.19685
"461",2017,9,55.16441,51.13349,48.9158,66.47614583,92.37335417,99.64466667,0.00394,0.00394,0
"462",2017,9,44.12551,42.61886,41.71415,38.94402083,75.29253125,92.58615625,0.43701,0.4252,0.33071
"463",2017,9,40.19349,36.99202,34.78289,62.85186458,80.70960417,69.54225,0.12992,0.20472,0.28346
"464",2017,9,42.74291,38.88839,35.87926,70.97260417,79.54252083,62.19905208,0.00394,0.00394,0.01969
"465",2017,9,49.93983,42.71724,42.2351,57.95432292,77.80697917,56.7685625,0,0,0
"466",2017,9,53.97335,47.08059,46.75629,53.4246875,82.45645833,69.68760417,0,0,0
"467",2017,9,55.21025,51.37038,49.9355,23.1099375,45.0750625,36.28735417,0,0,0
"468",2017,9,55.10784,49.72657,47.36699,51.4960625,72.91782292,60.9759375,0,0,0
