Water_Year,Month,ARBRC_Temperature_F,TMC_Temperature_F,KFC_Temperature_F,ARBRC_Radiation_Wm2,TMC_Radiation_Wm2,KFC_Radiation_Wm2,ARBRC_Precipitation_in_corrected,TMC_Precipitation_in_corrected,KFC_Precipitation_in_corrected
2017,4,32.37617236,42.517325,37.695875,4.675891119,119.729375,86.2695,0,0,0
2017,5,32.9409701,45.24329375,41.3108375,-3.877598627,122.1074688,152.0004271,0,0,0.011811024
2017,5,34.72732622,45.5398625,42.104225,20.03434308,87.67648958,108.6513854,0.4331,0.051181102,0.082677165
