Year,Water_Year_Day,ARBRC_Temperature,TMC_Temperature,KFC_Temperature,ARBRC_Radiation,TMC_Radiation,KFC_Radiation,ARBRC_Precipitation,TMc_Precipitation,KFC_Precipitation,SNOTEL_Precipitation_in,SNOTEL_Temperature_F
2015,77,21.50679,20.12746,16.09606485,8.72346875,-23.520625,4.987134488,0.49,0.84,0.548086957,0.2,19.94
2015,78,21.29154,18.16537,17.44924483,-32.6354375,-14.76178125,4.876172748,0.01,0.01,0.567652174,0.3,19.22
2015,79,35.44886,32.33433,34.96668839,-47.80297917,-6.338458333,5.185925183,0,0,0.25426087,0,17.24
2015,80,41.11598,38.14475,40.26297463,-56.12270833,-29.49790625,4.830388405,0,0,0,0.1,28.94
2015,81,32.25189,30.57009,27.71510928,-11.79009375,-7.24128125,4.620600708,0.82,1.22,1.535342466,0,31.28
2015,82,33.62152,31.97639,29.44351244,2.2323125,-6.486791667,4.401564122,0,0.03,1.578082192,0.6,28.94
2015,83,30.70670,29.79650,23.66290176,-8.923270833,-16.17038542,4.08671956,2.06,3.75,1.578082192,0.4,29.66
2015,84,25.22966,23.60613,19.59641155,-10.10227083,-25.90551042,3.770447652,0.22,0.61,1.578082192,1.2,28.4
2015,85,23.73230,21.29504,18.82035232,-37.24208333,-10.5671875,3.546755899,0.35,0,0.741134819,0.3,21.38
2015,86,19.99951,17.96833,14.80549223,-19.57239583,-10.48960417,3.22710011,0.16,0.22,0.113243968,0.1,18.32
2015,87,11.65346,6.50750,10.07648754,-82.52854167,36.87977083,2.866217006,0,0,0.113243968,0,15.26
2015,88,11.27999,5.66602,8.885368909,-69.00947917,41.23604167,2.64977374,0,0,0.113243968,0,7.34
2015,89,14.25746,12.48266,9.761795074,-9.3926875,-9.764135417,2.519092724,0.04,0.03,0.091375222,0,10.94
2015,90,14.96096,13.22713,9.971059222,13.6088125,-15.70257292,2.35971817,0.18,0.17,0.174910587,0.1,15.98
2015,91,16.10660,13.40921,10.81390202,3.136645833,-8.56025,2.217379401,0.09,0.1,0.133258427,0,12.2
2015,92,11.15859,6.79083,10.14258142,-52.271875,23.122625,2.031210561,0,0,0.04,0,11.12
2015,98,35.14715,33.24091,30.64393369,-2.027541667,-1.111895833,24.43701493,0.56,0.62,0.508599034,0,33.62
2015,99,30.87796,29.76213,25.6962725,16.30625,33.40735417,15.50788731,0.33,0.53,0.51942029,0.8,32.54
2015,100,28.20093,27.28783,24.93608302,-10.01219792,-2.725885417,13.07600885,0.24,0.28,0.51942029,0,28.94
2015,101,26.90465,25.47725,25.5932629,-19.88364583,-10.57366667,12.90279425,0.01,0.01,0.51942029,0.1,26.42
2015,102,22.08592,19.44907,17.62936185,-4.978979167,-3.029197917,-1.191286159,0.05,0.09,0.51942029,0,24.44
2015,103,17.13037,12.79914,16.02048123,-72.03614583,-8.30403125,-5.104655137,0.01,0,0.51942029,0,18.5
2015,104,20.13665,15.95203,18.80624175,-61.80210417,-1.826291667,-1.774465772,0,0,0.51942029,0,9.5
2015,105,23.71070,22.44965,24.36587557,-39.31064583,-0.960979167,6.159041567,0,0,0.51942029,0,19.04
2015,106,27.13528,24.59280,22.56919436,-22.22079167,-15.26777083,2.029028737,0.16,0.29,0.51942029,0.1,26.42
2015,107,27.83212,26.64978,23.55449019,-0.776427083,-5.277677083,2.503162283,0.65,0.91,0.51942029,0.2,24.08
2015,108,29.64013,27.94715,25.22011451,-4.1435,-7.930802083,4.143227234,0.4,0.58,0.51942029,0.6,25.16
2015,109,33.85942,30.79233,28.75128074,-30.73373958,-18.69333333,8.935192391,0.07,0.12,0.51942029,0.4,27.14
2015,110,34.08562,32.26175,29.22795344,2.279166667,2.073427083,8.676791328,1.56,1.81,0.51942029,0,29.66
2015,111,29.58296,27.79865,24.98570771,2.460739583,0.809302083,0.470067318,0.04,0.16,0.51942029,1,30.92
2015,112,30.14083,28.09114,24.35153969,-20.92883333,-6.215276042,-1.673835752,0.37,0.82,0.51942029,0.2,25.88
2015,113,26.12263,21.17744,25.06705677,-64.23578125,-27.81813542,-1.495041602,0,0,0.51942029,0.4,25.34
2015,114,31.96308,28.13083,31.42332147,-44.32588542,-25.04691667,1.29923318,0,0,0.51942029,0,21.56
2015,115,35.03499,32.27146,33.40524,-10.17972917,-4.4498125,-6.321365915,0.89,1.2,0.51942029,0.1,30.38
2015,116,29.52374,28.66066,26.65700,-10.65041667,-8.71375,-6.637171249,0.53,0.78,0.51942029,0.6,32.18
2015,117,25.06304,23.62925,21.59161,-26.21835417,-27.00109375,14.17224953,0.26,0.2,0.51942029,0.4,27.86
2015,118,21.95699,18.40248,16.45627,-45.52871875,-0.559260417,15.22534523,0,0,0.51942029,0,21.92
2015,119,23.15851,19.53541,19.95504,-62.34648958,-11.95207292,23.41361804,0,0,0.302995169,0,15.98
2015,128,26.12999,24.38529,28.45962845,-31.93619792,-6.852916667,-45.76186884,0.24,0.26,0.36,0.2,19.58
2015,195,54.97162,50.35417,47.80355,113.48875,124.4307083,125.4967708,0,0,0.353742574,0,44.06
2015,196,50.22024,47.79238,44.18448,88.04908333,90.21027083,61.44077083,0.68,0.9,0.606415842,0,46.22
2015,197,41.70039,39.51088,36.04445,14.51578125,20.8426875,14.9390625,1.218,1.452,0.606415842,0.5,42.26
2015,198,36.50341,34.15766,30.05836,90.78166667,95.42832292,22.46170833,0.37,0.4,0.606415842,0.6,34.7
2015,199,41.73021,39.06239,36.45198,128.8159375,125.9542604,115.6744479,0,0,0.606415842,0.1,32.54
2015,200,44.90324,43.12753,38.17658,141.5829167,131.5519792,128.4854792,0,0,0.606415842,0,36.86
2015,201,44.89668,42.86101,38.76523,126.1659479,112.0953854,92.38213542,0,0,0.606415842,0,38.3
2015,202,49.18053,46.15389,43.16171,155.7822188,139.5942708,135.6839583,0,0,0.606415842,0,38.84
2015,203,55.78374,50.38859,48.40012,147.7144792,138.7033333,119.9067708,0,0,0.606415842,0,42.98
2015,204,63.44150,56.68248,54.74405,146.2909479,132.1526146,124.3352604,0,0,0.606415842,0,47.48
2015,205,64.37375,59.64344,57.62158,132.0994792,129.568625,108.4302813,0,0,0.606415842,0,52.16
2015,206,46.84381,45.35564,41.23301,83.26445833,86.97602083,83.54003125,2.95,3.7,0.606415842,0,52.7
2015,207,45.53681,43.53869,36.59819,159.1485313,147.6751354,42.0906875,0.65,0.78,0.606415842,1.8,39.02
2015,208,45.57481,43.67690,38.01376,82.48659375,85.5623125,85.30103125,0.05,0.18,0.606415842,0.5,37.58
2015,209,41.46243,39.47921,35.32108,33.61767708,41.68869792,49.86119792,1.22,1.83,0.606415842,0.3,37.94
2015,210,44.39803,42.46816,36.69815,86.86863542,85.10166667,86.64286458,0.11,0.22,0.606415842,1.5,36.14
2015,211,42.84575,41.83211,36.64006,107.8310521,100.6547917,116.66025,0.03,0.01,0.606415842,0.2,38.84
2015,212,42.80913,41.03214,36.71981,103.3205208,89.07072917,84.17182292,0.02,0.05,0.606415842,0.1,37.04
2015,213,46.97701,44.80567,40.44838,128.8343229,120.9422604,162.91125,0,0,0.606415842,0.1,37.76
2015,214,47.65873,45.94319,40.72751,162.2448958,137.1707188,152.5962708,0,0,0.606415842,0,40.46
2015,215,50.28449,46.72396,43.31383,140.0926667,104.1148958,79.09642708,0,0,0.606415842,0,40.64
2015,216,54.20615,49.33940,47.51484,167.3582292,140.7557604,150.3952292,0,0,0.507940594,0,43.16
2015,240,52.34718,48.89684,45.06710,137.7447917,109.7820208,108.3690417,0.04,0.11,0,0.1,44.78
2015,241,55.19609,51.45268,49.03618,204.5515938,171.4978125,191.5914583,0,0,0,0,46.22
2015,242,59.22050,55.08854,53.86873,153.0952396,143.748125,142.1300313,0,0.01,0,0,48.92
2015,243,58.15411,54.57941,52.29328,222.0034271,203.1174792,201.7892188,0.08,0.08,0,0,53.24
2015,244,56.63769,52.07953,50.39707,195.7327396,167.3598958,178.47125,0,0,0,0.1,51.62
2015,245,60.27350,54.57200,53.73442,194.040625,172.7432292,180.9821875,0,0,0,0,50.18
2015,246,65.07388,58.66978,58.92397,155.6025729,146.2864479,151.28,0,0,0,0,53.42
2015,247,63.91569,58.61984,57.98544,192.0042396,170.0285417,185.1731354,0,0,0,0,57.92
2015,248,68.28856,61.18719,61.37525,201.1635208,176.9435417,183.8259792,0,0,0,0,56.84
2015,249,72.08938,63.23675,64.53463,197.2200938,182.2465625,187.389375,0,0,0,0,60.44
2015,250,75.24500,68.31556,67.55938,137.6176563,142.9399063,126.9053229,0,0,0,0,63.68
2015,251,69.85850,64.53125,63.15350,175.1490729,167.2145104,167.6494792,0,0,0.02,0,65.3
