Year 		0.0862379138229693
Day			0.132336763492265
ARBRC Temp	-0.706374819181065
TMC Temp	0.951736158656656
ARBRC Rad	-0.0812097552874155
TMC Rad		-0.0400034281181855
KFC Rad		-0.155476574949567
ARBRC Prec	0.0269034432982548
TMC Prec	-0.184617998646865
KFC Prec	-0.361855651600761
