,V1,V2,V3,V4,V5,V6,V7,V8,V9,V10,V11,V12,V13,V14,V15,V16,V17,V18,V19,V20,V21,V22,V23,V24,V25,V26,V27,V28,V29,V30,V31,V32,V33,V34,V35,V36,V37,V38,V39,V40,V41,V42,V43,V44,V45,V46,V47,V48,V49,V50,V51,V52,V53,V54,V55,V56,V57,V58,V59,V60,V61,V62,V63,V64,V65,V66,V67,V68,V69,V70,V71,V72,V73,V74,V75,V76,V77,V78,V79,V80,V81,V82,V83,V84,V85,V86,V87,V88,V89,V90,V91,V92,V93,V94,V95,V96,V97,V98,V99,V100
Partition,1,2,3,4,5,6,7,8,9,10,11,12,13,14,15,16,17,18,19,20,21,22,23,24,25,26,27,28,29,30,31,32,33,34,35,36,37,38,39,40,41,42,43,44,45,46,47,48,49,50,51,52,53,54,55,56,57,58,59,60,61,62,63,64,65,66,67,68,69,70,71,72,73,74,75,76,77,78,79,80,81,82,83,84,85,86,87,88,89,90,91,92,93,94,95,96,97,98,99,100
Algorithm,backprop,backprop,backprop,backprop,backprop,backprop,backprop,backprop,backprop,backprop,backprop,backprop,backprop,backprop,backprop,backprop,backprop,backprop,backprop,backprop,backprop,backprop,backprop,backprop,backprop,backprop,backprop,backprop,backprop,backprop,backprop,backprop,backprop,backprop,backprop,backprop,backprop,backprop,backprop,backprop,backprop,backprop,backprop,backprop,backprop,backprop,backprop,backprop,backprop,backprop,backprop,backprop,backprop,backprop,backprop,backprop,backprop,backprop,backprop,backprop,backprop,backprop,backprop,backprop,backprop,backprop,backprop,backprop,backprop,backprop,backprop,backprop,backprop,backprop,backprop,backprop,backprop,backprop,backprop,backprop,backprop,backprop,backprop,backprop,backprop,backprop,backprop,backprop,backprop,backprop,backprop,backprop,backprop,backprop,backprop,backprop,backprop,backprop,backprop,backprop
Nodes,2,2,2,2,2,2,2,2,2,2,2,2,2,2,2,2,2,2,2,2,2,2,2,2,2,2,2,2,2,2,2,2,2,2,2,2,2,2,2,2,2,2,2,2,2,2,2,2,2,2,2,2,2,2,2,2,2,2,2,2,2,2,2,2,2,2,2,2,2,2,2,2,2,2,2,2,2,2,2,2,2,2,2,2,2,2,2,2,2,2,2,2,2,2,2,2,2,2,2,2
Thresh,0.02,0.02,0.02,0.02,0.02,0.02,0.02,0.02,0.02,0.02,0.02,0.02,0.02,0.02,0.02,0.02,0.02,0.02,0.02,0.02,0.02,0.02,0.02,0.02,0.02,0.02,0.02,0.02,0.02,0.02,0.02,0.02,0.02,0.02,0.02,0.02,0.02,0.02,0.02,0.02,0.02,0.02,0.02,0.02,0.02,0.02,0.02,0.02,0.02,0.02,0.02,0.02,0.02,0.02,0.02,0.02,0.02,0.02,0.02,0.02,0.02,0.02,0.02,0.02,0.02,0.02,0.02,0.02,0.02,0.02,0.02,0.02,0.02,0.02,0.02,0.02,0.02,0.02,0.02,0.02,0.02,0.02,0.02,0.02,0.02,0.02,0.02,0.02,0.02,0.02,0.02,0.02,0.02,0.02,0.02,0.02,0.02,0.02,0.02,0.02
RMS Train,0.022840963,0.01765721,0.024089372,0.020963411,0.023093412,0.022255895,0.021046777,0.021927754,0.02189531,0.022855158,0.02198606,0.02167644,0.02211594,0.022240133,0.022570722,0.022210206,0.022604313,0.023725931,0.022301167,0.023000748,0.020701002,0.024592348,0.022513242,0.02464733,0.022933789,0.023957131,0.022054301,0.021634969,0.024230628,0.019954064,0.022691886,0.022980532,0.021281652,0.023706481,0.020202429,0.024002599,0.018674419,0.023443313,0.020981554,0.023607439,0.021565722,0.024434047,0.021992709,0.021760158,0.023759446,0.022876707,0.021993135,0.023989285,0.022082643,0.024036171,0.023921086,0.022611438,0.020755674,0.0208728,0.022497894,0.023316795,0.023724694,0.02236047,0.022757565,0.02179222,0.023842178,0.023133596,0.021007618,0.021251842,0.022034771,0.024058139,0.022655516,0.024295718,0.023755598,0.024523479,0.024331662,0.02320345,0.024294257,0.023785059,0.023810807,0.022644017,0.024094495,0.022425644,0.024461452,0.022480957,0.024150912,0.023888563,0.023170341,0.024471245,0.02042441,0.023610779,0.022612057,0.023892438,0.022737338,0.023172943,0.021124948,0.024148747,0.023776906,0.02418595,0.023972069,0.020573445,0.022071088,0.023416584,0.022056441,0.023883219
Train R^2,0.983628348,0.988753691,0.97888204,0.983579926,0.981459485,0.981907165,0.983786823,0.980357221,0.983988893,0.981518814,0.984013936,0.983974466,0.984219967,0.984092677,0.98292757,0.980743627,0.982957339,0.982176791,0.984718052,0.979030731,0.985913885,0.979272502,0.981626542,0.976624054,0.983383511,0.982860375,0.983652008,0.981256353,0.977896379,0.982856049,0.980916314,0.982454345,0.983204423,0.981529475,0.985678737,0.982029744,0.983785416,0.980441356,0.985529491,0.981721726,0.982681624,0.981409953,0.982560742,0.981677364,0.982356652,0.982308999,0.981632424,0.979072192,0.979752552,0.978831176,0.980367534,0.982731222,0.985189049,0.983781464,0.983793653,0.983065321,0.981365313,0.983809141,0.983680888,0.976940872,0.981351294,0.983559812,0.985749545,0.985124487,0.984271673,0.977513384,0.983654612,0.980015448,0.97782525,0.98136285,0.979642586,0.983538899,0.981769809,0.975008039,0.979973116,0.984366483,0.977517702,0.976710157,0.980585353,0.981814921,0.982015107,0.981748303,0.983369817,0.981355762,0.984217103,0.983252751,0.981570133,0.982847281,0.981535096,0.980735021,0.984419774,0.979845938,0.98231121,0.981828351,0.977931961,0.983592602,0.977931397,0.982853844,0.982343827,0.974769453
RMS Test,0.02552195,0.016223934,0.016843288,0.029021635,0.021681145,0.024914008,0.028781333,0.026042468,0.026150511,0.022660333,0.025846764,0.026863955,0.025403496,0.024969771,0.02376417,0.025075195,0.023637198,0.018778161,0.024752929,0.022068356,0.029759321,0.013659555,0.02397944,0.013260696,0.022343031,0.01757543,0.025615146,0.026996221,0.016019544,0.031718371,0.023302035,0.022151727,0.028087979,0.018875337,0.031088571,0.017327642,0.034671349,0.020136808,0.028969587,0.019361397,0.027215079,0.014743272,0.025824318,0.026594167,0.018609336,0.022573927,0.025822881,0.017400615,0.025518117,0.017142077,0.017769087,0.023610156,0.029607903,0.029279515,0.024036501,0.020711217,0.018784358,0.024539825,0.023046599,0.026489839,0.018184833,0.021510569,0.028894575,0.028177353,0.02568172,0.017019414,0.02344197,0.015623654,0.018628809,0.014142097,0.015400207,0.021210069,0.01563266,0.018479115,0.018347131,0.023485995,0.0168142,0.024302806,0.014561921,0.02409927,0.016490062,0.017941775,0.021353141,0.014496519,0.03050789,0.019345241,0.023607806,0.017921302,0.023125643,0.021341937,0.02855329,0.016502634,0.018520681,0.016285115,0.01749446,0.030108107,0.025557735,0.020259779,0.025607835,0.017969969
Test R^2 * -1,-0.956972198,-0.991625099,-0.991346669,-0.976352763,-0.983080367,-0.981352168,-0.975258733,-0.984793694,-0.970403289,-0.982737947,-0.969505885,-0.971770511,-0.965896437,-0.966136458,-0.975861628,-0.984383274,-0.975500654,-0.978526512,-0.949300411,-0.988196875,-0.957863212,-0.992839204,-0.982268427,-0.995467391,-0.969329889,-0.96263712,-0.972479194,-0.98291108,-0.99294802,-0.97944721,-0.984378624,-0.977759318,-0.977306696,-0.983142432,-0.966480235,-0.979194474,-0.978372707,-0.986625877,-0.960301903,-0.982096851,-0.978728161,-0.984669311,-0.97879366,-0.981978176,-0.976546559,-0.979225886,-0.982001143,-0.990754798,-0.985825428,-0.991258053,-0.987966163,-0.977160856,-0.966923439,-0.975707011,-0.967887554,-0.970169624,-0.983911404,-0.968930448,-0.966712047,-0.988159101,-0.984224226,-0.961980979,-0.956149877,-0.96298445,-0.965820668,-0.992712719,-0.968011503,-0.990085886,-0.991452282,-0.985137393,-0.990978281,-0.962241876,-0.981214439,-0.993351982,-0.988556857,-0.952027664,-0.992798242,-0.989292489,-0.989104738,-0.981643218,-0.978672889,-0.981547579,-0.965964843,-0.985181146,-0.974550489,-0.96049531,-0.982471332,-0.9645475,-0.982573748,-0.985391286,-0.971074077,-0.989949832,-0.976588907,-0.981022267,-0.992068441,-0.976895538,-0.987652626,-0.972099058,-0.979833807,-0.993781993
Test R^2,0.956972198,0.991625099,0.991346669,0.976352763,0.983080367,0.981352168,0.975258733,0.984793694,0.970403289,0.982737947,0.969505885,0.971770511,0.965896437,0.966136458,0.975861628,0.984383274,0.975500654,0.978526512,0.949300411,0.988196875,0.957863212,0.992839204,0.982268427,0.995467391,0.969329889,0.96263712,0.972479194,0.98291108,0.99294802,0.97944721,0.984378624,0.977759318,0.977306696,0.983142432,0.966480235,0.979194474,0.978372707,0.986625877,0.960301903,0.982096851,0.978728161,0.984669311,0.97879366,0.981978176,0.976546559,0.979225886,0.982001143,0.990754798,0.985825428,0.991258053,0.987966163,0.977160856,0.966923439,0.975707011,0.967887554,0.970169624,0.983911404,0.968930448,0.966712047,0.988159101,0.984224226,0.961980979,0.956149877,0.96298445,0.965820668,0.992712719,0.968011503,0.990085886,0.991452282,0.985137393,0.990978281,0.962241876,0.981214439,0.993351982,0.988556857,0.952027664,0.992798242,0.989292489,0.989104738,0.981643218,0.978672889,0.981547579,0.965964843,0.985181146,0.974550489,0.96049531,0.982471332,0.9645475,0.982573748,0.985391286,0.971074077,0.989949832,0.976588907,0.981022267,0.992068441,0.976895538,0.987652626,0.972099058,0.979833807,0.993781993
