Water_Year,Month,ARBRC_Temperature_F,TMC_Temperature_F,KFC_Temperature_F,ARBRC_Radiation_Wm2,TMC_Radiation_Wm2,KFC_Radiation_Wm2,ARBRC_Precipitation_in,TMC_Precipitation_in,KFC_Precipitation_in
2015,10,71.00000,64.00000,63.00000,35.00000,48.00000,37.00000,0.00000,0.00000,0.00000
2015,10,54.00000,51.00000,49.00000,36.00000,58.00000,53.00000,0.46000,0.60000,0.43000
2015,10,52.00000,51.00000,47.00000,49.00000,68.00000,58.00000,0.58000,0.57000,0.68000
2015,10,59.00000,54.00000,51.00000,55.00000,77.00000,75.00000,0.00000,0.01000,0.03000
2015,10,59.00000,55.00000,53.00000,41.00000,57.00000,67.00000,0.00000,0.00000,0.02000
2015,10,56.00000,53.00000,50.00000,35.00000,42.00000,40.00000,0.00000,0.01000,0.08000
2015,10,55.00000,51.00000,49.00000,51.00000,73.00000,69.00000,0.00000,0.00000,0.01000
2015,10,59.00000,54.00000,53.00000,50.00000,72.00000,61.00000,0.00000,0.00000,0.00000
2015,10,60.00000,53.00000,52.00000,6.00000,30.00000,25.00000,0.00000,0.00000,0.00000
2015,10,66.00000,60.00000,59.00000,37.00000,70.00000,55.00000,0.00000,0.00000,0.00000
2015,10,61.00000,56.00000,55.00000,35.00000,68.00000,50.00000,0.00000,0.00000,0.00000
2015,10,58.00000,52.00000,51.00000,24.00000,65.00000,47.00000,0.00000,0.01000,0.00000
2015,10,62.00000,55.00000,55.00000,22.00000,65.00000,48.00000,0.00000,0.00000,0.00000
2015,10,63.00000,56.00000,55.00000,20.00000,63.00000,45.00000,0.00000,0.00000,0.00000
2015,10,64.00000,56.00000,57.00000,13.00000,59.00000,39.00000,0.00000,0.00000,0.00000
2015,10,67.00000,59.00000,59.00000,7.00000,57.00000,35.00000,0.00000,0.00000,0.00000
2015,10,59.00000,54.00000,54.00000,10.00000,38.00000,29.00000,0.34000,0.41000,0.35000
2015,10,56.00000,54.00000,52.00000,72.00000,109.00000,101.00000,0.55000,0.68000,0.76000
2015,10,53.00000,50.00000,47.00000,37.00000,63.00000,55.00000,0.00000,0.01000,0.06000
2015,10,49.00000,45.00000,43.00000,54.00000,67.00000,48.00000,0.17000,0.19000,0.14000
2015,10,52.00000,47.00000,46.00000,1.00000,22.00000,16.00000,0.00000,0.01000,0.00000
2015,10,49.00000,44.00000,42.00000,33.00000,60.00000,27.00000,0.18000,0.30000,0.00000
2015,10,46.00000,42.00000,40.00000,34.00000,97.00000,45.00000,0.01000,0.03000,0.00000
2015,10,50.00000,45.00000,43.00000,24.00000,63.00000,34.00000,0.00000,0.00000,0.00000
2015,10,53.00000,48.00000,48.00000,-11.00000,11.00000,6.00000,0.00000,0.00000,0.00000
2015,10,52.00000,47.00000,46.00000,10.00000,53.00000,30.00000,0.00000,0.00000,0.00000
2015,10,44.00000,39.00000,38.00000,-13.00000,23.00000,9.00000,0.00000,0.00000,0.00000
2015,10,45.00000,41.00000,40.00000,4.00000,26.00000,21.00000,0.00000,0.00000,0.00000
2015,10,43.00000,40.00000,38.00000,11.00000,23.00000,20.00000,0.26000,0.35000,0.31000
2015,10,39.00000,36.00000,34.00000,54.00000,92.00000,95.00000,0.01000,0.04000,0.06000
2015,10,50.00000,46.00000,43.00000,30.00000,81.00000,47.00000,0.00000,0.00000,0.04000
2015,11,56.00000,53.00000,51.00000,9.00000,38.00000,36.00000,0.00000,0.00000,0.00000
2015,11,57.00000,54.00000,51.00000,-1.00000,15.00000,13.00000,0.00000,0.00000,0.00000
2015,11,48.00000,46.00000,42.00000,16.00000,28.00000,23.00000,0.01000,0.06000,0.21000
2015,11,35.00000,34.00000,30.00000,-2.00000,8.00000,10.00000,0.04000,0.05000,0.04000
2015,11,32.00000,30.00000,27.00000,-2.00000,12.00000,-4.00000,0.05000,0.09000,0.12000
2015,11,32.00000,30.00000,26.00000,13.00000,14.00000,3.00000,0.17000,0.19000,0.41000
2015,11,34.00000,29.00000,26.00000,-9.00000,63.00000,16.00000,0.01000,0.00000,0.03000
2015,11,41.00000,35.00000,34.00000,-19.00000,26.00000,-5.00000,0.00000,0.00000,0.00000
2015,11,44.00000,39.00000,38.00000,17.00000,45.00000,30.00000,0.15000,0.20000,0.20000
2015,11,32.00000,30.00000,28.00000,8.00000,5.00000,-4.00000,0.67000,0.82000,0.80000
2015,11,31.00000,28.00000,25.00000,20.00000,2.00000,-9.00000,0.05000,0.06000,0.06000
2015,11,33.00000,29.00000,26.00000,-15.00000,18.00000,-4.00000,0.01000,0.00000,0.03000
2015,11,36.00000,30.00000,28.00000,-26.00000,22.00000,-21.00000,0.00000,0.00000,0.00000
2015,11,40.00000,34.00000,33.00000,-29.00000,21.00000,-17.00000,0.00000,0.00000,0.00000
2015,11,44.00000,39.00000,37.00000,-15.00000,29.00000,-3.00000,0.00000,0.00000,0.00000
2015,11,34.00000,32.00000,29.00000,17.00000,24.00000,2.00000,0.08000,0.18000,0.31000
2015,11,27.00000,25.00000,22.00000,19.00000,35.00000,-1.00000,0.02000,0.00000,0.06000
2015,11,35.00000,33.00000,31.00000,-10.00000,14.00000,-4.00000,0.00000,0.03000,0.00000
2015,11,40.00000,37.00000,34.00000,9.00000,24.00000,25.00000,0.00000,0.02000,0.08000
2015,11,36.00000,34.00000,30.00000,-6.00000,42.00000,3.00000,0.03000,0.08000,0.35000
2015,11,28.00000,23.00000,22.00000,-44.00000,1.00000,-36.00000,0.01000,0.00000,0.03000
2015,11,31.00000,26.00000,27.00000,-41.00000,4.00000,-28.00000,0.00000,0.00000,0.00000
2015,11,37.00000,32.00000,36.00000,-22.00000,11.00000,-7.00000,0.00000,0.00000,0.00000
2015,11,43.00000,38.00000,38.00000,-41.00000,-24.00000,-18.00000,0.00000,0.00000,0.00000
2015,11,41.00000,39.00000,35.00000,-21.00000,-4.00000,-3.00000,0.23000,0.27000,0.46000
2015,11,23.00000,22.00000,18.00000,-7.00000,41.00000,-15.00000,0.07000,0.06000,0.11000
2015,11,19.00000,18.00000,16.00000,-25.00000,-3.00000,6.00000,0.00000,0.00000,0.02000
2015,11,20.00000,18.00000,14.00000,14.00000,22.00000,-2.00000,0.14000,0.18000,0.25000
2015,11,19.00000,17.00000,14.00000,-10.00000,20.00000,-2.00000,0.04000,0.04000,0.04000
2015,11,20.00000,18.00000,15.00000,-1.00000,39.00000,13.00000,0.04000,0.03000,0.10000
2015,12,22.00000,18.00000,16.00000,-45.00000,5.00000,-3.00000,0.00000,0.00000,0.00000
2015,12,27.00000,22.00000,23.00000,-37.00000,-5.00000,-24.00000,0.00000,0.00000,0.00000
2015,12,34.00000,30.00000,32.00000,-23.00000,8.00000,-17.00000,0.00000,0.00000,0.00000
2015,12,37.00000,34.00000,36.00000,-14.00000,-2.00000,-12.00000,0.00000,0.00000,0.00000
2015,12,31.00000,27.00000,25.00000,-42.00000,4.00000,-25.00000,0.00000,0.00000,0.00000
2015,12,38.00000,32.00000,34.00000,-28.00000,2.00000,-14.00000,0.00000,0.00000,0.00000
2015,12,42.00000,37.00000,38.00000,-12.00000,15.00000,1.00000,0.07000,0.16000,0.22000
2015,12,43.00000,38.00000,37.00000,-13.00000,43.00000,29.00000,0.01000,0.02000,0.04000
2015,12,48.00000,43.00000,41.00000,-26.00000,-8.00000,-5.00000,0.00000,0.00000,0.00000
2015,12,42.00000,39.00000,38.00000,-3.00000,13.00000,-2.00000,0.41000,0.60000,0.99000
2015,12,29.00000,28.00000,25.00000,10.00000,26.00000,10.00000,0.48000,0.46000,0.25000
2015,12,27.00000,24.00000,21.00000,20.00000,13.00000,17.00000,0.02000,0.00000,0.09000
2015,12,32.00000,29.00000,27.00000,-17.00000,-15.00000,5.00000,0.08000,0.13000,0.15000
2015,12,26.00000,25.00000,23.00000,2.00000,-7.00000,-11.00000,2.80000,4.11000,3.23000
2015,12,23.00000,21.00000,18.00000,-9.00000,-15.00000,-20.00000,0.23000,0.42000,0.47000
2016,1,25.00000,26.00000,32.00000,-21.00000,-9.00000,-13.00000,0.00000,0.00000,0.00000
2016,1,34.00000,32.00000,33.00000,-22.00000,-15.00000,-12.00000,0.00000,0.00000,0.00000
2016,1,36.00000,34.00000,34.00000,15.00000,14.00000,3.00000,0.05000,0.08000,0.08000
2016,1,28.00000,25.00000,27.00000,-46.00000,-11.00000,-10.00000,0.00000,0.00000,0.04000
2016,1,36.00000,33.00000,33.00000,-4.00000,4.00000,4.00000,0.11000,0.15000,0.27000
2016,1,30.00000,29.00000,26.00000,7.00000,-4.00000,-7.00000,1.24000,1.56000,1.46000
2016,1,24.00000,22.00000,20.00000,19.00000,-32.00000,-12.00000,0.11000,0.10000,0.17000
2016,2,21.00000,20.00000,16.00000,-13.00000,-24.00000,16.00000,0.14000,0.18000,0.55000
2016,2,15.00000,12.00000,10.00000,-50.00000,-27.00000,10.00000,0.01000,0.00000,0.10000
2016,2,19.00000,16.00000,12.00000,-33.00000,-37.00000,-12.00000,0.00000,0.04000,0.20000
2016,2,22.00000,19.00000,18.00000,-2.00000,-8.00000,-7.00000,0.10000,0.13000,0.19000
2016,2,28.00000,24.00000,24.00000,-51.00000,-18.00000,26.00000,0.00000,0.00000,0.00000
2016,2,29.00000,26.00000,27.00000,-52.00000,-19.00000,-33.00000,0.00000,0.00000,0.00000
2016,2,30.00000,27.00000,27.00000,-47.00000,-17.00000,-29.00000,0.00000,0.00000,0.00000
2016,2,30.00000,27.00000,30.00000,-46.00000,-16.00000,-32.00000,0.00000,0.00000,0.00000
2016,2,26.00000,26.00000,31.00000,-26.00000,-15.00000,-31.00000,0.00000,0.00000,0.00000
2016,2,26.00000,27.00000,34.00000,-17.00000,-8.00000,-24.00000,0.00000,0.00000,0.00000
2016,2,26.00000,27.00000,36.00000,-13.00000,-6.00000,-26.00000,0.00000,0.00000,0.00000
2016,2,29.00000,29.00000,34.00000,-22.00000,-12.00000,-23.00000,0.00000,0.00000,0.00000
2016,2,34.00000,32.00000,31.00000,-2.00000,-4.00000,-11.00000,0.79000,1.00000,1.44000
2016,2,41.00000,38.00000,37.00000,33.00000,35.00000,26.00000,0.09000,0.12000,0.24000
2016,2,42.00000,38.00000,37.00000,-5.00000,5.00000,-13.00000,0.00000,0.00000,0.02000
2016,2,48.00000,41.00000,42.00000,9.00000,6.00000,3.00000,0.00000,0.00000,0.00000
2016,2,40.00000,39.00000,35.00000,13.00000,-4.00000,6.00000,0.70000,1.41000,1.61000
2016,2,38.00000,34.00000,32.00000,-21.00000,-12.00000,-3.00000,0.01000,0.00000,0.07000
2016,2,38.00000,35.00000,34.00000,59.00000,10.00000,-1.00000,0.00000,0.00000,0.00000
2016,2,36.00000,33.00000,31.00000,35.00000,-3.00000,-16.00000,0.00000,0.00000,0.00000
2016,2,33.00000,31.00000,28.00000,40.00000,4.00000,13.00000,0.20000,0.22000,0.16000
2016,2,31.00000,28.00000,25.00000,41.00000,-14.00000,-12.00000,0.01000,0.00000,0.05000
2016,2,34.00000,30.00000,28.00000,39.00000,-4.00000,-23.00000,0.00000,0.00000,0.01000
2016,2,39.00000,34.00000,32.00000,43.00000,6.00000,-17.00000,0.00000,0.00000,0.00000
2016,2,44.00000,37.00000,36.00000,42.00000,12.00000,-8.00000,0.00000,0.00000,0.00000
2016,2,46.00000,40.00000,39.00000,42.00000,17.00000,-4.00000,0.00000,0.00000,0.00000
2016,2,41.00000,36.00000,34.00000,49.00000,17.00000,1.00000,0.00000,0.00000,0.00000
2016,2,40.00000,36.00000,35.00000,21.00000,1.00000,-3.00000,0.00000,0.00000,0.00000
2016,3,45.00000,39.00000,37.00000,43.00000,26.00000,17.00000,0.00000,0.00000,0.00000
2016,3,46.00000,40.00000,38.00000,58.00000,20.00000,2.00000,0.00000,0.00000,0.00000
2016,3,49.00000,42.00000,40.00000,42.00000,28.00000,15.00000,0.00000,0.00000,0.00000
2016,3,51.00000,44.00000,42.00000,59.00000,43.00000,20.00000,0.00000,0.00000,0.00000
2016,3,53.00000,47.00000,43.00000,6.00000,13.00000,8.00000,0.00000,0.00000,0.00000
2016,3,45.00000,43.00000,39.00000,27.00000,23.00000,13.00000,1.32000,2.16000,2.17000
2016,3,34.00000,32.00000,29.00000,36.00000,-21.00000,-18.00000,0.70000,0.60000,0.70000
2016,3,37.00000,32.00000,29.00000,70.00000,4.00000,-14.00000,0.01000,0.00000,0.05000
2016,3,39.00000,36.00000,32.00000,91.00000,51.00000,2.00000,0.17000,0.33000,0.48000
2016,3,48.00000,42.00000,38.00000,69.00000,36.00000,4.00000,0.00000,0.00000,0.03000
2016,3,53.00000,48.00000,43.00000,10.00000,18.00000,-1.00000,0.00000,0.00000,0.00000
2016,3,48.00000,42.00000,40.00000,60.00000,42.00000,17.00000,0.00000,0.00000,0.00000
2016,3,47.00000,43.00000,39.00000,47.00000,58.00000,37.00000,0.00000,0.00000,0.00000
2016,3,37.00000,36.00000,32.00000,22.00000,9.00000,-2.00000,0.70000,1.27000,1.73000
2016,3,31.00000,29.00000,26.00000,55.00000,-12.00000,-37.00000,0.15000,0.27000,0.55000
2016,3,35.00000,33.00000,30.00000,116.00000,44.00000,-6.00000,0.00000,0.00000,0.04000
2016,3,40.00000,37.00000,34.00000,73.00000,66.00000,13.00000,0.00000,0.00000,0.00000
2016,3,35.00000,32.00000,28.00000,88.00000,81.00000,-3.00000,0.00000,0.00000,0.04000
2016,3,40.00000,35.00000,33.00000,80.00000,72.00000,9.00000,0.00000,0.00000,0.00000
2016,3,51.00000,46.00000,42.00000,85.00000,83.00000,36.00000,0.00000,0.00000,0.00000
2016,3,56.00000,54.00000,47.00000,33.00000,36.00000,28.00000,0.00000,0.00000,0.00000
2016,3,36.00000,34.00000,31.00000,0.00000,-24.00000,-30.00000,1.39000,1.79000,1.88000
2016,3,34.00000,32.00000,28.00000,10.00000,9.00000,-21.00000,0.14000,0.25000,0.29000
2016,3,40.00000,37.00000,33.00000,87.00000,57.00000,7.00000,0.00000,0.00000,0.09000
2016,3,37.00000,35.00000,31.00000,69.00000,67.00000,0.00000,0.00000,0.01000,0.00000
2016,3,35.00000,33.00000,30.00000,76.00000,68.00000,0.00000,0.02000,0.02000,0.06000
2016,3,45.00000,41.00000,37.00000,82.00000,84.00000,31.00000,0.00000,0.00000,0.00000
2016,3,35.00000,35.00000,34.00000,5.00000,17.00000,6.00000,0.99000,1.09000,1.04000
2016,3,35.00000,33.00000,30.00000,83.00000,15.00000,-19.00000,1.10000,1.15000,1.26000
2016,3,34.00000,32.00000,29.00000,36.00000,52.00000,23.00000,0.10000,0.09000,0.13000
2016,3,38.00000,35.00000,33.00000,50.00000,65.00000,26.00000,0.07000,0.07000,0.10000
2016,4,41.00000,37.00000,34.00000,114.00000,108.00000,28.00000,0.01000,0.00000,0.06000
2016,4,46.00000,41.00000,38.00000,114.00000,107.00000,55.00000,0.00000,0.00000,0.00000
2016,4,52.00000,47.00000,43.00000,118.00000,111.00000,57.00000,0.00000,0.00000,0.00000
2016,4,53.00000,48.00000,44.00000,51.00000,58.00000,36.00000,0.09000,0.15000,0.03000
2016,4,41.00000,39.00000,36.00000,104.00000,81.00000,51.00000,0.02000,0.01000,0.06000
2016,4,46.00000,41.00000,38.00000,121.00000,111.00000,70.00000,0.00000,0.00000,0.06000
2016,4,53.00000,48.00000,47.00000,122.00000,113.00000,86.00000,0.00000,0.00000,0.00000
2016,4,62.00000,59.00000,52.00000,93.00000,79.00000,74.00000,0.00000,0.00000,0.00000
2016,4,55.00000,53.00000,48.00000,136.00000,135.00000,117.00000,0.00000,0.00000,0.00000
2016,4,53.00000,50.00000,46.00000,111.00000,101.00000,100.00000,0.00000,0.00000,0.00000
2016,4,52.00000,48.00000,45.00000,142.00000,117.00000,109.00000,0.00000,0.00000,0.00000
2016,5,63.00000,57.00000,57.00000,168.00000,150.00000,144.00000,0.00000,0.00000,0.02000
2016,5,67.00000,62.00000,60.00000,86.00000,83.00000,65.00000,0.00000,0.00000,0.00000
2016,5,56.00000,54.00000,51.00000,56.00000,71.00000,76.00000,0.64000,0.55000,0.16000
2016,5,47.00000,44.00000,41.00000,40.00000,50.00000,46.00000,0.40000,0.47000,0.24000
2016,5,45.00000,43.00000,40.00000,38.00000,36.00000,33.00000,1.84000,2.38000,2.95000
2016,5,52.00000,50.00000,46.00000,138.00000,142.00000,121.00000,0.68000,0.67000,1.12000
2016,5,43.00000,40.00000,36.00000,172.00000,126.00000,126.00000,0.01000,0.00000,0.04000
2016,5,44.00000,41.00000,38.00000,183.00000,146.00000,148.00000,0.00000,0.00000,0.06000
2016,5,55.00000,49.00000,48.00000,180.00000,152.00000,165.00000,0.00000,0.00000,0.19000
2016,5,63.00000,56.00000,57.00000,177.00000,151.00000,160.00000,0.00000,0.00000,0.16000
2016,5,66.00000,59.00000,61.00000,163.00000,159.00000,142.00000,0.00000,0.00000,0.15000
2016,5,55.00000,52.00000,49.00000,82.00000,66.00000,60.00000,0.53000,0.73000,0.21000
2016,5,50.00000,48.00000,45.00000,112.00000,108.00000,100.00000,0.01000,0.03000,0.09000
2016,5,53.00000,50.00000,47.00000,154.00000,128.00000,119.00000,0.01000,0.00000,0.01000
2016,5,57.00000,51.00000,49.00000,167.00000,135.00000,115.00000,0.00000,0.01000,0.18000
2016,5,58.00000,55.00000,54.00000,184.00000,159.00000,152.00000,0.54000,0.58000,0.16000
2016,5,61.00000,57.00000,54.00000,85.00000,95.00000,76.00000,0.06000,0.05000,0.52000
2016,5,51.00000,48.00000,45.00000,120.00000,99.00000,110.00000,0.92000,1.14000,1.00000
2016,5,45.00000,42.00000,39.00000,70.00000,59.00000,66.00000,0.00000,0.05000,0.00000
2016,5,50.00000,46.00000,45.00000,169.00000,142.00000,145.00000,0.01000,0.00000,0.02000
2016,5,52.00000,48.00000,47.00000,122.00000,121.00000,130.00000,0.01000,0.07000,0.17000
2016,5,50.00000,48.00000,45.00000,124.00000,114.00000,138.00000,0.01000,0.01000,0.02000
2016,5,51.00000,48.00000,44.00000,153.00000,109.00000,91.00000,0.00000,0.01000,0.30000
2016,6,71.00000,64.00000,63.00000,193.00000,177.00000,180.00000,0.00000,0.00000,0.03000
2016,6,73.00000,65.00000,65.00000,165.00000,153.00000,163.00000,0.00000,0.00000,0.00000
2016,6,70.00000,62.00000,61.00000,85.00000,96.00000,93.00000,0.00000,0.00000,0.00000
2016,6,60.00000,56.00000,54.00000,46.00000,56.00000,48.00000,0.50000,0.62000,0.64000
2016,6,59.00000,56.00000,54.00000,202.00000,212.00000,193.00000,0.04000,0.05000,0.04000
2016,6,55.00000,52.00000,49.00000,44.00000,62.00000,59.00000,0.25000,0.32000,0.37000
2016,6,63.00000,57.00000,55.00000,161.00000,187.00000,170.00000,0.01000,0.01000,0.07000
2016,6,71.00000,68.00000,63.00000,190.00000,174.00000,185.00000,0.00000,0.00000,0.00000
2016,6,61.00000,57.00000,54.00000,193.00000,173.00000,183.00000,0.00000,0.00000,0.00000
2016,6,67.00000,60.00000,59.00000,188.00000,178.00000,188.00000,0.00000,0.00000,0.00000
2016,6,70.00000,63.00000,62.00000,161.00000,171.00000,166.00000,0.00000,0.00000,0.00000
2016,6,67.00000,61.00000,59.00000,189.00000,179.00000,189.00000,0.00000,0.00000,0.00000
2016,6,76.00000,67.00000,66.00000,184.00000,185.00000,193.00000,0.00000,0.00000,0.00000
2016,6,75.00000,66.00000,66.00000,178.00000,182.00000,189.00000,0.00000,0.00000,0.00000
2016,6,74.00000,66.00000,65.00000,178.00000,182.00000,190.00000,0.00000,0.00000,0.00000
2016,6,75.00000,67.00000,66.00000,167.00000,171.00000,190.00000,0.00000,0.00000,0.00000
2016,6,70.00000,63.00000,61.00000,174.00000,174.00000,185.00000,0.00000,0.00000,0.00000
2016,6,61.00000,55.00000,53.00000,176.00000,169.00000,179.00000,0.00000,0.00000,0.00000
2016,6,68.00000,60.00000,58.00000,171.00000,173.00000,183.00000,0.00000,0.00000,0.00000
2016,6,78.00000,66.00000,65.00000,161.00000,173.00000,184.00000,0.00000,0.00000,0.00000
2016,6,80.00000,71.00000,69.00000,162.00000,185.00000,184.00000,0.00000,0.00000,0.00000
2016,6,76.00000,69.00000,66.00000,116.00000,135.00000,127.00000,0.00000,0.00000,0.00000
2016,6,72.00000,67.00000,63.00000,122.00000,116.00000,116.00000,0.00000,0.00000,0.00000
2016,7,69.00000,64.00000,61.00000,149.00000,164.00000,152.00000,0.00000,0.00000,0.00000
2016,7,70.00000,64.00000,61.00000,162.00000,173.00000,170.00000,0.00000,0.00000,0.00000
2016,7,72.00000,64.00000,61.00000,148.00000,150.00000,180.00000,0.00000,0.00000,0.00000
2016,7,75.00000,66.00000,64.00000,116.00000,146.00000,150.00000,0.00000,0.00000,0.00000
2016,7,74.00000,66.00000,63.00000,150.00000,155.00000,192.00000,0.00000,0.00000,0.00000
2016,7,76.00000,67.00000,63.00000,119.00000,140.00000,157.00000,0.00000,0.00000,0.00000
2016,7,78.00000,71.00000,67.00000,130.00000,131.00000,143.00000,0.00000,0.00000,0.00000
2016,7,78.00000,71.00000,68.00000,149.00000,152.00000,188.00000,0.00000,0.00000,0.00000
2016,7,79.00000,71.00000,67.00000,147.00000,146.00000,178.00000,0.00000,0.00000,0.00000
2016,7,81.00000,72.00000,69.00000,143.00000,150.00000,186.00000,0.00000,0.00000,0.00000
2016,7,80.00000,71.00000,68.00000,99.00000,101.00000,140.00000,0.00000,0.00000,0.00000
2016,7,73.00000,65.00000,63.00000,136.00000,139.00000,176.00000,0.00000,0.00000,0.00000
2016,7,74.00000,65.00000,63.00000,134.00000,138.00000,177.00000,0.00000,0.00000,0.00000
2016,7,79.00000,70.00000,68.00000,125.00000,137.00000,176.00000,0.00000,0.00000,0.00000
2016,7,79.00000,70.00000,68.00000,102.00000,106.00000,151.00000,0.00000,0.00000,0.00000
2016,7,78.00000,69.00000,68.00000,126.00000,133.00000,175.00000,0.00000,0.00000,0.00000
2016,7,79.00000,70.00000,69.00000,120.00000,128.00000,167.00000,0.00000,0.00000,0.00000
2016,7,79.00000,70.00000,69.00000,125.00000,131.00000,171.00000,0.00000,0.00000,0.00000
2016,7,78.00000,70.00000,68.00000,76.00000,86.00000,118.00000,0.00000,0.00000,0.00000
2016,7,76.00000,69.00000,67.00000,133.00000,136.00000,164.00000,0.00000,0.00000,0.00000
2016,8,77.00000,70.00000,68.00000,125.00000,132.00000,167.00000,0.00000,0.00000,0.00000
2016,8,71.00000,64.00000,63.00000,110.00000,117.00000,155.00000,0.00000,0.00000,0.00000
2016,8,72.00000,65.00000,63.00000,73.00000,90.00000,88.00000,0.00000,0.00000,0.00000
2016,8,73.00000,66.00000,64.00000,87.00000,94.00000,120.00000,0.00000,0.00000,0.00000
2016,8,75.00000,69.00000,66.00000,73.00000,94.00000,103.00000,0.00000,0.00000,0.00000
2016,8,75.00000,68.00000,66.00000,114.00000,123.00000,159.00000,0.00000,0.00000,0.00000
2016,8,79.00000,75.00000,70.00000,107.00000,106.00000,154.00000,0.00000,0.00000,0.00000
2016,8,67.00000,61.00000,59.00000,66.00000,80.00000,91.00000,0.44000,0.49000,0.33000
2016,8,67.00000,61.00000,58.00000,132.00000,134.00000,174.00000,0.01000,0.01000,0.03000
2016,8,69.00000,61.00000,60.00000,119.00000,114.00000,151.00000,0.00000,0.00000,0.01000
2016,8,71.00000,63.00000,61.00000,104.00000,108.00000,144.00000,0.00000,0.00000,0.00000
2016,8,74.00000,65.00000,65.00000,104.00000,111.00000,149.00000,0.00000,0.00000,0.00000
2016,8,75.00000,64.00000,64.00000,1.00000,26.00000,36.00000,0.00000,0.00000,0.00000
2016,8,75.00000,67.00000,66.00000,99.00000,118.00000,144.00000,0.00000,0.00000,0.00000
2016,8,75.00000,66.00000,66.00000,74.00000,85.00000,112.00000,0.00000,0.00000,0.00000
2016,8,73.00000,64.00000,63.00000,61.00000,63.00000,89.00000,0.00000,0.00000,0.00000
2016,8,71.00000,64.00000,63.00000,98.00000,98.00000,132.00000,0.00000,0.00000,0.00000
2016,8,70.00000,61.00000,60.00000,87.00000,90.00000,128.00000,0.00000,0.00000,0.00000
2016,8,73.00000,65.00000,64.00000,95.00000,104.00000,137.00000,0.00000,0.00000,0.00000
2016,8,72.00000,64.00000,64.00000,80.00000,91.00000,123.00000,0.00000,0.00000,0.00000
2016,8,69.00000,62.00000,61.00000,80.00000,85.00000,115.00000,0.00000,0.00000,0.00000
2016,8,64.00000,57.00000,56.00000,95.00000,102.00000,123.00000,0.00000,0.00000,0.00000
2016,8,65.00000,57.00000,56.00000,37.00000,46.00000,61.00000,0.00000,0.00000,0.00000
2016,8,65.00000,58.00000,57.00000,75.00000,76.00000,95.00000,0.00000,0.00000,0.00000
2016,8,66.00000,59.00000,58.00000,90.00000,95.00000,124.00000,0.00000,0.00000,0.00000
2016,8,69.00000,62.00000,61.00000,87.00000,92.00000,122.00000,0.00000,0.00000,0.00000
2016,8,73.00000,65.00000,65.00000,86.00000,93.00000,122.00000,0.00000,0.00000,0.00000
2016,8,77.00000,67.00000,68.00000,79.00000,92.00000,123.00000,0.00000,0.00000,0.00000
2016,8,77.00000,68.00000,68.00000,79.00000,99.00000,120.00000,0.00000,0.00000,0.00000
2016,9,74.00000,68.00000,66.00000,69.00000,88.00000,94.00000,0.00000,0.01000,0.00000
2016,9,73.00000,68.00000,66.00000,93.00000,102.00000,126.00000,0.00000,0.01000,0.04000
2016,9,69.00000,64.00000,64.00000,76.00000,80.00000,100.00000,0.00000,0.00000,0.00000
2016,9,63.00000,58.00000,57.00000,42.00000,63.00000,75.00000,0.01000,0.03000,0.02000
2016,9,56.00000,52.00000,50.00000,92.00000,101.00000,124.00000,0.01000,0.00000,0.03000
2016,9,60.00000,54.00000,53.00000,82.00000,92.00000,115.00000,0.00000,0.00000,0.00000
2016,9,62.00000,56.00000,55.00000,78.00000,88.00000,114.00000,0.00000,0.00000,0.00000
2016,9,63.00000,56.00000,56.00000,77.00000,85.00000,114.00000,0.00000,0.00000,0.00000
2016,9,60.00000,53.00000,52.00000,70.00000,78.00000,108.00000,0.00000,0.00000,0.00000
2016,9,61.00000,53.00000,54.00000,62.00000,77.00000,102.00000,0.00000,0.00000,0.00000
2016,9,71.00000,64.00000,64.00000,66.00000,85.00000,106.00000,0.00000,0.00000,0.00000
2016,9,69.00000,64.00000,62.00000,75.00000,82.00000,98.00000,0.00000,0.02000,0.00000
2016,9,60.00000,57.00000,53.00000,89.00000,113.00000,135.00000,0.53000,0.53000,0.66000
2016,9,54.00000,51.00000,47.00000,75.00000,96.00000,76.00000,0.39000,0.42000,0.38000
2016,9,51.00000,48.00000,45.00000,63.00000,69.00000,54.00000,0.01000,0.01000,0.01000
2016,9,54.00000,49.00000,48.00000,75.00000,82.00000,99.00000,0.00000,0.00000,0.02000
2016,9,58.00000,53.00000,51.00000,70.00000,82.00000,88.00000,0.00000,0.00000,0.00000
2016,9,66.00000,58.00000,58.00000,60.00000,78.00000,83.00000,0.00000,0.00000,0.00000
2016,9,70.00000,61.00000,62.00000,52.00000,74.00000,78.00000,0.00000,0.00000,0.00000
2016,9,69.00000,61.00000,62.00000,42.00000,67.00000,68.00000,0.00000,0.01000,0.00000
2016,9,66.00000,61.00000,60.00000,60.00000,86.00000,84.00000,0.00000,0.01000,0.00000
2016,9,57.00000,55.00000,53.00000,78.00000,93.00000,88.00000,2.35000,2.87000,2.68000
2016,9,43.00000,41.00000,38.00000,16.00000,19.00000,19.00000,1.63000,1.72000,1.99000
2016,9,46.00000,43.00000,40.00000,29.00000,32.00000,51.00000,1.58000,1.90000,2.74000
2016,9,51.00000,46.00000,45.00000,67.00000,74.00000,80.00000,0.00000,0.00000,0.05000
2016,9,55.00000,50.00000,50.00000,63.00000,75.00000,73.00000,0.00000,0.00000,0.00000
2016,9,59.00000,54.00000,53.00000,59.00000,75.00000,69.00000,0.00000,0.00000,0.00000
2016,9,64.00000,58.00000,57.00000,72.00000,97.00000,75.00000,0.08000,0.15000,0.00000
2016,9,63.00000,57.00000,56.00000,73.00000,80.00000,64.00000,0.01000,0.00000,0.05000
2016,9,63.00000,57.00000,56.00000,64.00000,78.00000,68.00000,0.00000,0.00000,0.01000
2016,10,64.00000,59.00000,57.00000,69.00000,94.00000,75.00000,0.00000,0.02000,0.00000
2016,10,64.00000,60.00000,57.00000,69.00000,83.00000,67.00000,0.24000,0.25000,0.20000
2016,10,46.00000,44.00000,38.00000,-16.00000,11.00000,21.00000,0.09000,0.27000,1.03000
2016,10,43.00000,39.00000,35.00000,52.00000,91.00000,68.00000,0.01000,0.01000,0.05000
2016,10,40.00000,37.00000,34.00000,7.00000,42.00000,26.00000,0.31000,0.42000,0.69000
2016,10,41.00000,36.00000,33.00000,35.00000,52.00000,63.00000,0.00000,0.02000,0.10000
2016,10,48.00000,42.00000,39.00000,38.00000,68.00000,61.00000,0.00000,0.00000,0.00000
2016,10,52.00000,46.00000,45.00000,17.00000,48.00000,40.00000,0.00000,0.00000,0.00000
2016,10,57.00000,50.00000,50.00000,33.00000,69.00000,57.00000,0.00000,0.00000,0.00000
2016,10,60.00000,54.00000,54.00000,36.00000,66.00000,51.00000,0.00000,0.00000,0.00000
2016,10,57.00000,52.00000,50.00000,-2.00000,16.00000,8.00000,0.00000,0.00000,0.00000
2016,10,50.00000,45.00000,44.00000,11.00000,44.00000,41.00000,0.00000,0.00000,0.00000
2016,10,57.00000,51.00000,52.00000,30.00000,64.00000,50.00000,0.00000,0.00000,0.00000
2016,10,63.00000,58.00000,56.00000,3.00000,36.00000,17.00000,0.00000,0.00000,0.00000
2016,10,61.00000,59.00000,56.00000,18.00000,38.00000,46.00000,0.33000,0.47000,0.52000
2016,10,58.00000,55.00000,51.00000,24.00000,52.00000,44.00000,0.01000,0.00000,0.02000
2016,10,64.00000,62.00000,57.00000,-19.00000,-11.00000,-3.00000,0.00000,0.02000,0.03000
2016,10,45.00000,42.00000,38.00000,33.00000,77.00000,52.00000,1.24000,1.46000,1.82000
2016,11,43.00000,39.00000,38.00000,-6.00000,11.00000,27.00000,0.09000,0.12000,0.13000
2016,11,41.00000,37.00000,35.00000,-11.00000,31.00000,39.00000,0.00000,0.01000,0.04000
2016,11,44.00000,39.00000,41.00000,-13.00000,31.00000,6.00000,0.00000,0.00000,0.00000
2016,11,48.00000,43.00000,45.00000,-10.00000,30.00000,10.00000,0.00000,0.00000,0.00000
2016,11,49.00000,43.00000,43.00000,-12.00000,35.00000,6.00000,0.00000,0.00000,0.00000
2016,11,51.00000,45.00000,45.00000,-8.00000,35.00000,6.00000,0.00000,0.00000,0.00000
2016,11,50.00000,44.00000,44.00000,-15.00000,32.00000,2.00000,0.00000,0.00000,0.00000
2016,11,52.00000,45.00000,45.00000,-17.00000,32.00000,3.00000,0.00000,0.00000,0.00000
2016,11,52.00000,45.00000,45.00000,-19.00000,31.00000,2.00000,0.00000,0.00000,0.00000
2016,11,50.00000,44.00000,46.00000,-19.00000,29.00000,1.00000,0.00000,0.00000,0.00000
2016,11,53.00000,45.00000,45.00000,-23.00000,28.00000,-2.00000,0.00000,0.00000,0.00000
2016,11,51.00000,46.00000,46.00000,-18.00000,25.00000,4.00000,0.00000,0.00000,0.00000
2016,11,48.00000,43.00000,42.00000,-20.00000,28.00000,-4.00000,0.00000,0.00000,0.00000
2016,11,51.00000,44.00000,44.00000,-27.00000,24.00000,-7.00000,0.00000,0.00000,0.00000
2016,11,58.00000,51.00000,50.00000,-40.00000,16.00000,-14.00000,0.00000,0.00000,0.00000
2016,11,46.00000,43.00000,42.00000,-11.00000,7.00000,-9.00000,0.16000,0.20000,0.14000
2016,11,29.00000,27.00000,24.00000,1.00000,-26.00000,19.00000,0.30000,0.36000,0.32000
2016,11,31.00000,26.00000,23.00000,-26.00000,2.00000,10.00000,0.00000,0.01000,0.04000
2016,11,46.00000,43.00000,42.00000,-17.00000,21.00000,-11.00000,0.00000,0.00000,0.00000
2016,11,54.00000,51.00000,48.00000,-15.00000,-1.00000,3.00000,0.03000,0.04000,0.12000
2016,11,42.00000,40.00000,37.00000,15.00000,23.00000,17.00000,2.61000,2.88000,2.55000
2016,11,35.00000,32.00000,29.00000,23.00000,48.00000,-33.00000,0.05000,0.07000,0.21000
2016,11,37.00000,34.00000,30.00000,10.00000,29.00000,0.00000,1.12000,2.09000,2.26000
2016,11,29.00000,26.00000,24.00000,-38.00000,-3.00000,-16.00000,0.15000,0.06000,0.04000
2016,11,36.00000,29.00000,29.00000,-56.00000,-19.00000,-44.00000,0.00000,0.00000,0.00000
2016,11,43.00000,39.00000,36.00000,-21.00000,-15.00000,-28.00000,0.00000,0.00000,0.00000
2016,11,34.00000,32.00000,29.00000,8.00000,-7.00000,-9.00000,0.35000,0.88000,2.01000
2016,11,28.00000,27.00000,24.00000,0.00000,-2.00000,0.00000,1.97000,3.43000,4.12000
2016,11,24.00000,21.00000,18.00000,-35.00000,-7.00000,5.00000,0.01000,0.01000,0.03000
2016,11,24.00000,21.00000,20.00000,-30.00000,-14.00000,7.00000,0.00000,0.00000,0.00000
2016,12,26.00000,24.00000,21.00000,-5.00000,-11.00000,-3.00000,0.05000,0.07000,0.07000
2016,12,22.00000,18.00000,17.00000,-72.00000,12.00000,41.00000,0.00000,0.01000,0.05000
2016,12,25.00000,22.00000,20.00000,-10.00000,3.00000,3.00000,0.00000,0.00000,0.00000
2016,12,32.00000,28.00000,28.00000,-22.00000,14.00000,2.00000,0.00000,0.00000,0.00000
2016,12,26.00000,24.00000,19.00000,-48.00000,-12.00000,-21.00000,0.07000,0.10000,0.15000
2016,12,19.00000,15.00000,14.00000,-32.00000,-5.00000,-2.00000,0.04000,0.07000,0.13000
2016,12,16.00000,12.00000,10.00000,-33.00000,4.00000,7.00000,0.04000,0.10000,0.12000
2016,12,22.00000,19.00000,19.00000,-7.00000,3.00000,2.00000,0.00000,0.01000,0.13000
2016,12,38.00000,35.00000,34.00000,4.00000,9.00000,-3.00000,0.05000,0.08000,0.27000
2016,12,39.00000,36.00000,34.00000,9.00000,9.00000,1.00000,1.99000,2.77000,3.73000
2016,12,31.00000,30.00000,26.00000,-42.00000,-23.00000,-7.00000,0.38000,0.34000,0.30000
2016,12,28.00000,25.00000,22.00000,-67.00000,-21.00000,16.00000,0.01000,0.02000,0.04000
2016,12,28.00000,25.00000,22.00000,-22.00000,-13.00000,-11.00000,0.00000,0.00000,0.00000
2016,12,34.00000,32.00000,31.00000,9.00000,9.00000,-2.00000,0.14000,0.18000,0.50000
2016,12,48.00000,44.00000,41.00000,0.00000,11.00000,5.00000,0.02000,0.00000,0.02000
2016,12,37.00000,36.00000,32.00000,-5.00000,12.00000,8.00000,0.89000,1.83000,3.61000
2016,12,14.00000,13.00000,10.00000,-24.00000,-18.00000,-3.00000,0.06000,0.14000,0.18000
2016,12,10.00000,7.00000,6.00000,-71.00000,-22.00000,13.00000,0.02000,0.01000,0.04000
2016,12,16.00000,13.00000,15.00000,-47.00000,-21.00000,16.00000,0.07000,0.01000,0.01000
2016,12,27.00000,27.00000,31.00000,-19.00000,3.00000,4.00000,0.01000,0.00000,0.00000
2016,12,29.00000,28.00000,28.00000,4.00000,5.00000,6.00000,0.08000,0.06000,0.00000
2016,12,26.00000,25.00000,26.00000,13.00000,25.00000,21.00000,0.00000,0.01000,0.01000
2016,12,31.00000,29.00000,29.00000,-15.00000,23.00000,2.00000,0.06000,0.11000,0.15000
2016,12,37.00000,35.00000,33.00000,19.00000,19.00000,12.00000,0.66000,0.63000,0.55000
2016,12,20.00000,18.00000,16.00000,4.00000,-11.00000,-11.00000,1.47000,2.72000,2.45000
2016,12,14.00000,11.00000,11.00000,18.00000,3.00000,1.00000,0.05000,0.06000,0.04000
2016,12,20.00000,17.00000,20.00000,16.00000,-10.00000,-11.00000,0.00000,0.01000,0.00000
2016,12,27.00000,25.00000,25.00000,-44.00000,-15.00000,-9.00000,0.04000,0.00000,0.00000
2016,12,25.00000,20.00000,23.00000,-69.00000,-13.00000,24.00000,0.01000,0.00000,0.00000
2016,12,25.00000,24.00000,30.00000,-60.00000,-24.00000,-9.00000,0.00000,0.00000,0.00000
2016,12,16.00000,16.00000,21.00000,-12.00000,-12.00000,-38.00000,0.01000,0.00000,0.00000
2017,1,19.00000,20.00000,25.00000,-17.00000,8.00000,-30.00000,0.01000,0.01000,0.02000
2017,1,22.00000,21.00000,19.00000,1.00000,-14.00000,-8.00000,1.35000,1.67000,1.66000
2017,1,26.00000,25.00000,23.00000,-22.00000,-21.00000,-16.00000,0.12000,0.12000,0.14000
2017,1,34.00000,33.00000,30.00000,0.00000,1.00000,-1.00000,0.72000,1.17000,1.93000
2017,1,12.00000,11.00000,10.00000,-19.00000,-26.00000,-16.00000,0.41000,0.46000,0.43000
2017,1,5.00000,0.00000,1.00000,-45.00000,-25.00000,14.00000,0.00000,0.01000,0.06000
2017,1,16.00000,15.00000,21.00000,14.00000,-20.00000,-10.00000,0.05000,0.07000,0.04000
2017,1,37.00000,36.00000,35.00000,13.00000,10.00000,7.00000,0.28000,0.46000,1.05000
2017,1,42.00000,40.00000,36.00000,6.00000,7.00000,8.00000,0.35000,0.46000,0.84000
2017,1,38.00000,36.00000,32.00000,-7.00000,0.00000,3.00000,0.00000,0.00000,0.12000
2017,1,35.00000,34.00000,31.00000,2.00000,-8.00000,-5.00000,0.86000,1.40000,2.03000
2017,1,30.00000,29.00000,27.00000,6.00000,-6.00000,-13.00000,0.14000,0.18000,0.29000
2017,1,29.00000,29.00000,28.00000,5.00000,16.00000,-2.00000,0.01000,0.00000,0.01000
2017,1,26.00000,25.00000,25.00000,-11.00000,3.00000,-31.00000,0.00000,0.00000,0.04000
2017,1,22.00000,20.00000,19.00000,-13.00000,-12.00000,-23.00000,0.01000,0.02000,0.02000
2017,1,19.00000,17.00000,12.00000,-29.00000,-13.00000,-17.00000,0.00000,0.00000,0.03000
2017,1,19.00000,16.00000,16.00000,-58.00000,-7.00000,-19.00000,0.00000,0.01000,0.00000
2017,1,23.00000,21.00000,25.00000,-50.00000,-15.00000,-30.00000,0.00000,0.00000,0.00000
2017,1,32.00000,31.00000,29.00000,-10.00000,-12.00000,-9.00000,0.86000,1.17000,1.23000
2017,1,30.00000,28.00000,26.00000,-1.00000,-8.00000,-2.00000,0.03000,0.02000,0.09000
2017,1,29.00000,28.00000,25.00000,-7.00000,-12.00000,-4.00000,1.68000,2.39000,2.21000
2017,1,29.00000,26.00000,24.00000,-22.00000,-6.00000,11.00000,0.15000,0.23000,0.61000
2017,1,33.00000,32.00000,28.00000,-6.00000,0.00000,-1.00000,0.50000,1.08000,1.93000
2017,1,24.00000,22.00000,19.00000,-6.00000,-12.00000,-5.00000,0.13000,0.24000,0.32000
2017,1,21.00000,19.00000,16.00000,0.00000,-29.00000,-19.00000,0.43000,0.68000,0.75000
2017,1,20.00000,18.00000,15.00000,-15.00000,-33.00000,-17.00000,0.28000,0.29000,0.70000
2017,1,14.00000,9.00000,8.00000,-71.00000,-27.00000,9.00000,0.00000,0.00000,0.05000
2017,1,15.00000,11.00000,10.00000,-54.00000,-9.00000,7.00000,0.00000,0.00000,0.00000
2017,1,17.00000,14.00000,19.00000,-50.00000,18.00000,-13.00000,0.00000,0.00000,0.00000
2017,1,18.00000,18.00000,26.00000,-25.00000,15.00000,-33.00000,0.00000,0.00000,0.00000
2017,1,22.00000,23.00000,32.00000,0.00000,2.00000,-12.00000,0.00000,0.00000,0.00000
2017,2,35.00000,34.00000,35.00000,-28.00000,-11.00000,-19.00000,0.00000,0.00000,0.00000
2017,2,35.00000,32.00000,32.00000,-2.00000,3.00000,-4.00000,0.07000,0.13000,0.44000
2017,2,40.00000,37.00000,35.00000,-5.00000,29.00000,10.00000,0.00000,0.00000,0.03000
2017,2,42.00000,39.00000,37.00000,-8.00000,7.00000,-10.00000,0.02000,0.05000,0.07000
2017,2,42.00000,38.00000,38.00000,-14.00000,1.00000,-14.00000,0.01000,0.00000,0.01000
2017,2,45.00000,43.00000,39.00000,0.00000,0.00000,-3.00000,0.00000,0.00000,0.02000
2017,2,45.00000,43.00000,38.00000,2.00000,4.00000,8.00000,0.00000,0.04000,0.57000
2017,2,46.00000,43.00000,40.00000,34.00000,21.00000,8.00000,0.01000,0.00000,0.05000
2017,2,53.00000,47.00000,44.00000,18.00000,32.00000,31.00000,0.00000,0.01000,0.03000
2017,2,49.00000,47.00000,41.00000,-5.00000,21.00000,16.00000,1.11000,1.33000,1.88000
2017,2,35.00000,33.00000,31.00000,20.00000,-20.00000,-24.00000,0.98000,1.02000,1.06000
2017,2,31.00000,29.00000,25.00000,9.00000,-26.00000,-47.00000,0.01000,0.02000,0.03000
2017,2,28.00000,25.00000,25.00000,7.00000,-20.00000,-38.00000,0.00000,0.00000,0.00000
2017,2,33.00000,29.00000,28.00000,15.00000,-7.00000,-29.00000,0.00000,0.00000,0.00000
2017,2,37.00000,33.00000,33.00000,17.00000,1.00000,-25.00000,0.00000,0.00000,0.00000
2017,2,44.00000,39.00000,38.00000,3.00000,5.00000,-7.00000,0.00000,0.00000,0.00000
2017,2,42.00000,38.00000,36.00000,4.00000,11.00000,-5.00000,0.06000,0.13000,0.10000
2017,2,45.00000,41.00000,38.00000,17.00000,18.00000,19.00000,0.00000,0.00000,0.00000
2017,2,41.00000,38.00000,35.00000,21.00000,35.00000,19.00000,0.37000,0.59000,1.24000
2017,2,44.00000,41.00000,38.00000,8.00000,17.00000,32.00000,0.00000,0.00000,0.04000
2017,2,47.00000,45.00000,41.00000,34.00000,47.00000,12.00000,0.79000,1.01000,1.21000
2017,2,31.00000,30.00000,27.00000,-2.00000,-15.00000,-30.00000,0.82000,1.12000,1.48000
2017,2,24.00000,22.00000,20.00000,1.00000,-8.00000,-14.00000,1.41000,2.48000,3.06000
2017,2,20.00000,18.00000,15.00000,-14.00000,-37.00000,-41.00000,0.44000,0.80000,1.16000
2017,2,19.00000,15.00000,14.00000,-31.00000,-27.00000,-50.00000,0.02000,0.07000,0.05000
2017,2,25.00000,21.00000,19.00000,-43.00000,41.00000,17.00000,0.00000,0.00000,0.04000
2017,2,27.00000,26.00000,22.00000,-21.00000,-18.00000,-12.00000,0.73000,0.97000,1.55000
2017,2,23.00000,20.00000,18.00000,3.00000,-45.00000,-40.00000,0.08000,0.20000,0.29000
2017,3,27.00000,25.00000,21.00000,-26.00000,-31.00000,-34.00000,0.00000,0.00000,0.02000
2017,3,32.00000,26.00000,24.00000,-45.00000,-14.00000,-24.00000,0.00000,0.00000,0.01000
2017,3,40.00000,34.00000,32.00000,-15.00000,-1.00000,-14.00000,0.00000,0.00000,0.00000
2017,3,49.00000,46.00000,43.00000,26.00000,14.00000,6.00000,0.00000,0.00000,0.00000
2017,3,44.00000,43.00000,38.00000,71.00000,26.00000,13.00000,0.76000,1.89000,2.48000
2017,3,26.00000,24.00000,20.00000,-13.00000,22.00000,0.00000,0.01000,0.01000,0.05000
2017,3,34.00000,32.00000,28.00000,-6.00000,15.00000,-7.00000,0.00000,0.01000,0.01000
2017,3,44.00000,40.00000,38.00000,58.00000,22.00000,14.00000,0.00000,0.01000,0.00000
2017,3,47.00000,41.00000,40.00000,68.00000,36.00000,9.00000,0.00000,0.00000,0.00000
2017,3,49.00000,44.00000,41.00000,52.00000,50.00000,25.00000,0.00000,0.00000,0.00000
2017,3,45.00000,41.00000,38.00000,61.00000,59.00000,14.00000,0.00000,0.00000,0.00000
2017,3,45.00000,41.00000,39.00000,63.00000,58.00000,8.00000,0.00000,0.00000,0.00000
2017,3,48.00000,42.00000,39.00000,68.00000,79.00000,18.00000,0.00000,0.00000,0.00000
2017,3,55.00000,48.00000,44.00000,66.00000,77.00000,26.00000,0.00000,0.00000,0.00000
2017,3,58.00000,52.00000,45.00000,68.00000,76.00000,35.00000,0.00000,0.00000,0.00000
2017,3,56.00000,52.00000,45.00000,66.00000,71.00000,39.00000,0.00000,0.00000,0.00000
2017,3,55.00000,49.00000,44.00000,71.00000,76.00000,38.00000,0.00000,0.00000,0.00000
2017,3,62.00000,57.00000,50.00000,77.00000,90.00000,59.00000,0.00000,0.00000,0.00000
2017,3,56.00000,54.00000,47.00000,55.00000,59.00000,42.00000,0.00000,0.00000,0.00000
2017,3,58.00000,54.00000,47.00000,38.00000,44.00000,42.00000,0.00000,0.00000,0.00000
2017,3,62.00000,61.00000,52.00000,65.00000,63.00000,57.00000,0.00000,0.00000,0.00000
2017,3,51.00000,48.00000,42.00000,38.00000,42.00000,50.00000,0.34000,0.49000,0.64000
2017,3,35.00000,34.00000,32.00000,18.00000,-2.00000,-29.00000,3.31000,3.63000,2.79000
2017,3,41.00000,37.00000,32.00000,114.00000,88.00000,43.00000,0.00000,0.04000,0.07000
2017,3,39.00000,37.00000,34.00000,27.00000,27.00000,4.00000,1.29000,1.51000,1.05000
2017,3,40.00000,37.00000,32.00000,117.00000,117.00000,43.00000,0.00000,0.03000,0.07000
2017,3,39.00000,37.00000,34.00000,25.00000,30.00000,13.00000,1.04000,1.16000,1.04000
2017,3,39.00000,37.00000,34.00000,102.00000,103.00000,34.00000,0.01000,0.02000,0.04000
2017,3,42.00000,39.00000,35.00000,109.00000,99.00000,38.00000,0.00000,0.00000,0.01000
2017,3,45.00000,43.00000,39.00000,37.00000,50.00000,37.00000,0.46000,0.45000,0.50000
2017,3,44.00000,42.00000,39.00000,49.00000,57.00000,55.00000,0.06000,0.08000,0.08000
2017,4,47.00000,45.00000,40.00000,113.00000,98.00000,70.00000,0.00000,0.00000,0.02000
2017,4,41.00000,38.00000,35.00000,30.00000,25.00000,27.00000,0.62000,0.95000,1.38000
2017,4,38.00000,35.00000,32.00000,97.00000,128.00000,92.00000,0.01000,0.02000,0.06000
2017,4,56.00000,52.00000,49.00000,94.00000,98.00000,107.00000,0.00000,0.00000,0.00000
2017,4,60.00000,58.00000,53.00000,-9.00000,-4.00000,12.00000,0.00000,0.00000,0.00000
2017,4,40.00000,39.00000,35.00000,83.00000,80.00000,25.00000,1.94000,2.54000,3.25000
2017,4,31.00000,29.00000,25.00000,-30.00000,-66.00000,-20.00000,0.71000,1.08000,0.99000
2017,4,39.00000,34.00000,31.00000,75.00000,42.00000,16.00000,0.00000,0.00000,0.02000
2017,4,48.00000,43.00000,39.00000,62.00000,64.00000,20.00000,0.00000,0.00000,0.00000
2017,4,55.00000,49.00000,45.00000,128.00000,120.00000,97.00000,0.00000,0.00000,0.00000
2017,4,58.00000,55.00000,52.00000,147.00000,137.00000,122.00000,0.00000,0.00000,0.00000
2017,5,62.00000,59.00000,56.00000,179.00000,169.00000,109.00000,0.01000,0.01000,0.00000
2017,5,56.00000,53.00000,51.00000,118.00000,117.00000,80.00000,0.10000,0.12000,0.00000
2017,5,59.00000,55.00000,54.00000,110.00000,123.00000,138.00000,0.00000,0.00000,0.00000
2017,5,62.00000,55.00000,55.00000,169.00000,154.00000,152.00000,0.00000,0.00000,0.00000
2017,5,66.00000,62.00000,61.00000,164.00000,146.00000,146.00000,0.00000,0.00000,0.00000
2017,5,70.00000,62.00000,63.00000,179.00000,171.00000,154.00000,0.00000,0.00000,0.00000
2017,6,64.00000,59.00000,58.00000,88.00000,110.00000,99.00000,0.12000,0.27000,0.32000
2017,6,61.00000,55.00000,53.00000,189.00000,193.00000,201.00000,0.00000,0.01000,0.04000
2017,6,69.00000,60.00000,62.00000,180.00000,180.00000,176.00000,0.00000,0.01000,0.00000
2017,6,75.00000,66.00000,67.00000,157.00000,180.00000,160.00000,0.00000,0.00000,0.00000
2017,6,67.00000,62.00000,61.00000,184.00000,176.00000,178.00000,0.00000,0.00000,0.00000
2017,6,73.00000,64.00000,65.00000,178.00000,177.00000,180.00000,0.00000,0.00000,0.00000
2017,6,77.00000,68.00000,68.00000,177.00000,176.00000,181.00000,0.00000,0.00000,0.00000
2017,6,75.00000,69.00000,68.00000,154.00000,148.00000,158.00000,0.00000,0.00000,0.00000
2017,6,66.00000,63.00000,62.00000,184.00000,176.00000,182.00000,0.00000,0.00000,0.00000
2017,6,60.00000,56.00000,54.00000,177.00000,170.00000,183.00000,0.00000,0.00000,0.00000
2017,6,69.00000,63.00000,61.00000,174.00000,169.00000,179.00000,0.00000,0.00000,0.00000
2017,6,56.00000,53.00000,49.00000,78.00000,71.00000,62.00000,0.00000,0.00000,0.00000
2017,6,48.00000,45.00000,42.00000,96.00000,66.00000,71.00000,1.49000,2.05000,2.75000
2017,6,58.00000,53.00000,51.00000,191.00000,181.00000,202.00000,0.00000,0.01000,0.02000
2017,6,65.00000,59.00000,58.00000,166.00000,176.00000,180.00000,0.00000,0.00000,0.00000
2017,6,69.00000,62.00000,61.00000,187.00000,186.00000,200.00000,0.00000,0.00000,0.00000
2017,6,65.00000,59.00000,57.00000,158.00000,161.00000,172.00000,0.00000,0.00000,0.00000
2017,6,66.00000,59.00000,57.00000,188.00000,183.00000,197.00000,0.00000,0.00000,0.00000
2017,6,72.00000,64.00000,63.00000,180.00000,183.00000,198.00000,0.00000,0.00000,0.00000
2017,6,78.00000,69.00000,67.00000,168.00000,194.00000,193.00000,0.00000,0.00000,0.00000
2017,6,78.00000,68.00000,67.00000,170.00000,175.00000,187.00000,0.00000,0.00000,0.00000
2017,6,68.00000,61.00000,59.00000,176.00000,175.00000,190.00000,0.00000,0.00000,0.00000
2017,6,66.00000,58.00000,57.00000,172.00000,175.00000,187.00000,0.00000,0.00000,0.00000
2017,6,68.00000,59.00000,59.00000,171.00000,175.00000,187.00000,0.00000,0.00000,0.00000
2017,6,74.00000,63.00000,63.00000,170.00000,179.00000,188.00000,0.00000,0.00000,0.00000
2017,6,79.00000,67.00000,65.00000,156.00000,166.00000,179.00000,0.00000,0.00000,0.00000
2017,6,73.00000,65.00000,62.00000,161.00000,166.00000,184.00000,0.00000,0.00000,0.00000
2017,6,70.00000,62.00000,60.00000,165.00000,170.00000,181.00000,0.00000,0.00000,0.00000
2017,6,67.00000,59.00000,57.00000,163.00000,169.00000,179.00000,0.00000,0.00000,0.00000
2017,6,68.00000,59.00000,58.00000,159.00000,164.00000,175.00000,0.00000,0.00000,0.00000
2017,7,72.00000,63.00000,61.00000,155.00000,175.00000,182.00000,0.00000,0.00000,0.00000
2017,7,78.00000,67.00000,65.00000,147.00000,162.00000,186.00000,0.00000,0.00000,0.00000
2017,7,77.00000,67.00000,65.00000,150.00000,165.00000,186.00000,0.00000,0.00000,0.00000
2017,7,80.00000,68.00000,66.00000,152.00000,166.00000,184.00000,0.00000,0.00000,0.00000
2017,7,83.00000,71.00000,68.00000,142.00000,153.00000,175.00000,0.00000,0.00000,0.00000
2017,7,82.00000,69.00000,68.00000,140.00000,157.00000,177.00000,0.00000,0.00000,0.00000
2017,7,82.00000,71.00000,69.00000,143.00000,158.00000,190.00000,0.00000,0.00000,0.00000
2017,7,82.00000,73.00000,68.00000,157.00000,170.00000,164.00000,0.00000,0.00000,0.00000
2017,7,79.00000,71.00000,67.00000,131.00000,145.00000,171.00000,0.00000,0.00000,0.00000
2017,7,77.00000,69.00000,65.00000,108.00000,124.00000,127.00000,0.00000,0.00000,0.00000
2017,7,74.00000,67.00000,64.00000,109.00000,116.00000,116.00000,0.00000,0.00000,0.00000
2017,7,74.00000,67.00000,64.00000,135.00000,144.00000,166.00000,0.00000,0.00000,0.00000
2017,7,75.00000,68.00000,65.00000,142.00000,162.00000,180.00000,0.00000,0.00000,0.00000
2017,7,77.00000,70.00000,66.00000,126.00000,141.00000,156.00000,0.00000,0.00000,0.00000
2017,7,79.00000,70.00000,66.00000,143.00000,150.00000,186.00000,0.00000,0.00000,0.00000
2017,7,79.00000,71.00000,68.00000,145.00000,154.00000,194.00000,0.00000,0.00000,0.00000
2017,7,76.00000,69.00000,66.00000,119.00000,142.00000,167.00000,0.00000,0.00000,0.00000
2017,7,79.00000,70.00000,67.00000,150.00000,157.00000,187.00000,0.00000,0.00000,0.03000
2017,7,77.00000,71.00000,67.00000,62.00000,84.00000,102.00000,0.00000,0.00000,0.07000
2017,7,77.00000,70.00000,67.00000,108.00000,109.00000,143.00000,0.00000,0.00000,0.02000
2017,7,76.00000,70.00000,66.00000,153.00000,159.00000,200.00000,0.00000,0.02000,0.17000
2017,7,77.00000,69.00000,66.00000,115.00000,150.00000,166.00000,0.00000,0.01000,0.00000
2017,7,77.00000,69.00000,66.00000,120.00000,153.00000,168.00000,0.00000,0.00000,0.00000
2017,7,76.00000,70.00000,66.00000,112.00000,134.00000,168.00000,0.00000,0.08000,0.21000
2017,7,67.00000,63.00000,60.00000,110.00000,120.00000,104.00000,0.47000,0.53000,0.67000
2017,7,69.00000,65.00000,62.00000,192.00000,185.00000,192.00000,3.38000,3.36000,1.99000
2017,7,70.00000,64.00000,61.00000,160.00000,186.00000,212.00000,0.00000,0.01000,0.03000
2017,7,71.00000,64.00000,61.00000,101.00000,99.00000,122.00000,0.00000,0.00000,0.00000
2017,7,72.00000,66.00000,63.00000,143.00000,158.00000,178.00000,0.00000,0.00000,0.00000
2017,7,75.00000,67.00000,64.00000,144.00000,163.00000,164.00000,0.00000,0.00000,0.00000
2017,7,78.00000,68.00000,67.00000,139.00000,164.00000,154.00000,0.00000,0.00000,0.00000
2017,8,79.00000,68.00000,66.00000,122.00000,139.00000,163.00000,0.00000,0.00000,0.00000
2017,8,77.00000,67.00000,65.00000,110.00000,135.00000,155.00000,0.00000,0.00000,0.00000
2017,8,78.00000,68.00000,66.00000,120.00000,152.00000,168.00000,0.00000,0.00000,0.00000
2017,8,75.00000,67.00000,65.00000,111.00000,134.00000,151.00000,0.00000,0.00000,0.00000
2017,8,73.00000,66.00000,64.00000,121.00000,142.00000,164.00000,0.00000,0.00000,0.00000
2017,8,71.00000,64.00000,62.00000,88.00000,115.00000,123.00000,0.00000,0.00000,0.00000
2017,8,70.00000,64.00000,62.00000,89.00000,104.00000,124.00000,0.15000,0.11000,0.00000
2017,8,67.00000,62.00000,61.00000,88.00000,107.00000,111.00000,0.01000,0.02000,0.00000
2017,8,69.00000,64.00000,61.00000,119.00000,141.00000,148.00000,0.00000,0.02000,0.00000
2017,8,70.00000,64.00000,60.00000,122.00000,145.00000,169.00000,0.01000,0.01000,0.04000
2017,8,75.00000,67.00000,64.00000,113.00000,135.00000,160.00000,0.01000,0.02000,0.00000
2017,8,75.00000,68.00000,65.00000,121.00000,142.00000,169.00000,0.00000,0.00000,0.00000
2017,8,74.00000,67.00000,64.00000,102.00000,120.00000,149.00000,0.03000,0.02000,0.07000
2017,8,67.00000,62.00000,60.00000,71.00000,107.00000,106.00000,0.05000,0.06000,0.00000
2017,8,63.00000,59.00000,55.00000,117.00000,131.00000,158.00000,0.01000,0.02000,0.05000
2017,8,67.00000,60.00000,57.00000,98.00000,119.00000,145.00000,0.00000,0.00000,0.01000
2017,8,70.00000,63.00000,60.00000,107.00000,129.00000,153.00000,0.00000,0.00000,0.00000
2017,8,71.00000,63.00000,61.00000,101.00000,126.00000,151.00000,0.00000,0.00000,0.00000
2017,8,74.00000,65.00000,64.00000,99.00000,134.00000,157.00000,0.00000,0.00000,0.00000
2017,8,74.00000,66.00000,64.00000,98.00000,119.00000,146.00000,0.00000,0.00000,0.00000
2017,8,72.00000,64.00000,63.00000,74.00000,97.00000,120.00000,0.00000,0.00000,0.00000
2017,8,71.00000,65.00000,63.00000,80.00000,118.00000,116.00000,0.00000,0.00000,0.00000
2017,8,70.00000,63.00000,62.00000,61.00000,93.00000,98.00000,0.00000,0.00000,0.00000
2017,8,71.00000,63.00000,61.00000,101.00000,127.00000,146.00000,0.00000,0.01000,0.00000
2017,8,73.00000,65.00000,64.00000,83.00000,115.00000,124.00000,0.00000,0.00000,0.00000
2017,8,76.00000,67.00000,67.00000,96.00000,119.00000,139.00000,0.00000,0.00000,0.00000
2017,8,76.00000,67.00000,67.00000,85.00000,112.00000,136.00000,0.00000,0.00000,0.00000
2017,8,76.00000,67.00000,67.00000,82.00000,116.00000,140.00000,0.00000,0.00000,0.00000
2017,8,78.00000,68.00000,68.00000,64.00000,94.00000,117.00000,0.00000,0.00000,0.00000
2017,8,75.00000,68.00000,67.00000,94.00000,120.00000,133.00000,0.00000,0.00000,0.00000
2017,8,69.00000,64.00000,61.00000,63.00000,79.00000,68.00000,0.00000,0.00000,0.00000
2017,9,70.00000,63.00000,61.00000,80.00000,103.00000,125.00000,0.00000,0.00000,0.00000
2017,9,74.00000,65.00000,65.00000,76.00000,105.00000,126.00000,0.00000,0.00000,0.00000
2017,9,76.00000,67.00000,67.00000,70.00000,100.00000,121.00000,0.00000,0.00000,0.00000
2017,9,76.00000,67.00000,67.00000,66.00000,100.00000,120.00000,0.00000,0.00000,0.00000
2017,9,76.00000,69.00000,69.00000,53.00000,85.00000,103.00000,0.00000,0.00000,0.00000
2017,9,73.00000,64.00000,64.00000,37.00000,73.00000,89.00000,0.00000,0.00000,0.00000
2017,9,72.00000,65.00000,65.00000,51.00000,86.00000,97.00000,0.00000,0.00000,0.00000
2017,9,69.00000,63.00000,63.00000,61.00000,93.00000,90.00000,0.00000,0.04000,0.00000
2017,9,65.00000,59.00000,59.00000,31.00000,49.00000,63.00000,0.00000,0.04000,0.00000
2017,9,67.00000,61.00000,59.00000,76.00000,100.00000,115.00000,0.01000,0.00000,0.04000
2017,9,72.00000,63.00000,64.00000,70.00000,100.00000,110.00000,0.00000,0.00000,0.00000
2017,9,70.00000,63.00000,62.00000,65.00000,95.00000,104.00000,0.00000,0.00000,0.00000
2017,9,68.00000,61.00000,61.00000,43.00000,69.00000,79.00000,0.01000,0.03000,0.00000
2017,9,61.00000,57.00000,55.00000,16.00000,28.00000,28.00000,0.12000,0.14000,0.05000
2017,9,51.00000,48.00000,45.00000,46.00000,35.00000,43.00000,3.14000,3.65000,3.75000
2017,9,49.00000,45.00000,43.00000,61.00000,111.00000,118.00000,0.02000,0.02000,0.10000
2017,9,56.00000,50.00000,49.00000,59.00000,90.00000,84.00000,0.00000,0.00000,0.00000
2017,9,64.00000,59.00000,57.00000,70.00000,88.00000,91.00000,0.00000,0.00000,0.00000
2017,9,49.00000,45.00000,43.00000,34.00000,32.00000,30.00000,0.36000,0.42000,0.50000
2017,9,55.00000,51.00000,49.00000,66.00000,92.00000,100.00000,0.01000,0.01000,0.00000
2017,9,44.00000,43.00000,42.00000,39.00000,75.00000,93.00000,1.11000,1.08000,0.84000
2017,9,40.00000,37.00000,35.00000,63.00000,81.00000,70.00000,0.33000,0.52000,0.72000
2017,9,39.00000,36.00000,35.00000,-1.00000,41.00000,47.00000,0.73000,0.68000,0.68000
2017,9,40.00000,36.00000,33.00000,24.00000,27.00000,24.00000,1.80000,1.74000,1.48000
2017,9,43.00000,39.00000,36.00000,71.00000,80.00000,62.00000,0.01000,0.01000,0.05000
2017,9,50.00000,43.00000,42.00000,58.00000,78.00000,57.00000,0.00000,0.00000,0.00000
2017,9,54.00000,47.00000,47.00000,53.00000,82.00000,70.00000,0.00000,0.00000,0.00000
2017,9,55.00000,51.00000,50.00000,23.00000,45.00000,36.00000,0.00000,0.00000,0.00000
2017,9,55.00000,50.00000,47.00000,51.00000,73.00000,61.00000,0.00000,0.00000,0.00000
2017,9,53.00000,48.00000,46.00000,17.00000,37.00000,36.00000,0.08000,0.17000,0.25000
