5 10

 -0.6005345754 -1.6161904527 -0.14454978056  0.5585188351 -2.7907961946
 -1.2070344045  0.7977480356  0.27930230707 -0.8691614265 -0.8385430143
 -0.4986093398 -1.2132386226 -1.21747950036 -0.1798111780  0.8865682074
 -0.1051524887 -0.4454212402  0.31084387164 -0.7091387926  2.0675843223
  0.6289215733  0.3590864606  0.63673134828 -1.4936639730  0.7815390174
 -0.1900145868 -2.6228099277  0.94961389776 -1.0587291508 -1.9747212013
 -0.7667081010  3.4721076606  0.58744974610 -1.6639288194  2.1488886713
 -0.1102555274 -1.9683381063  1.08211150277 -2.5796379557  1.6694451731
  0.6396923408 -0.6504581020 -0.24355436500  0.9157467813  0.8463763485
  0.5634922233  1.4647377385  0.78080941926 -0.6786108713 -0.4138713003
 -2.3283554768 -0.9588306123 -0.08797494591 -1.1846384266 -1.2819835497

-1.6319205150
-0.7793806783
 0.8112459468
 1.8380467403
 0.9890227127