Year,Water_Year_Date,Julian_Date,Temperature,Elevation,Radiation,Precipitation,,,,,
2017,187,94,33.5745125,5466.00000,94.15166667,0,,,,,
2017,188,95,40.88260625,5466.00000,116.4543958,0,,,,,
2017,222,129,58.2933125,5466.00000,175.1457083,0,,,,,
2017,226,133,43.30236875,5466.00000,-7.090625,0,,,,,
2017,227,134,49.00619375,5466.00000,0,0,,,,,
2017,228,135,53.29968125,5466.00000,0,0,,,,,
2017,229,136,49.38216875,5466.00000,0,0.13,,,,,
2017,230,137,34.4168375,5466.00000,0,1.43,,,,,
2017,231,138,35.79155,5466.00000,0,0,,,,,
2017,232,139,43.5224375,5466.00000,0,0,,,,,
2017,233,140,49.98048125,5466.00000,0,0,,,,,
2017,234,141,50.78744375,5466.00000,0,0.48,,,,,
2017,235,142,55.0535375,5466.00000,0,0.01,,,,,
2017,236,143,60.9760625,5466.00000,0,0,,,,,
2017,237,144,65.2765625,5466.00000,0,0,,,,,
2017,238,145,55.02425,5466.00000,0,0.01,,,,,
2017,239,146,53.0140625,5466.00000,0,0,,,,,
2017,240,147,49.72955,5466.00000,0,0,,,,,
2017,241,148,58.946375,5466.00000,0,0,,,,,
2017,242,149,63.8365625,5466.00000,0,0,,,,,
2017,243,150,66.94746875,5466.00000,97.08734375,0,,,,,
2017,197,104,42.32343125,5466.00000,-2.721770833,0,,,,,
2017,198,105,39.84265625,5466.00000,0,0,,,,,
2017,199,106,52.18379375,5466.00000,0,0,,,,,
2017,200,107,57.595625,5466.00000,0,0,,,,,
2017,201,108,49.41936875,5466.00000,0,1.28,,,,,
2017,202,109,44.73585313,5466.00000,0,0.2,,,,,
2017,203,110,43.75521875,5466.00000,0,0.84,,,,,
2017,204,111,38.76396875,5466.00000,0,0.59,,,,,
2017,205,112,45.34739375,5466.00000,0,0,,,,,
2017,206,113,51.77735,5466.00000,0,0,,,,,
2017,207,114,42.31766563,5466.00000,0,1.05,,,,,
2017,208,115,37.58624375,5466.00000,0,1.58,,,,,
2017,209,116,41.65919375,5466.00000,0,0.34,,,,,
2017,210,117,38.38360625,5466.00000,0,0.64,,,,,
2017,211,118,32.994425,5466.00000,0,0.43,,,,,
2017,212,119,40.1538875,5466.00000,0,0,,,,,
2017,213,120,32.1290375,5466.00000,0,0,,,,,
2017,214,121,32,5466.00000,0,0,,,,,
2017,215,122,32.7911,5466.00000,0,0.11,,,,,
2017,216,123,50.17083125,5466.00000,0,0.01,,,,,
2017,217,124,57.34686875,5466.00000,0,0,,,,,
2017,218,125,66.203,5466.00000,103.7090104,0,,,,,
2017,219,126,65.42375,5466.00000,93.35658333,0.02,,,,,
