Simulation# 						-0.00762763004738889
Impervious Land Use (Discreet)		-0.453575796149661
Pervious Percent					-0.348260053917909
Pervious Land Use (Discreet)		-0.00211566745970033
Soil Type (Discreet)				0.17939084182042
Compaction (Discreet)				1.34314160733612
Geographic Region (Discreet)		0.015369614131681
