Year,Water_Year_Date,Julian_Date,ARBRC_Temperature,TMC_Temperature,KFC_Temperature,ARBRC_Radiation,TMC_Radiation,KFC_Radiation,ARBRC_Precipitation,TMc_Precipitation,KFC_Precipitation
2015,77,350,21.50679,20.12746,16.09606485,8.72346875,-23.520625,0.1433125,0.49,0.84,0.548086957
2015,78,351,21.29154,18.16537,17.44924483,-32.6354375,-14.76178125,0,0.01,0.01,0.567652174
2015,79,352,35.44886,32.33433,34.96668839,-47.80297917,-6.338458333,-6.415416667,0,0,0.25426087
2015,80,353,41.11598,38.14475,40.26297463,-56.12270833,-29.49790625,-18.6953125,0,0,0
2015,81,354,32.25189,30.57009,27.71510928,-11.79009375,-7.24128125,-13.86189583,0.82,1.22,1.535342466
2015,82,355,33.62152,31.97639,29.44351244,2.2323125,-6.486791667,0,0,0.03,1.578082192
2015,83,356,30.70670,29.79650,23.66290176,-8.923270833,-16.17038542,0,2.06,3.75,1.578082192
2015,84,357,25.22966,23.60613,19.59641155,-10.10227083,-25.90551042,0,0.22,0.61,1.578082192
2015,85,358,23.73230,21.29504,18.82035232,-37.24208333,-10.5671875,31.1934375,0.35,0,0.741134819
2015,86,359,19.99951,17.96833,14.80549223,-19.57239583,-10.48960417,0,0.16,0.22,0.113243968
2015,87,360,11.65346,6.50750,10.07648754,-82.52854167,36.87977083,0,0,0,0.113243968
2015,88,361,11.27999,5.66602,8.885368909,-69.00947917,41.23604167,0,0,0,0.113243968
2015,89,362,14.25746,12.48266,9.761795074,-9.3926875,-9.764135417,-7.402552083,0.04,0.03,0.091375222
2015,90,363,14.96096,13.22713,9.971059222,13.6088125,-15.70257292,-4.139583333,0.18,0.17,0.174910587
2015,91,364,16.10660,13.40921,10.81390202,3.136645833,-8.56025,-21.74675,0.09,0.1,0.133258427
2015,92,365,11.15859,6.79083,10.14258142,-52.271875,23.122625,9.575354167,0,0,0.04
2016,93,1,18.23579,17.00763,18.87580051,-91.04302083,62.20546875,-20.80970833,0,0,0
2016,94,2,19.66631,18.42466,21.67900989,-47.83589583,-6.158052083,-17.05194792,0,0,0
2016,98,6,35.14715,33.24091,30.64393369,-2.027541667,-1.111895833,4.712614583,0.56,0.62,0.508599034
2016,99,7,30.87796,29.76213,25.6962725,16.30625,33.40735417,2.153947917,0.33,0.53,0.51942029
2016,100,8,28.20093,27.28783,24.93608302,-10.01219792,-2.725885417,0,0.24,0.28,0.51942029
2016,101,9,26.90465,25.47725,25.5932629,-19.88364583,-10.57366667,0,0.01,0.01,0.51942029
2016,102,10,22.08592,19.44907,17.62936185,-4.978979167,-3.029197917,0,0.05,0.09,0.51942029
2016,103,11,17.13037,12.79914,16.02048123,-72.03614583,-8.30403125,0,0.01,0,0.51942029
2016,104,12,20.13665,15.95203,18.80624175,-61.80210417,-1.826291667,0,0,0,0.51942029
2016,105,13,23.71070,22.44965,24.36587557,-39.31064583,-0.960979167,0,0,0,0.51942029
2016,106,14,27.13528,24.59280,22.56919436,-22.22079167,-15.26777083,0,0.16,0.29,0.51942029
2016,107,15,27.83212,26.64978,23.55449019,-0.776427083,-5.277677083,0,0.65,0.91,0.51942029
2016,108,16,29.64013,27.94715,25.22011451,-4.1435,-7.930802083,0,0.4,0.58,0.51942029
2016,109,17,33.85942,30.79233,28.75128074,-30.73373958,-18.69333333,0,0.07,0.12,0.51942029
2016,110,18,34.08562,32.26175,29.22795344,2.279166667,2.073427083,0,1.56,1.81,0.51942029
2016,111,19,29.58296,27.79865,24.98570771,2.460739583,0.809302083,0,0.04,0.16,0.51942029
2016,112,20,30.14083,28.09114,24.35153969,-20.92883333,-6.215276042,0,0.37,0.82,0.51942029
2016,113,21,26.12263,21.17744,25.06705677,-64.23578125,-27.81813542,0,0,0,0.51942029
2016,114,22,31.96308,28.13083,31.42332147,-44.32588542,-25.04691667,0,0,0,0.51942029
2016,115,23,35.03499,32.27146,33.40524,-10.17972917,-4.4498125,0,0.89,1.2,0.51942029
2016,116,24,29.52374,28.66066,26.65700,-10.65041667,-8.71375,0,0.53,0.78,0.51942029
2016,117,25,25.06304,23.62925,21.59161,-26.21835417,-27.00109375,0,0.26,0.2,0.51942029
2016,118,26,21.95699,18.40248,16.45627,-45.52871875,-0.559260417,0,0,0,0.51942029
2016,119,27,23.15851,19.53541,19.95504,-62.34648958,-11.95207292,-18.40697917,0,0,0.302995169
2016,128,36,26.12999,24.38529,22.1998014,-31.93619792,-6.852916667,-29.99820313,0.24,0.26,0.36
2016,307,215,79.52881,71.38813,71.18983975,121.0290625,139.5074271,95.433125,0,0,0
2016,308,216,76.37150,69.19100,69.34320461,125.5644792,127.4061458,135.4517708,0,0,0
