Year_Julian,Month_Julian,KFC_Precipitation_in,TMC_Precipitation_in,ARBRC_Precipitation_in,KFC_Temperature_F,TMC_Temperature_F,ARBRC_Temperature_F,KFC_Net_Radiation_Wm2,TMC_Net_Radiation_Wm2,ARBRC_Net_Radiation_Wm2,KFC_Adiabatic_Lapse_Prediction
2015,12,0.22,0.33,0.19,31,20,22,0,-24,9,19
2015,12,0.22,0,0,32,18,21,0,-15,-33,17
2015,12,0.1,0,0,32,32,35,-6,-6,-48,31
2015,12,0,0,0,35,38,41,-19,-29,-56,37
2015,12,0.6,0.48,0.32,30,31,32,-14,-7,-12,29
2015,12,0.62,0.01,0,32,32,34,0,-6,2,31
2015,12,0.62,1.48,0.81,32,30,31,0,-16,-9,28
2015,12,0.62,0.24,0.09,32,24,25,0,-26,-10,22
2015,12,0.29,0,0.14,31,21,24,31,-11,-37,20
2015,12,0.04,0.09,0.06,32,18,20,0,-10,-20,17
2015,12,0.04,0,0,32,7,12,0,37,-83,5
2015,12,0.04,0,0,32,6,11,0,41,-69,4
2015,12,0.04,0.01,0.02,28,12,14,-7,-10,-9,11
2015,12,0.07,0.07,0.07,31,13,15,-4,-16,14,12
2015,12,0.05,0.04,0.04,23,13,16,-22,-9,3,12
2015,12,0.02,0,0,23,7,11,10,23,-52,5
2016,1,0,0,0,26,17,18,-21,62,-91,15
2016,1,0,0,0,28,18,20,-17,-6,-48,17
2016,1,0.2,0.24,0.22,33,33,35,5,-1,-2,32
2016,1,0.2,0.21,0.13,32,30,31,2,33,16,28
2016,1,0.2,0.11,0.09,32,27,28,0,-3,-10,26
2016,1,0.2,0,0,32,25,27,0,-11,-20,24
2016,1,0.2,0.04,0.02,32,19,22,0,-3,-5,18
2016,1,0.2,0,0,32,13,17,0,-8,-72,11
2016,1,0.2,0,0,32,16,20,0,-2,-62,14
2016,1,0.2,0,0,32,22,24,0,-1,-39,21
2016,1,0.2,0.11,0.06,32,25,27,0,-15,-22,23
2016,1,0.2,0.36,0.26,32,27,28,0,-5,-1,25
2016,1,0.2,0.23,0.16,32,28,30,0,-8,-4,26
2016,1,0.2,0.05,0.03,32,31,34,0,-19,-31,29
2016,1,0.2,0.71,0.61,32,32,34,0,2,2,31
2016,1,0.2,0.06,0.02,32,28,30,0,1,2,26
2016,1,0.2,0.32,0.15,32,28,30,0,-6,-21,27
2016,1,0.2,0,0,32,21,26,0,-28,-64,20
2016,1,0.2,0,0,31,28,32,0,-25,-44,27
2016,2,0.14,0.1,0.09,26,24,26,-30,-7,-32,23
2016,7,0,0,0,40,66,73,161,158,163,64
2016,7,0,0,0,32,68,75,158,161,137,66
2016,7,0,0,0,32,66,73,178,162,162,64
2016,7,0,0,0,32,63,70,177,164,165,61
2016,7,0,0,0,32,63,69,179,163,163,61
2016,7,0,0,0,32,68,76,166,158,141,66
2016,7,0,0,0,32,73,78,158,136,137,71
2016,7,0,0,0,32,67,70,134,137,126,65
2016,7,0,0,0,32,51,56,172,150,161,49
2016,7,0,0,0,32,58,66,176,151,151,56
2016,7,0,0,0,46,61,68,179,151,153,59
2016,8,0,0,0,51,71,80,95,140,121,70
2016,8,0,0,0,54,69,76,135,127,126,68
