Water_Year,Month,ARBRC_Temperature_F,TMC_Temperature_F,KFC_Temperature_F,ARBRC_Radiation_Wm2,TMC_Radiation_Wm2,KFC_Radiation_Wm2,ARBRC_Precipitation_in_corrected,TMC_Precipitation_in_corrected,KFC_Precipitation_in_corrected
2017,4,33.57451,31.12807,27.67031,94.15166667,77.00853125,55.67416667,0.00000,0.00000,0.00000
2017,4,40.88261,37.00535,34.52240,116.4543958,96.73102083,93.34402083,0.00000,0.00000,0.00000
2017,4,42.32343,40.56073,36.49391,-2.721770833,87.479625,77.06595833,0.00000,0.00000,0.00000
2017,4,39.84266,36.94629,34.06923,0,119.6021875,112.2853125,0.00000,0.00000,0.00394
2017,4,52.18379,48.20478,46.61214,0,134.7492708,113.6276979,0.00000,0.00000,0.00000
2017,4,57.59563,55.62446,51.64458,0,118.9992396,106.5875833,0.00000,0.00000,0.00000
2017,4,49.41937,46.78640,44.02205,0,50.59663542,46.67780208,0.50394,0.67323,0.59055
2017,4,44.73585,42.26954,38.61909,0,130.4626771,137.5600417,0.07874,0.09843,0.10630
2017,4,43.75522,40.16041,37.98088,0,82.94265625,65.53640625,0.33071,0.38189,0.37402
2017,4,38.76397,36.57999,32.89012,0,120.3203438,69.60386458,0.23228,0.23622,0.19291
2017,4,45.34739,41.63831,38.47734,0,135.6918542,136.0355208,0.00000,0.00394,0.01575
2017,4,51.77735,47.67464,47.26303,0,106.5701042,91.36341667,0.00000,0.00000,0.00000
2017,4,42.31767,38.96983,36.61033,0,17.3449375,16.12155208,0.41339,0.53543,0.74409
2017,4,37.58624,35.08190,32.70082,0,76.27509375,3.698447917,0.62205,0.88583,0.93701
2017,4,41.65919,39.17896,34.67983,0,76.97780208,36.67040625,0.13386,0.15354,0.25591
2017,4,38.38361,36.55156,32.36396,0,86.74441667,26.5264375,0.25197,0.38189,0.62598
2017,4,32.99443,31.56483,28.47373,0,81.314625,29.20009375,0.16929,0.25984,0.27953
2017,4,40.15389,37.47434,32.86749,0,168.8262813,66.18911458,0.00000,0.00000,0.00000
2017,4,46.356,42.51733,37.69588,0,119.729375,86.2695,0.01433,0.00000,0.00000
2017,5,49.082,45.24329,41.31084,0,122.1074688,152.0004271,0.01495,0.00000,0.01181
2017,5,49.378,45.53986,42.10423,0,87.67648958,108.6513854,0.01402,0.05118,0.08268
2017,5,50.17083,45.70177,43.74733,0,142.7103125,150.2601146,0.00394,0.00394,0.00394
2017,5,57.34687,51.62401,50.12396,0,148.4452813,153.6490729,0.00000,0.00000,0.00000
2017,5,66.20300,59.79916,59.69774,103.7090104,159.1414479,148.0550625,0.00000,0.00000,0.00000
2017,5,65.42375,60.56881,58.45400,93.35658333,80.15182292,42.58390625,0.00787,0.00394,0.00000
2017,5,58.29331,53.52502,51.61550,175.1457083,157.7353646,149.8421667,0.00000,0.00394,0.00787
2017,5,43.30237,40.72224,38.48009,-7.090625,90.51811458,115.2661771,0.00000,0.00000,0.00000
2017,5,49.00619,45.29073,44.93645,0,151.8978854,132.4593438,0.00000,0.00394,0.00000
2017,5,53.29968,49.79066,49.24363,0,140.3239583,113.89375,0.00000,0.00000,0.00000
2017,5,49.38217,46.80744,43.63220,0,123.4231979,123.3872917,0.05118,0.07874,0.08661
2017,5,34.41684,32.84587,29.27606,0,56.69966667,8.60146875,0.56299,0.84646,1.09449
2017,5,35.79155,33.97301,29.67296,0,123.5569271,33.89944792,0.00000,0.01575,0.07480
2017,5,43.52244,41.01410,36.43822,0,92.78422917,98.05611458,0.00000,0.00000,0.00394
2017,5,49.98048,45.38508,42.58882,0,140.2489583,110.9311354,0.00000,0.00000,0.01181
2017,5,50.78744,47.59003,45.03359,0,91.55767708,88.85614583,0.18898,0.16929,0.08661
2017,5,55.05354,50.17201,48.52807,0,142.7769167,147.1880104,0.00394,0.00394,0.01575
2017,5,60.97606,54.42864,54.01867,0,161.6373958,167.0555208,0.00000,0.00000,0.00000
2017,5,65.27656,59.42906,58.04334,0,137.6002708,124.4753021,0.00000,0.00000,0.00000
2017,5,55.02425,51.41780,48.72191,0,114.2109271,123.32,0.00394,0.01181,0.02362
2017,5,53.01406,48.34711,46.68892,0,72.21971875,85.69927083,0.00000,0.00394,0.00000
2017,5,49.72955,46.27079,44.75467,0,160.18375,148.1822917,0.00000,0.00394,0.00787
2017,5,58.94638,52.09473,53.26918,0,166.0175,169.3074271,0.00000,0.00000,0.00000
2017,5,63.83656,56.46423,58.61489,0,176.2624792,175.1006458,0.00000,0.00000,0.00000
2017,5,66.94747,58.87102,60.01567,97.08734375,177.9180521,164.3419063,0.00000,0.00000,0.00000
